  ABINIT 9.5.1
  
 DeprecationWarning: 

     The files file has been deprecated in Abinit9 and will be removed in Abinit10.
     Use the syntax `abinit t01.abi` where t01.abi is an input with pseudopotentials e.g.

            pseudos = "al.psp8, as.psp8"


  Give name for formatted input file: 
/home/fgoudreault/Workspace/abisuite/abisuite/unittests/test_workflows/test_files/abinit_si/nc/gw_ngkpt_convergence/scf_run/ngkpt_8_8_8/ngkpt_8_8_8.abi
  Give name for formatted output file:
/home/fgoudreault/Workspace/abisuite/abisuite/unittests/test_workflows/test_files/abinit_si/nc/gw_ngkpt_convergence/scf_run/ngkpt_8_8_8/ngkpt_8_8_8.abo
  Give root name for generic input files:
/home/fgoudreault/Workspace/abisuite/abisuite/unittests/test_workflows/test_files/abinit_si/nc/gw_ngkpt_convergence/scf_run/ngkpt_8_8_8/input_data/idat_ngkpt_8_8_8
  Give root name for generic output files:
/home/fgoudreault/Workspace/abisuite/abisuite/unittests/test_workflows/test_files/abinit_si/nc/gw_ngkpt_convergence/scf_run/ngkpt_8_8_8/run/output_data/odat_ngkpt_8_8_8
  Give root name for generic temporary files:
/home/fgoudreault/Workspace/abisuite/abisuite/unittests/test_workflows/test_files/abinit_si/nc/gw_ngkpt_convergence/scf_run/ngkpt_8_8_8/run/output_data/tmp_ngkpt_8_8_8

.Version 9.5.1 of ABINIT 
.(MPI version, prepared for a x86_64_linux_gnu9.3 computer) 

.Copyright (C) 1998-2021 ABINIT group . 
 ABINIT comes with ABSOLUTELY NO WARRANTY.
 It is free software, and you are welcome to redistribute it
 under certain conditions (GNU General Public License,
 see ~abinit/COPYING or http://www.gnu.org/copyleft/gpl.txt).

 ABINIT is a project of the Universite Catholique de Louvain,
 Corning Inc. and other collaborators, see ~abinit/doc/developers/contributors.txt .
 Please read https://docs.abinit.org/theory/acknowledgments for suggested
 acknowledgments of the ABINIT effort.
 For more information, see https://www.abinit.org .

.Starting date : Sat 27 Nov 2021.
- ( at 00h28 )
  

 ++++++++++++++++++++++++++++++++++++++++++++++++++++++++++++++++++++++++++++++

 === Build Information === 
  Version       : 9.5.1
  Build target  : x86_64_linux_gnu9.3
  Build date    : 20210420

 === Compiler Suite === 
  C compiler       : gnu9.3
  C++ compiler     : gnu9.3
  Fortran compiler : gnu9.3
  CFLAGS           : -g -O2 -mtune=native -march=native
  CXXFLAGS         : -g -O2 -mtune=native -march=native
  FCFLAGS          : -g -ffree-line-length-none     -I/home/fgoudreault/Workspace/abinit ...
  FC_LDFLAGS       : 

 === Optimizations === 
  Debug level        : basic
  Optimization level : standard
  Architecture       : unknown_unknown

 === Multicore === 
  Parallel build : yes
  Parallel I/O   : yes
  openMP support : 
  GPU support    : 

 === Connectors / Fallbacks === 
  LINALG flavor  : netlib
  FFT flavor     : goedecker
  HDF5           : yes
  NetCDF         : yes
  NetCDF Fortran : yes
  LibXC          : yes
  Wannier90      : no

 === Experimental features === 
  Exports             : 
  GW double-precision : 

 ++++++++++++++++++++++++++++++++++++++++++++++++++++++++++++++++++++++++++++++


 ++++++++++++++++++++++++++++++++++++++++++++++++++++++++++++++++++++++++++++++
 Default optimizations:
   -O2 -mtune=native -march=native


 Optimizations for 43_ptgroups:
   -O0


 ++++++++++++++++++++++++++++++++++++++++++++++++++++++++++++++++++++++++++++++


 ++++++++++++++++++++++++++++++++++++++++++++++++++++++++++++++++++++++++++++++
 CPP options activated during the build:

                    CC_GNU                   CXX_GNU                    FC_GNU
 
 HAVE_FC_ALLOCATABLE_DT...             HAVE_FC_ASYNC         HAVE_FC_BACKTRACE
 
  HAVE_FC_COMMAND_ARGUMENT      HAVE_FC_COMMAND_LINE        HAVE_FC_CONTIGUOUS
 
           HAVE_FC_CPUTIME              HAVE_FC_EXIT             HAVE_FC_FLUSH
 
             HAVE_FC_GAMMA            HAVE_FC_GETENV   HAVE_FC_IEEE_ARITHMETIC
 
   HAVE_FC_IEEE_EXCEPTIONS          HAVE_FC_INT_QUAD             HAVE_FC_IOMSG
 
     HAVE_FC_ISO_C_BINDING  HAVE_FC_ISO_FORTRAN_2008        HAVE_FC_LONG_LINES
 
        HAVE_FC_MOVE_ALLOC  HAVE_FC_ON_THE_FLY_SHAPE           HAVE_FC_PRIVATE
 
         HAVE_FC_PROTECTED           HAVE_FC_SHIFTLR         HAVE_FC_STREAM_IO
 
            HAVE_FC_SYSTEM          HAVE_FORTRAN2003                 HAVE_HDF5
 
             HAVE_HDF5_MPI        HAVE_LIBPAW_ABINIT      HAVE_LIBTETRA_ABINIT
 
                HAVE_LIBXC         HAVE_LINALG_AXPBY        HAVE_LINALG_GEMM3M
 
                  HAVE_MPI                 HAVE_MPI2         HAVE_MPI2_INPLACE
 
       HAVE_MPI_IALLGATHER       HAVE_MPI_IALLREDUCE        HAVE_MPI_IALLTOALL
 
       HAVE_MPI_IALLTOALLV           HAVE_MPI_IBCAST         HAVE_MPI_IGATHERV
 
        HAVE_MPI_INTEGER16               HAVE_MPI_IO HAVE_MPI_TYPE_CREATE_S...
 
               HAVE_NETCDF       HAVE_NETCDF_DEFAULT       HAVE_NETCDF_FORTRAN
 
   HAVE_NETCDF_FORTRAN_MPI           HAVE_NETCDF_MPI             HAVE_OS_LINUX
 
         HAVE_TIMER_ABINIT                                                      
 ++++++++++++++++++++++++++++++++++++++++++++++++++++++++++++++++++++++++++++++

- input  file    -> /home/fgoudreault/Workspace/abisuite/abisuite/unittests/test_workflows/test_files/abinit_si/nc/gw_ngkpt_convergence/scf_run/ngkpt_8_8_8/ngkpt_8_8_8.abi
- output file    -> /home/fgoudreault/Workspace/abisuite/abisuite/unittests/test_workflows/test_files/abinit_si/nc/gw_ngkpt_convergence/scf_run/ngkpt_8_8_8/ngkpt_8_8_8.abo
- root for input  files -> /home/fgoudreault/Workspace/abisuite/abisuite/unittests/test_workflows/test_files/abinit_si/nc/gw_ngkpt_convergence/scf_run/ngkpt_8_8_8/input_data/idat_ngkpt_8_8_8
- root for output files -> /home/fgoudreault/Workspace/abisuite/abisuite/unittests/test_workflows/test_files/abinit_si/nc/gw_ngkpt_convergence/scf_run/ngkpt_8_8_8/run/output_data/odat_ngkpt_8_8_8

 Netcdf library supports MPI-IO
-instrng: 35 lines of input have been read from file /home/fgoudreault/Workspace/abisuite/abisuite/unittests/test_workflows/test_files/abinit_si/nc/gw_ngkpt_convergence/scf_run/ngkpt_8_8_8/ngkpt_8_8_8.abi


 Please give name of formatted atomic psp file (and finish with a newline character)
 For atom type 1, psp file is /home/fgoudreault/Workspace/abisuite/abisuite/unittests/test_workflows/test_files/pseudos/Si.psp8
  read the values zionpsp=  4.0 , pspcod=   8 , lmax=   2

 inpspheads: deduce mpsang = 3, n1xccc = 2501.

======================================================= 
 invars1m : enter jdtset= 0

 symlatt: the Bravais lattice is cF (face-centered cubic)
  xred   is defined in input file
 ingeo: takes atomic coordinates from input array xred

--- !COMMENT
src_file: m_ingeo.F90
src_line: 900
message: |
    The tolerance on symmetries =   1.000E-05 is bigger than 1.0e-8.
    In order to avoid spurious effects, the atomic coordinates have been
    symmetrized before storing them in the dataset internal variable.
    So, do not be surprised by the fact that your input variables (xcart, xred, ...)
    do not correspond exactly to the ones echoed by ABINIT, the latter being used to do the calculations.
    This is not a problem per se.
    Still, in order to avoid this symmetrization (e.g. for specific debugging/development), decrease tolsym to 1.0e-8 or lower,
    or (much preferred) use input primitive vectors that are accurate to better than 1.0e-8.
    This message will only be printed once, even if there are other datasets where tolsym is bigger than 1.0e-8.
...


 symlatt: the Bravais lattice is cF (face-centered cubic)

 symlatt: the Bravais lattice is cF (face-centered cubic)
 symspgr: spgroup= 227  Fd -3 m   (=Oh^7)
 symspgr: optical characteristics = isotropic

--- !WARNING
src_file: m_mpinfo.F90
src_line: 2498
message: |
    nkpt*nsppol (85) is not a multiple of nproc_spkpt (4)
    The k-point parallelisation is inefficient. (Ignore this warning if this is not a GS run)
...

 For input ecut=  8.000000E+00 best grid ngfft=      20      20      20
       max ecut=  9.498498E+00

 ==== FFT mesh ====
  FFT mesh divisions ........................    20   20   20
  Augmented FFT divisions ...................    21   21   20
  FFT algorithm .............................   112
  FFT cache size ............................    16
 getmpw: optimal value of mpw= 298

 Symmetries : space group Fd -3 m (#227); Bravais cF (face-center cubic)

 getdim_nloc : deduce lmnmax  =  18, lnmax  =   6,
                      lmnmaxso=  18, lnmaxso=   6.
memory: analysis of memory needs
================================================================================
 Values of the parameters that define the memory need of the present run
     intxc =       0    ionmov =       0      iscf =       7    lmnmax =       6
     lnmax =       6     mgfft =      20  mpssoang =       3    mqgrid =    3001
     natom =       2  nloc_mem =       1    nspden =       1   nspinor =       1
    nsppol =       1      nsym =      48    n1xccc =    2501    ntypat =       1
    occopt =       1   xclevel =       1
-    mband =           6        mffmem =           1         mkmem =          22
       mpw =         298          nfft =        8000          nkpt =          85
================================================================================
P This job should need less than                       3.774 Mbytes of memory.
  Rough estimation (10% accuracy) of disk space for files :
_ WF disk file :      2.321 Mbytes ; DEN or POT disk file :      0.063 Mbytes.
================================================================================

 Biggest array : f_fftgr(disk), with      0.9786 MBytes.
 memana : allocated an array of      0.979 Mbytes, for testing purposes.
 memana: allocated       3.774Mbytes, for testing purposes. 
 The job will continue.
--------------------------------------------------------------------------------
------------- Echo of variables that govern the present computation ------------
--------------------------------------------------------------------------------
-
- outvars: echo of selected default values                                      
-   iomode0 =  3 , fftalg0 =112 , wfoptalg0 =  0
-
- outvars: echo of global parameters not present in the input file              
-  max_nthreads =    0
-
 -outvars: echo values of preprocessed input variables --------
 
 These variables are accessible in NetCDF format (/home/fgoudreault/Workspace/abisuite/abisuite/unittests/test_workflows/test_files/abinit_si/nc/gw_ngkpt_convergence/scf_run/ngkpt_8_8_8/run/output_data/odat_ngkpt_8_8_8_OUT.nc)

            acell      7.2078778121E+00  7.2078778121E+00  7.2078778121E+00 Bohr
              amu      2.80855000E+01
           diemac      1.20000000E+01
             ecut      8.00000000E+00 Hartree
-          fftalg         112
              ixc       -1012
              kpt     -6.25000000E-02 -6.25000000E-02  0.00000000E+00
                      -6.25000000E-02 -1.87500000E-01  0.00000000E+00
                      -1.25000000E-01 -1.25000000E-01  0.00000000E+00
                      -6.25000000E-02 -1.25000000E-01  6.25000000E-02
                      -6.25000000E-02 -3.12500000E-01  0.00000000E+00
                      -1.25000000E-01 -2.50000000E-01  0.00000000E+00
                      -6.25000000E-02 -2.50000000E-01  6.25000000E-02
                      -1.87500000E-01 -1.87500000E-01  0.00000000E+00
                      -1.25000000E-01 -1.87500000E-01  6.25000000E-02
                      -6.25000000E-02 -1.87500000E-01  1.25000000E-01
                      -6.25000000E-02 -4.37500000E-01  0.00000000E+00
                      -1.25000000E-01 -3.75000000E-01  0.00000000E+00
                      -6.25000000E-02 -3.75000000E-01  6.25000000E-02
                      -1.87500000E-01 -3.12500000E-01  0.00000000E+00
                      -1.25000000E-01 -3.12500000E-01  6.25000000E-02
                      -6.25000000E-02 -3.12500000E-01  1.25000000E-01
                      -2.50000000E-01 -2.50000000E-01  0.00000000E+00
                      -1.87500000E-01 -2.50000000E-01  6.25000000E-02
                      -1.25000000E-01 -2.50000000E-01  1.25000000E-01
                      -6.25000000E-02 -2.50000000E-01  1.87500000E-01
                      -6.25000000E-02  4.37500000E-01  0.00000000E+00
                      -1.25000000E-01  5.00000000E-01  0.00000000E+00
                      -6.25000000E-02  5.00000000E-01  6.25000000E-02
                      -1.87500000E-01 -4.37500000E-01  0.00000000E+00
                      -1.25000000E-01 -4.37500000E-01  6.25000000E-02
                      -6.25000000E-02 -4.37500000E-01  1.25000000E-01
                      -2.50000000E-01 -3.75000000E-01  0.00000000E+00
                      -1.87500000E-01 -3.75000000E-01  6.25000000E-02
                      -1.25000000E-01 -3.75000000E-01  1.25000000E-01
                      -6.25000000E-02 -3.75000000E-01  1.87500000E-01
                      -3.12500000E-01 -3.12500000E-01  0.00000000E+00
                      -2.50000000E-01 -3.12500000E-01  6.25000000E-02
                      -1.87500000E-01 -3.12500000E-01  1.25000000E-01
                      -1.25000000E-01 -3.12500000E-01  1.87500000E-01
                      -6.25000000E-02 -3.12500000E-01  2.50000000E-01
                      -6.25000000E-02  3.12500000E-01  0.00000000E+00
                      -1.25000000E-01  3.75000000E-01  0.00000000E+00
                      -1.87500000E-01  4.37500000E-01  0.00000000E+00
                      -2.50000000E-01  5.00000000E-01  0.00000000E+00
                      -1.87500000E-01  5.00000000E-01  6.25000000E-02
                      -1.25000000E-01  5.00000000E-01  1.25000000E-01
                      -3.12500000E-01 -4.37500000E-01  0.00000000E+00
                      -2.50000000E-01 -4.37500000E-01  6.25000000E-02
                      -1.87500000E-01 -4.37500000E-01  1.25000000E-01
                      -1.25000000E-01 -4.37500000E-01  1.87500000E-01
                      -6.25000000E-02 -4.37500000E-01  2.50000000E-01
                      -3.75000000E-01 -3.75000000E-01  0.00000000E+00
                      -3.12500000E-01 -3.75000000E-01  6.25000000E-02
                      -2.50000000E-01 -3.75000000E-01  1.25000000E-01
                      -1.87500000E-01 -3.75000000E-01  1.87500000E-01
                       outvar_i_n : Printing only first  50 k-points.
         kptrlatt        8   -8    8     -8    8    8     -8   -8    8
          kptrlen      8.15478285E+01
P           mkmem          22
            natom           2
            nband           6
            ngfft          20      20      20
             nkpt          85
             nsym          48
           ntypat           1
              occ      2.000000  2.000000  2.000000  2.000000  0.000000  0.000000
            rprim      0.0000000000E+00  7.0710678119E-01  7.0710678119E-01
                       7.0710678119E-01  0.0000000000E+00  7.0710678119E-01
                       7.0710678119E-01  7.0710678119E-01  0.0000000000E+00
          spgroup         227
           symrel      1  0  0   0  1  0   0  0  1      -1  0  0   0 -1  0   0  0 -1
                       0 -1  1   0 -1  0   1 -1  0       0  1 -1   0  1  0  -1  1  0
                      -1  0  0  -1  0  1  -1  1  0       1  0  0   1  0 -1   1 -1  0
                       0  1 -1   1  0 -1   0  0 -1       0 -1  1  -1  0  1   0  0  1
                      -1  0  0  -1  1  0  -1  0  1       1  0  0   1 -1  0   1  0 -1
                       0 -1  1   1 -1  0   0 -1  0       0  1 -1  -1  1  0   0  1  0
                       1  0  0   0  0  1   0  1  0      -1  0  0   0  0 -1   0 -1  0
                       0  1 -1   0  0 -1   1  0 -1       0 -1  1   0  0  1  -1  0  1
                      -1  0  1  -1  1  0  -1  0  0       1  0 -1   1 -1  0   1  0  0
                       0 -1  0   1 -1  0   0 -1  1       0  1  0  -1  1  0   0  1 -1
                       1  0 -1   0  0 -1   0  1 -1      -1  0  1   0  0  1   0 -1  1
                       0  1  0   0  0  1   1  0  0       0 -1  0   0  0 -1  -1  0  0
                       1  0 -1   0  1 -1   0  0 -1      -1  0  1   0 -1  1   0  0  1
                       0 -1  0   0 -1  1   1 -1  0       0  1  0   0  1 -1  -1  1  0
                      -1  0  1  -1  0  0  -1  1  0       1  0 -1   1  0  0   1 -1  0
                       0  1  0   1  0  0   0  0  1       0 -1  0  -1  0  0   0  0 -1
                       0  0 -1   0  1 -1   1  0 -1       0  0  1   0 -1  1  -1  0  1
                       1 -1  0   0 -1  1   0 -1  0      -1  1  0   0  1 -1   0  1  0
                       0  0  1   1  0  0   0  1  0       0  0 -1  -1  0  0   0 -1  0
                      -1  1  0  -1  0  0  -1  0  1       1 -1  0   1  0  0   1  0 -1
                       0  0  1   0  1  0   1  0  0       0  0 -1   0 -1  0  -1  0  0
                       1 -1  0   0 -1  0   0 -1  1      -1  1  0   0  1  0   0  1 -1
                       0  0 -1   1  0 -1   0  1 -1       0  0  1  -1  0  1   0 -1  1
                      -1  1  0  -1  0  1  -1  0  0       1 -1  0   1  0 -1   1  0  0
            tnons      0.0000000  0.0000000  0.0000000     0.2500000  0.2500000  0.2500000
                       0.0000000  0.0000000  0.0000000     0.2500000  0.2500000  0.2500000
                       0.0000000  0.0000000  0.0000000     0.2500000  0.2500000  0.2500000
                       0.0000000  0.0000000  0.0000000     0.2500000  0.2500000  0.2500000
                       0.0000000  0.0000000  0.0000000     0.2500000  0.2500000  0.2500000
                       0.0000000  0.0000000  0.0000000     0.2500000  0.2500000  0.2500000
                       0.0000000  0.0000000  0.0000000     0.2500000  0.2500000  0.2500000
                       0.0000000  0.0000000  0.0000000     0.2500000  0.2500000  0.2500000
                       0.0000000  0.0000000  0.0000000     0.2500000  0.2500000  0.2500000
                       0.0000000  0.0000000  0.0000000     0.2500000  0.2500000  0.2500000
                       0.0000000  0.0000000  0.0000000     0.2500000  0.2500000  0.2500000
                       0.0000000  0.0000000  0.0000000     0.2500000  0.2500000  0.2500000
                       0.0000000  0.0000000  0.0000000     0.2500000  0.2500000  0.2500000
                       0.0000000  0.0000000  0.0000000     0.2500000  0.2500000  0.2500000
                       0.0000000  0.0000000  0.0000000     0.2500000  0.2500000  0.2500000
                       0.0000000  0.0000000  0.0000000     0.2500000  0.2500000  0.2500000
                       0.0000000  0.0000000  0.0000000     0.2500000  0.2500000  0.2500000
                       0.0000000  0.0000000  0.0000000     0.2500000  0.2500000  0.2500000
                       0.0000000  0.0000000  0.0000000     0.2500000  0.2500000  0.2500000
                       0.0000000  0.0000000  0.0000000     0.2500000  0.2500000  0.2500000
                       0.0000000  0.0000000  0.0000000     0.2500000  0.2500000  0.2500000
                       0.0000000  0.0000000  0.0000000     0.2500000  0.2500000  0.2500000
                       0.0000000  0.0000000  0.0000000     0.2500000  0.2500000  0.2500000
                       0.0000000  0.0000000  0.0000000     0.2500000  0.2500000  0.2500000
           tolvrs      1.00000000E-10
            typat      1  1
              wtk        0.00293    0.01172    0.00293    0.01172    0.01172    0.01172
                         0.02344    0.00293    0.01172    0.01172    0.01172    0.01172
                         0.02344    0.01172    0.02344    0.02344    0.00293    0.01172
                         0.01172    0.01172    0.01172    0.01172    0.01172    0.01172
                         0.02344    0.02344    0.01172    0.02344    0.02344    0.02344
                         0.00293    0.01172    0.01172    0.01172    0.01172    0.01172
                         0.01172    0.01172    0.01172    0.02344    0.01172    0.01172
                         0.02344    0.02344    0.02344    0.02344    0.00293    0.01172
                         0.01172    0.01172
                       outvars : Printing only first  50 k-points.
           xangst      0.0000000000E+00  0.0000000000E+00  0.0000000000E+00
                       1.3485391323E+00  1.3485391323E+00  1.3485391323E+00
            xcart      0.0000000000E+00  0.0000000000E+00  0.0000000000E+00
                       2.5483696395E+00  2.5483696395E+00  2.5483696395E+00
             xred      0.0000000000E+00  0.0000000000E+00  0.0000000000E+00
                       2.5000000000E-01  2.5000000000E-01  2.5000000000E-01
            znucl       14.00000

================================================================================

 chkinp: Checking input parameters for consistency.
 DATA TYPE INFORMATION: 
 REAL:      Data type name: REAL(DP) 
            Kind value:      8
            Precision:      15
            Smallest nonnegligible quantity relative to 1: 0.22204460E-015
            Smallest positive number:                      0.22250739E-307
            Largest representable number:                  0.17976931E+309
 INTEGER:   Data type name: INTEGER(default) 
            Kind value: 4
            Bit size:   32
            Largest representable number: 2147483647
 LOGICAL:   Data type name: LOGICAL 
            Kind value: 4
 CHARACTER: Data type name: CHARACTER             Kind value: 1

  ==== OpenMP parallelism is OFF ====
 
  ==== Using MPI-2 specifications ==== 
  MPI-IO support is ON
  xmpi_tag_ub ................   2147483647
  xmpi_bsize_ch ..............            1
  xmpi_bsize_int .............            4
  xmpi_bsize_sp ..............            4
  xmpi_bsize_dp ..............            8
  xmpi_bsize_spc .............            8
  xmpi_bsize_dpc .............           16
  xmpio_bsize_frm ............            4
  xmpi_address_kind ..........            8
  xmpi_offset_kind ...........            8
  MPI_WTICK ..................    1.0000000000000001E-009

================================================================================
== DATASET  1 ==================================================================
-   mpi_nproc: 4, omp_nthreads: -1 (-1 if OMP is not activated)


--- !COMMENT
src_file: m_xgScalapack.F90
src_line: 236
message: |
    xgScalapack in auto mode
...


 getdim_nloc : deduce lmnmax  =  18, lnmax  =   6,
                      lmnmaxso=  18, lnmaxso=   6.
 Slater exchange
 P. A. M. Dirac, Math. Proc. Cambridge Philos. Soc. 26, 376 (1930)
 F. Bloch, Z. Phys. 57, 545 (1929)
 Perdew & Wang
 J. P. Perdew and Y. Wang, Phys. Rev. B 45, 13244 (1992)

 Unit cell volume ucvol=  2.6479346E+02 bohr^3
 Angles (23,13,12)=  6.00000000E+01  6.00000000E+01  6.00000000E+01 degrees

 getcut: wavevector=  0.0000  0.0000  0.0000  ngfft=  20  20  20
         ecut(hartree)=      8.000   => boxcut(ratio)=   2.17928
- pspini: atom type   1  psp file is /home/fgoudreault/Workspace/abisuite/abisuite/unittests/test_workflows/test_files/pseudos/Si.psp8
- pspatm: opening atomic psp file    /home/fgoudreault/Workspace/abisuite/abisuite/unittests/test_workflows/test_files/pseudos/Si.psp8
- Si    ONCVPSP-3.3.0  r_core=   1.60303   1.72197   1.91712
- 14.00000   4.00000    171102                znucl, zion, pspdat
    8   -1012    2    4       600   0.00000   pspcod,pspxc,lmax,lloc,mmax,r2well
    5.99000000000000    4.00000000000000    0.00000000000000   rchrg,fchrg,qchrg
     nproj     2     2     2
     extension_switch     1
  valence charge integrates to:    3.9545012856495880     
  pspatm : epsatm=    6.67004110
         --- l  ekb(1:nproj) -->
             0    5.565958    0.856966
             1    2.726111    0.629828
             2   -2.124804   -0.444604
 pspatm: atomic psp has been read  and splines computed

   1.06720658E+02                                ecore*ucvol(ha*bohr**3)
 ==== Info on pseudopotentials ====
  Norm-conserving pseudopotentials
  Number of pseudopotentials ..    1
  Number of types of atoms   ..    1
  Scalar calculation (no spin-orbit term)
  Nonlocal part applied using Legendre polynomials
  Max number of non-local projectors over l and type   2
  Highest angular momentum +1 .......   3
  Max number of (l,n)   components ..   6
  Max number of (l,m,n) components ..   6

 Pseudo-Core Charge Info: 
   Number of radial points for pseudo-core charge .. 2501
   XC core-correction treatment (optnlxccc) ........    1
   Radius for pseudo-core charge for each type ..... 

  - Atom type    1 has pseudo-core radius ..  5.9900

 Info on the Q-grid used for form factors in spline form: 
   Number of q-points for radial functions ffspl ..   3001
   Number of q-points for vlspl ...................   3001
   vloc is computed in Reciprocal Space
   model core charge treated in real-space

  XC functional for type 1 is -1012
  Pseudo valence available: yes

 symatm: atom number 1 is reached starting at atom
   1  2  1  2  1  2  1  2  1  2  1  2  1  2  1  2  1  2  1  2  1  2  1  2
   1  2  1  2  1  2  1  2  1  2  1  2  1  2  1  2  1  2  1  2  1  2  1  2
 symatm: atom number 2 is reached starting at atom
   2  1  2  1  2  1  2  1  2  1  2  1  2  1  2  1  2  1  2  1  2  1  2  1
   2  1  2  1  2  1  2  1  2  1  2  1  2  1  2  1  2  1  2  1  2  1  2  1
 wfconv:     6 bands initialized randomly with npw=   287, for ikpt=     1
 wfconv:     6 bands initialized randomly with npw=   295, for ikpt=     2
 wfconv:     6 bands initialized randomly with npw=   295, for ikpt=     3
 wfconv:     6 bands initialized randomly with npw=   292, for ikpt=     4
 wfconv:     6 bands initialized randomly with npw=   293, for ikpt=     5
 wfconv:     6 bands initialized randomly with npw=   293, for ikpt=     6
 wfconv:     6 bands initialized randomly with npw=   290, for ikpt=     7
 wfconv:     6 bands initialized randomly with npw=   295, for ikpt=     8
 wfconv:     6 bands initialized randomly with npw=   294, for ikpt=     9
 wfconv:     6 bands initialized randomly with npw=   292, for ikpt=    10
 wfconv:     6 bands initialized randomly with npw=   285, for ikpt=    11
 wfconv:     6 bands initialized randomly with npw=   286, for ikpt=    12
 wfconv:     6 bands initialized randomly with npw=   285, for ikpt=    13
 wfconv:     6 bands initialized randomly with npw=   292, for ikpt=    14
 wfconv:     6 bands initialized randomly with npw=   290, for ikpt=    15
 wfconv:     6 bands initialized randomly with npw=   284, for ikpt=    16
 wfconv:     6 bands initialized randomly with npw=   290, for ikpt=    17
 wfconv:     6 bands initialized randomly with npw=   295, for ikpt=    18
 wfconv:     6 bands initialized randomly with npw=   289, for ikpt=    19
 wfconv:     6 bands initialized randomly with npw=   286, for ikpt=    20
 wfconv:     6 bands initialized randomly with npw=   280, for ikpt=    21
 wfconv:     6 bands initialized randomly with npw=   281, for ikpt=    22
_setup2: Arith. and geom. avg. npw (full set) are     286.201     286.171
 initro: for itypat=  1, take pseudo charge density from pp file

================================================================================

 getcut: wavevector=  0.0000  0.0000  0.0000  ngfft=  20  20  20
         ecut(hartree)=      8.000   => boxcut(ratio)=   2.17928

 1/G**2 cut-off applied in the following step : cutoff-mode = CRYSTAL

 1/G**2 cut-off applied in the following step : cutoff-mode = CRYSTAL

 1/G**2 cut-off applied in the following step : cutoff-mode = CRYSTAL

 ITER STEP NUMBER     1
 Max number of non-self-consistent loops: 2
 Total charge density [el/Bohr^3]
      Maximum=    9.1613E-02  at reduced coord.    0.1000    0.1000    0.7000
      Minimum=    2.2222E-03  at reduced coord.    0.0000    0.0000    0.0000
   Integrated=    8.0000E+00

 1/G**2 cut-off applied in the following step : cutoff-mode = CRYSTAL
 ETOT  1  -8.5172142231405    -8.517E+00 1.436E-02 3.326E+00
 scprqt: <Vxc>= -3.4774417E-01 hartree

 Simple mixing update:
  residual square of the potential:    1.3155995039918817
{SCF_istep: 1 , Vnl|psi>: 1320 , wall_time: '  1.25 [s] '} <<< TIME

 ITER STEP NUMBER     2
 Max number of non-self-consistent loops: 2
 Total charge density [el/Bohr^3]
      Maximum=    8.7264E-02  at reduced coord.    0.1000    0.1000    0.7000
      Minimum=    2.2080E-03  at reduced coord.    0.0000    0.0000    0.0000
   Integrated=    8.0000E+00
 ETOT  2  -8.5207080970805    -3.494E-03 1.399E-03 6.241E-02
 scprqt: <Vxc>= -3.4962316E-01 hartree

 Pulay update with  1 previous iterations:
 mixing of old trial potential: alpha(m:m-4)=   1.13     -0.128
{SCF_istep: 2 , Vnl|psi>: 1320 , wall_time: '  1.23 [s] '} <<< TIME

 ITER STEP NUMBER     3
 Total charge density [el/Bohr^3]
      Maximum=    8.6891E-02  at reduced coord.    0.1000    0.1000    0.7000
      Minimum=    2.2113E-03  at reduced coord.    0.0000    0.0000    0.0000
   Integrated=    8.0000E+00
 ETOT  3  -8.5207434981819    -3.540E-05 7.822E-04 1.021E-03
 scprqt: <Vxc>= -3.4986298E-01 hartree

 Pulay update with  2 previous iterations:
 mixing of old trial potential: alpha(m:m-4)=   1.27     -0.291      0.227E-01
{SCF_istep: 3 , Vnl|psi>: 635 , wall_time: '  0.51 [s] '} <<< TIME

 ITER STEP NUMBER     4
 Total charge density [el/Bohr^3]
      Maximum=    8.6886E-02  at reduced coord.    0.1000    0.1000    0.7000
      Minimum=    2.2117E-03  at reduced coord.    0.0000    0.0000    0.0000
   Integrated=    8.0000E+00
 ETOT  4  -8.5207438340738    -3.359E-07 4.170E-04 3.771E-06
 scprqt: <Vxc>= -3.4988342E-01 hartree

 Pulay update with  3 previous iterations:
 mixing of old trial potential: alpha(m:m-4)=   1.19     -0.234      0.495E-01 -0.439E-02
{SCF_istep: 4 , Vnl|psi>: 647 , wall_time: '  0.60 [s] '} <<< TIME

 ITER STEP NUMBER     5
 Total charge density [el/Bohr^3]
      Maximum=    8.6884E-02  at reduced coord.    0.1000    0.1000    0.7000
      Minimum=    2.2115E-03  at reduced coord.    0.0000    0.0000    0.0000
   Integrated=    8.0000E+00
 ETOT  5  -8.5207438355377    -1.464E-09 1.988E-04 1.246E-08
 scprqt: <Vxc>= -3.4988502E-01 hartree

 Pulay update with  4 previous iterations:
 mixing of old trial potential: alpha(m:m-4)=   1.07     -0.839E-01  0.159E-01 -0.342E-02  0.364E-03
{SCF_istep: 5 , Vnl|psi>: 650 , wall_time: '  0.69 [s] '} <<< TIME

 ITER STEP NUMBER     6
 Total charge density [el/Bohr^3]
      Maximum=    8.6884E-02  at reduced coord.    0.1000    0.1000    0.7000
      Minimum=    2.2115E-03  at reduced coord.    0.0000    0.0000    0.0000
   Integrated=    8.0000E+00
 ETOT  6  -8.5207438355470    -9.315E-12 1.465E-04 8.693E-11
 scprqt: <Vxc>= -3.4988489E-01 hartree

 At SCF step    6       vres2   =  8.69E-11 < tolvrs=  1.00E-10 =>converged.
 
 -------------------------------------------------------------------------------------------------
 Ekinetic   = :     3.093406E+00 Ha ,    8.417585E+01 eV
 Evext_l    = :    -2.311021E+00 Ha ,   -6.288608E+01 eV
 Evext_nl   = :     1.321310E+00 Ha ,    3.595467E+01 eV
 Epsp_core  = :     4.030336E-01 Ha ,    1.096710E+01 eV
 Ehartree   = :     5.373971E-01 Ha ,    1.462332E+01 eV
 Exc_ks     = :    -3.109584E+00 Ha ,   -8.461608E+01 eV
 Enn        = :    -8.455285E+00 Ha ,   -2.300800E+02 eV
 -------------------------------------------------------------------------------------------------
 Etot       = :    -8.520744E+00 Ha ,   -2.318612E+02 eV
 -------------------------------------------------------------------------------------------------

 Cartesian components of stress tensor (hartree/bohr^3)
  sigma(1 1)=  6.87934689E-05  sigma(3 2)=  0.00000000E+00
  sigma(2 2)=  6.87934689E-05  sigma(3 1)=  0.00000000E+00
  sigma(3 3)=  6.87934689E-05  sigma(2 1)=  0.00000000E+00


 fftdatar_write: About to write data to: /home/fgoudreault/Workspace/abisuite/abisuite/unittests/test_workflows/test_files/abinit_si/nc/gw_ngkpt_convergence/scf_run/ngkpt_8_8_8/run/output_data/odat_ngkpt_8_8_8_DEN with iomode: IO_MODE_ETSF
- Creating HDf5 file with MPI-IO support: /home/fgoudreault/Workspace/abisuite/abisuite/unittests/test_workflows/test_files/abinit_si/nc/gw_ngkpt_convergence/scf_run/ngkpt_8_8_8/run/output_data/odat_ngkpt_8_8_8_DEN.nc
- Opening HDf5 file with MPI-IO support: /home/fgoudreault/Workspace/abisuite/abisuite/unittests/test_workflows/test_files/abinit_si/nc/gw_ngkpt_convergence/scf_run/ngkpt_8_8_8/run/output_data/odat_ngkpt_8_8_8_DEN.nc
 IO operation completed. cpu:  0.05 [s] , wall:  0.07 [s] <<< TIME
- Creating HDf5 file with MPI-IO support: /home/fgoudreault/Workspace/abisuite/abisuite/unittests/test_workflows/test_files/abinit_si/nc/gw_ngkpt_convergence/scf_run/ngkpt_8_8_8/run/output_data/odat_ngkpt_8_8_8_GSR.nc
 Integrated electronic density in atomic spheres:
 ------------------------------------------------
 Atom  Sphere_radius  Integrated_density
    1        2.00000          1.71728740
    2        2.00000          1.71728740
================================================================================

 ----iterations are completed or convergence reached----


 === Gap info ===
  >>>> For spin  1
   Minimum direct gap =   2.5542 [eV], located at k-point      :   0.0000  0.0000  0.0000
   Fundamental gap    =   0.4762 [eV], Top of valence bands at :   0.0000  0.0000  0.0000
                                       Bottom of conduction at :  -0.4375 -0.4375  0.0000
 Mean square residual over all n,k,spin=   11.614E-07; max=  14.654E-05
  -0.0625 -0.0625  0.0000    1  3.99594E-08 kpt; spin; max resid(k); each band:
  2.14E-14 6.47E-15 3.66E-14 4.26E-14 4.00E-08 2.72E-10
  -0.0625 -0.1875  0.0000    1  2.59526E-07 kpt; spin; max resid(k); each band:
  6.63E-14 7.16E-14 3.39E-14 6.31E-14 2.87E-11 2.60E-07
  -0.1250 -0.1250  0.0000    1  3.94184E-09 kpt; spin; max resid(k); each band:
  5.67E-14 3.92E-15 9.22E-14 4.23E-14 1.91E-13 3.94E-09
  -0.0625 -0.1250  0.0625    1  4.62237E-05 kpt; spin; max resid(k); each band:
  5.61E-14 3.73E-14 5.95E-14 5.19E-14 8.44E-10 4.62E-05
  -0.0625 -0.3125  0.0000    1  4.55669E-08 kpt; spin; max resid(k); each band:
  7.91E-14 1.16E-13 1.97E-14 6.29E-14 9.79E-12 4.56E-08
  -0.1250 -0.2500  0.0000    1  2.63011E-07 kpt; spin; max resid(k); each band:
  8.69E-14 6.10E-14 2.37E-14 9.62E-14 3.17E-13 2.63E-07
  -0.0625 -0.2500  0.0625    1  2.25894E-08 kpt; spin; max resid(k); each band:
  7.98E-14 9.05E-14 7.60E-14 3.80E-14 1.19E-11 2.26E-08
  -0.1875 -0.1875  0.0000    1  2.86588E-08 kpt; spin; max resid(k); each band:
  8.46E-14 4.42E-15 2.22E-14 1.11E-14 1.38E-13 2.87E-08
  -0.1250 -0.1875  0.0625    1  1.41265E-08 kpt; spin; max resid(k); each band:
  8.37E-14 1.86E-14 4.62E-14 4.78E-14 1.94E-13 1.41E-08
  -0.0625 -0.1875  0.1250    1  1.00266E-07 kpt; spin; max resid(k); each band:
  7.59E-14 4.80E-14 8.36E-14 3.80E-14 1.83E-10 1.00E-07
  -0.0625 -0.4375  0.0000    1  6.09918E-06 kpt; spin; max resid(k); each band:
  4.24E-14 1.72E-13 5.41E-14 1.08E-14 9.19E-11 6.10E-06
  -0.1250 -0.3750  0.0000    1  6.33356E-08 kpt; spin; max resid(k); each band:
  7.88E-14 1.25E-13 9.99E-14 1.29E-14 3.53E-13 6.33E-08
  -0.0625 -0.3750  0.0625    1  1.99720E-09 kpt; spin; max resid(k); each band:
  6.17E-14 1.45E-13 7.18E-14 3.98E-14 1.46E-11 2.00E-09
  -0.1875 -0.3125  0.0000    1  6.13484E-10 kpt; spin; max resid(k); each band:
  9.76E-14 3.10E-14 8.98E-14 7.01E-15 1.37E-13 6.13E-10
  -0.1250 -0.3125  0.0625    1  2.53862E-06 kpt; spin; max resid(k); each band:
  8.60E-14 8.51E-14 8.11E-14 6.21E-14 4.89E-13 2.54E-06
  -0.0625 -0.3125  0.1250    1  1.32374E-10 kpt; spin; max resid(k); each band:
  7.75E-14 1.07E-13 9.96E-14 5.06E-14 3.07E-12 1.32E-10
  -0.2500 -0.2500  0.0000    1  1.70331E-13 kpt; spin; max resid(k); each band:
  1.02E-13 5.63E-15 5.27E-15 1.36E-14 1.03E-13 1.70E-13
  -0.1875 -0.2500  0.0625    1  2.72081E-11 kpt; spin; max resid(k); each band:
  1.00E-13 9.61E-15 5.12E-14 3.47E-14 1.57E-13 2.72E-11
  -0.1250 -0.2500  0.1250    1  6.20815E-05 kpt; spin; max resid(k); each band:
  9.33E-14 4.26E-14 9.48E-14 1.25E-13 3.86E-11 6.21E-05
  -0.0625 -0.2500  0.1875    1  3.21260E-11 kpt; spin; max resid(k); each band:
  8.05E-14 6.73E-14 1.09E-13 4.82E-14 1.09E-12 3.21E-11
  -0.0625  0.4375  0.0000    1  2.97829E-06 kpt; spin; max resid(k); each band:
  1.97E-14 1.87E-13 6.29E-14 9.01E-15 1.24E-11 2.98E-06
  -0.1250  0.5000  0.0000    1  1.12319E-08 kpt; spin; max resid(k); each band:
  2.74E-14 1.84E-13 1.06E-13 1.44E-14 9.49E-12 1.12E-08
  -0.0625  0.5000  0.0625    1  1.15181E-08 kpt; spin; max resid(k); each band:
  1.42E-14 1.83E-13 6.86E-14 4.08E-14 2.65E-11 1.15E-08
  -0.1875 -0.4375  0.0000    1  5.66086E-06 kpt; spin; max resid(k); each band:
  8.26E-14 1.37E-13 1.91E-13 1.50E-14 2.44E-13 5.66E-06
  -0.1250 -0.4375  0.0625    1  2.66881E-09 kpt; spin; max resid(k); each band:
  5.89E-14 1.43E-13 8.16E-14 8.01E-14 1.97E-13 2.67E-09
  -0.0625 -0.4375  0.1250    1  7.78060E-11 kpt; spin; max resid(k); each band:
  2.99E-14 1.61E-13 9.00E-14 6.58E-14 8.23E-13 7.78E-11
  -0.2500 -0.3750  0.0000    1  1.20054E-13 kpt; spin; max resid(k); each band:
  1.07E-13 2.39E-14 1.00E-13 1.31E-14 1.20E-13 1.07E-13
  -0.1875 -0.3750  0.0625    1  2.10637E-09 kpt; spin; max resid(k); each band:
  9.65E-14 4.27E-14 1.23E-13 6.02E-14 1.44E-13 2.11E-09
  -0.1250 -0.3750  0.1250    1  2.01212E-10 kpt; spin; max resid(k); each band:
  7.40E-14 1.01E-13 9.03E-14 1.18E-13 6.89E-13 2.01E-10
  -0.0625 -0.3750  0.1875    1  3.51148E-11 kpt; spin; max resid(k); each band:
  5.64E-14 1.22E-13 1.11E-13 7.09E-14 1.37E-13 3.51E-11
  -0.3125 -0.3125  0.0000    1  1.13413E-13 kpt; spin; max resid(k); each band:
  1.13E-13 1.93E-14 1.16E-14 1.33E-14 1.09E-13 2.19E-14
  -0.2500 -0.3125  0.0625    1  1.40390E-13 kpt; spin; max resid(k); each band:
  1.10E-13 1.51E-14 5.04E-14 3.95E-14 1.40E-13 4.33E-14
  -0.1875 -0.3125  0.1250    1  9.21521E-11 kpt; spin; max resid(k); each band:
  1.00E-13 1.04E-14 9.55E-14 9.20E-14 2.66E-13 9.22E-11
  -0.1250 -0.3125  0.1875    1  6.22155E-09 kpt; spin; max resid(k); each band:
  8.56E-14 5.33E-14 1.20E-13 1.18E-13 9.32E-10 6.22E-09
  -0.0625 -0.3125  0.2500    1  2.58293E-09 kpt; spin; max resid(k); each band:
  6.61E-14 7.37E-14 1.30E-13 5.25E-14 1.32E-13 2.58E-09
  -0.0625  0.3125  0.0000    1  4.60020E-05 kpt; spin; max resid(k); each band:
  6.66E-14 1.33E-13 4.97E-14 1.34E-14 2.12E-11 4.60E-05
  -0.1250  0.3750  0.0000    1  1.46544E-04 kpt; spin; max resid(k); each band:
  4.99E-14 1.65E-13 1.29E-13 1.58E-14 1.40E-10 1.47E-04
  -0.1875  0.4375  0.0000    1  1.12467E-04 kpt; spin; max resid(k); each band:
  2.42E-14 1.82E-13 1.75E-13 1.54E-14 1.57E-13 1.12E-04
  -0.2500  0.5000  0.0000    1  5.80593E-10 kpt; spin; max resid(k); each band:
  7.60E-14 7.52E-14 1.87E-13 1.17E-14 9.55E-14 5.81E-10
  -0.1875  0.5000  0.0625    1  2.64236E-10 kpt; spin; max resid(k); each band:
  3.38E-14 1.38E-13 1.10E-13 9.46E-14 1.22E-13 2.64E-10
  -0.1250  0.5000  0.1250    1  2.49830E-13 kpt; spin; max resid(k); each band:
  2.33E-14 1.47E-13 7.98E-14 1.28E-13 1.38E-13 2.50E-13
  -0.3125 -0.4375  0.0000    1  1.15950E-13 kpt; spin; max resid(k); each band:
  1.03E-13 3.12E-14 9.96E-14 1.04E-14 1.06E-13 1.16E-13
  -0.2500 -0.4375  0.0625    1  2.22891E-13 kpt; spin; max resid(k); each band:
  9.23E-14 3.48E-14 1.37E-13 5.26E-14 1.21E-13 2.23E-13
  -0.1875 -0.4375  0.1250    1  8.68975E-08 kpt; spin; max resid(k); each band:
  5.49E-14 7.71E-14 1.13E-13 1.83E-13 4.87E-13 8.69E-08
  -0.1250 -0.4375  0.1875    1  2.08908E-11 kpt; spin; max resid(k); each band:
  3.16E-14 1.11E-13 9.47E-14 1.44E-13 1.94E-13 2.09E-11
  -0.0625 -0.4375  0.2500    1  1.54203E-05 kpt; spin; max resid(k); each band:
  1.57E-14 1.11E-13 2.10E-13 8.31E-14 1.55E-13 1.54E-05
  -0.3750 -0.3750  0.0000    1  1.10253E-13 kpt; spin; max resid(k); each band:
  1.10E-13 4.09E-14 9.94E-15 7.70E-15 1.08E-13 4.10E-14
  -0.3125 -0.3750  0.0625    1  1.30396E-13 kpt; spin; max resid(k); each band:
  1.07E-13 3.30E-14 4.62E-14 4.18E-14 1.30E-13 7.21E-14
  -0.2500 -0.3750  0.1250    1  1.66576E-13 kpt; spin; max resid(k); each band:
  9.76E-14 1.71E-14 9.61E-14 1.01E-13 1.67E-13 1.45E-13
  -0.1875 -0.3750  0.1875    1  8.83160E-09 kpt; spin; max resid(k); each band:
  8.17E-14 5.77E-15 1.24E-13 1.95E-13 6.70E-10 8.83E-09
 outwf : prtvol=0 or 1, do not print more k-points.

in cg_ncwrite with path: /home/fgoudreault/Workspace/abisuite/abisuite/unittests/test_workflows/test_files/abinit_si/nc/gw_ngkpt_convergence/scf_run/ngkpt_8_8_8/run/output_data/odat_ngkpt_8_8_8_WFK.nc
same layout Writing WFK file: /home/fgoudreault/Workspace/abisuite/abisuite/unittests/test_workflows/test_files/abinit_si/nc/gw_ngkpt_convergence/scf_run/ngkpt_8_8_8/run/output_data/odat_ngkpt_8_8_8_WFK.nc, with iomode: IO_MODE_ETSF, single writer: F
Using collective IO for the CGs
 collective ncwrite completed. cpu:  0.07 [s] , wall:  0.08 [s] <<< TIME
 prteigrs : about to open file /home/fgoudreault/Workspace/abisuite/abisuite/unittests/test_workflows/test_files/abinit_si/nc/gw_ngkpt_convergence/scf_run/ngkpt_8_8_8/run/output_data/odat_ngkpt_8_8_8_EIG
 Fermi (or HOMO) energy (hartree) =   0.17967   Average Vxc (hartree)=  -0.34988
 Eigenvalues (hartree) for nkpt=  85  k points:
 kpt#   1, nband=  6, wtk=  0.00293, kpt= -0.0625 -0.0625  0.0000 (reduced coord)
  -0.26260    0.16446    0.16962    0.16962    0.26723    0.28668
 kpt#   2, nband=  6, wtk=  0.01172, kpt= -0.0625 -0.1875  0.0000 (reduced coord)
  -0.24987    0.09026    0.15012    0.15915    0.27076    0.29036
 kpt#   3, nband=  6, wtk=  0.00293, kpt= -0.1250 -0.1250  0.0000 (reduced coord)
  -0.25495    0.13092    0.14907    0.14907    0.25209    0.31645
 kpt#   4, nband=  6, wtk=  0.01172, kpt= -0.0625 -0.1250  0.0625 (reduced coord)
  -0.25237    0.10971    0.13886    0.16380    0.26602    0.30123
 kpt#   5, nband=  6, wtk=  0.01172, kpt= -0.0625 -0.3125  0.0000 (reduced coord)
  -0.22311    0.00656    0.13532    0.14028    0.26057    0.30030
 kpt#   6, nband=  6, wtk=  0.01172, kpt= -0.1250 -0.2500  0.0000 (reduced coord)
  -0.23730    0.06000    0.12987    0.13295    0.25719    0.31686
 kpt#   7, nband=  6, wtk=  0.02344, kpt= -0.0625 -0.2500  0.0625 (reduced coord)
  -0.23005    0.03352    0.11327    0.14884    0.27514    0.30139
 kpt#   8, nband=  6, wtk=  0.00293, kpt= -0.1875 -0.1875  0.0000 (reduced coord)
  -0.24230    0.09156    0.12752    0.12752    0.23449    0.32849
 kpt#   9, nband=  6, wtk=  0.01172, kpt= -0.1250 -0.1875  0.0625 (reduced coord)
  -0.23980    0.07628    0.11719    0.13929    0.24906    0.32540
 kpt#  10, nband=  6, wtk=  0.01172, kpt= -0.0625 -0.1875  0.1250 (reduced coord)
  -0.23244    0.05051    0.09598    0.15267    0.28277    0.30388
 kpt#  11, nband=  6, wtk=  0.01172, kpt= -0.0625 -0.4375  0.0000 (reduced coord)
  -0.18820   -0.06086    0.12569    0.12986    0.25092    0.29882
 kpt#  12, nband=  6, wtk=  0.01172, kpt= -0.1250 -0.3750  0.0000 (reduced coord)
  -0.20669   -0.01709    0.11084    0.11989    0.26134    0.31409
 kpt#  13, nband=  6, wtk=  0.02344, kpt= -0.0625 -0.3750  0.0625 (reduced coord)
  -0.19647   -0.03990    0.10240    0.13200    0.26826    0.29915
 kpt#  14, nband=  6, wtk=  0.01172, kpt= -0.1875 -0.3125  0.0000 (reduced coord)
  -0.21996    0.02934    0.10396    0.11152    0.24098    0.31296
 kpt#  15, nband=  6, wtk=  0.02344, kpt= -0.1250 -0.3125  0.0625 (reduced coord)
  -0.21313    0.00706    0.09110    0.12371    0.26308    0.32613
 kpt#  16, nband=  6, wtk=  0.02344, kpt= -0.0625 -0.3125  0.1250 (reduced coord)
  -0.20196   -0.01591    0.07256    0.13319    0.28746    0.30277
 kpt#  17, nband=  6, wtk=  0.00293, kpt= -0.2500 -0.2500  0.0000 (reduced coord)
  -0.22460    0.05035    0.10842    0.10842    0.21849    0.29308
 kpt#  18, nband=  6, wtk=  0.01172, kpt= -0.1875 -0.2500  0.0625 (reduced coord)
  -0.22230    0.04086    0.09809    0.11471    0.23338    0.30171
 kpt#  19, nband=  6, wtk=  0.01172, kpt= -0.1250 -0.2500  0.1250 (reduced coord)
  -0.21527    0.02102    0.07701    0.12590    0.26836    0.33247
 kpt#  20, nband=  6, wtk=  0.01172, kpt= -0.0625 -0.2500  0.1875 (reduced coord)
  -0.20384   -0.00140    0.05556    0.13340    0.29205    0.31256
 kpt#  21, nband=  6, wtk=  0.01172, kpt= -0.0625  0.4375  0.0000 (reduced coord)
  -0.17907   -0.07463    0.11904    0.13391    0.24963    0.30217
 kpt#  22, nband=  6, wtk=  0.01172, kpt= -0.1250  0.5000  0.0000 (reduced coord)
  -0.17398   -0.07218    0.09411    0.12093    0.25978    0.30895
 kpt#  23, nband=  6, wtk=  0.01172, kpt= -0.0625  0.5000  0.0625 (reduced coord)
  -0.17200   -0.07817    0.09967    0.12499    0.26457    0.29509
 kpt#  24, nband=  6, wtk=  0.01172, kpt= -0.1875 -0.4375  0.0000 (reduced coord)
  -0.18633   -0.03793    0.07708    0.10668    0.24673    0.34957
 kpt#  25, nband=  6, wtk=  0.02344, kpt= -0.1250 -0.4375  0.0625 (reduced coord)
  -0.17825   -0.05671    0.07729    0.11275    0.26532    0.31238
 kpt#  26, nband=  6, wtk=  0.02344, kpt= -0.0625 -0.4375  0.1250 (reduced coord)
  -0.16922   -0.06995    0.06979    0.11690    0.27292    0.30327
 kpt#  27, nband=  6, wtk=  0.01172, kpt= -0.2500 -0.3750  0.0000 (reduced coord)
  -0.19800   -0.00293    0.07886    0.09652    0.22680    0.28436
 kpt#  28, nband=  6, wtk=  0.02344, kpt= -0.1875 -0.3750  0.0625 (reduced coord)
  -0.19179   -0.01873    0.06876    0.10076    0.24803    0.31873
 kpt#  29, nband=  6, wtk=  0.02344, kpt= -0.1250 -0.3750  0.1250 (reduced coord)
  -0.18189   -0.03726    0.05449    0.10681    0.28445    0.30996
 kpt#  30, nband=  6, wtk=  0.02344, kpt= -0.0625 -0.3750  0.1875 (reduced coord)
  -0.16918   -0.05412    0.04008    0.11197    0.26917    0.33069
 kpt#  31, nband=  6, wtk=  0.00293, kpt= -0.3125 -0.3125  0.0000 (reduced coord)
  -0.20230    0.00836    0.09290    0.09290    0.20613    0.25965
 kpt#  32, nband=  6, wtk=  0.01172, kpt= -0.2500 -0.3125  0.0625 (reduced coord)
  -0.20014    0.00369    0.08285    0.09420    0.22126    0.26998
 kpt#  33, nband=  6, wtk=  0.01172, kpt= -0.1875 -0.3125  0.1250 (reduced coord)
  -0.19366   -0.00907    0.06232    0.09835    0.25680    0.29801
 kpt#  34, nband=  6, wtk=  0.01172, kpt= -0.1250 -0.3125  0.1875 (reduced coord)
  -0.18327   -0.02613    0.04171    0.10482    0.30218    0.30877
 kpt#  35, nband=  6, wtk=  0.01172, kpt= -0.0625 -0.3125  0.2500 (reduced coord)
  -0.16943   -0.04402    0.02535    0.11028    0.26724    0.35308
 kpt#  36, nband=  6, wtk=  0.01172, kpt= -0.0625  0.3125  0.0000 (reduced coord)
  -0.21177   -0.01857    0.12185    0.14612    0.25667    0.30751
 kpt#  37, nband=  6, wtk=  0.01172, kpt= -0.1250  0.3750  0.0000 (reduced coord)
  -0.18336   -0.05818    0.08716    0.13211    0.26646    0.31370
 kpt#  38, nband=  6, wtk=  0.01172, kpt= -0.1875  0.4375  0.0000 (reduced coord)
  -0.16204   -0.07423    0.05910    0.11351    0.25249    0.34298
 kpt#  39, nband=  6, wtk=  0.01172, kpt= -0.2500  0.5000  0.0000 (reduced coord)
  -0.16306   -0.05722    0.04637    0.09670    0.23301    0.34264
 kpt#  40, nband=  6, wtk=  0.02344, kpt= -0.1875  0.5000  0.0625 (reduced coord)
  -0.15901   -0.06840    0.04831    0.09915    0.25395    0.34093
 kpt#  41, nband=  6, wtk=  0.01172, kpt= -0.1250  0.5000  0.1250 (reduced coord)
  -0.15714   -0.07306    0.04989    0.09810    0.29277    0.29303
 kpt#  42, nband=  6, wtk=  0.01172, kpt= -0.3125 -0.4375  0.0000 (reduced coord)
  -0.17182   -0.03743    0.06057    0.08548    0.21585    0.26264
 kpt#  43, nband=  6, wtk=  0.02344, kpt= -0.2500 -0.4375  0.0625 (reduced coord)
  -0.16663   -0.04569    0.04841    0.08502    0.23571    0.30053
 kpt#  44, nband=  6, wtk=  0.02344, kpt= -0.1875 -0.4375  0.1250 (reduced coord)
  -0.15883   -0.05714    0.03855    0.08283    0.27314    0.33341
 kpt#  45, nband=  6, wtk=  0.02344, kpt= -0.1250 -0.4375  0.1875 (reduced coord)
  -0.15005   -0.06801    0.02954    0.08590    0.28609    0.32140
 kpt#  46, nband=  6, wtk=  0.02344, kpt= -0.0625 -0.4375  0.2500 (reduced coord)
  -0.14280   -0.07475    0.02368    0.09151    0.24580    0.37003
 kpt#  47, nband=  6, wtk=  0.00293, kpt= -0.3750 -0.3750  0.0000 (reduced coord)
  -0.17547   -0.03268    0.08160    0.08160    0.19875    0.23330
 kpt#  48, nband=  6, wtk=  0.01172, kpt= -0.3125 -0.3750  0.0625 (reduced coord)
  -0.17363   -0.03463    0.07207    0.07904    0.21360    0.24460
 kpt#  49, nband=  6, wtk=  0.01172, kpt= -0.2500 -0.3750  0.1250 (reduced coord)
  -0.16799   -0.04079    0.05262    0.07538    0.24918    0.27491
 kpt#  50, nband=  6, wtk=  0.01172, kpt= -0.1875 -0.3750  0.1875 (reduced coord)
  -0.15907   -0.05088    0.03361    0.07612    0.29523    0.31469
 prteigrs : prtvol=0 or 1, do not print more k-points.

 Total charge density [el/Bohr^3]
      Maximum=    8.6884E-02  at reduced coord.    0.1000    0.1000    0.7000
 Next maximum=    8.6884E-02  at reduced coord.    0.1500    0.1500    0.5500
      Minimum=    2.2115E-03  at reduced coord.    0.0000    0.0000    0.0000
 Next minimum=    2.2115E-03  at reduced coord.    0.2500    0.2500    0.2500
   Integrated=    8.0000E+00

 Cartesian components of stress tensor (hartree/bohr^3)
  sigma(1 1)=  6.87934689E-05  sigma(3 2)=  0.00000000E+00
  sigma(2 2)=  6.87934689E-05  sigma(3 1)=  0.00000000E+00
  sigma(3 3)=  6.87934689E-05  sigma(2 1)=  0.00000000E+00

-Cartesian components of stress tensor (GPa)         [Pressure= -2.0240E+00 GPa]
- sigma(1 1)=  2.02397339E+00  sigma(3 2)=  0.00000000E+00
- sigma(2 2)=  2.02397339E+00  sigma(3 1)=  0.00000000E+00
- sigma(3 3)=  2.02397339E+00  sigma(2 1)=  0.00000000E+00

== END DATASET(S) ==============================================================
================================================================================
  
 -outvars: echo values of variables after computation  --------
 
 These variables are accessible in NetCDF format (/home/fgoudreault/Workspace/abisuite/abisuite/unittests/test_workflows/test_files/abinit_si/nc/gw_ngkpt_convergence/scf_run/ngkpt_8_8_8/run/output_data/odat_ngkpt_8_8_8_OUT.nc)

            acell      7.2078778121E+00  7.2078778121E+00  7.2078778121E+00 Bohr
              amu      2.80855000E+01
           diemac      1.20000000E+01
             ecut      8.00000000E+00 Hartree
           etotal     -8.5207438355E+00
            fcart     -0.0000000000E+00 -0.0000000000E+00 -0.0000000000E+00
                      -0.0000000000E+00 -0.0000000000E+00 -0.0000000000E+00
-          fftalg         112
              ixc       -1012
              kpt     -6.25000000E-02 -6.25000000E-02  0.00000000E+00
                      -6.25000000E-02 -1.87500000E-01  0.00000000E+00
                      -1.25000000E-01 -1.25000000E-01  0.00000000E+00
                      -6.25000000E-02 -1.25000000E-01  6.25000000E-02
                      -6.25000000E-02 -3.12500000E-01  0.00000000E+00
                      -1.25000000E-01 -2.50000000E-01  0.00000000E+00
                      -6.25000000E-02 -2.50000000E-01  6.25000000E-02
                      -1.87500000E-01 -1.87500000E-01  0.00000000E+00
                      -1.25000000E-01 -1.87500000E-01  6.25000000E-02
                      -6.25000000E-02 -1.87500000E-01  1.25000000E-01
                      -6.25000000E-02 -4.37500000E-01  0.00000000E+00
                      -1.25000000E-01 -3.75000000E-01  0.00000000E+00
                      -6.25000000E-02 -3.75000000E-01  6.25000000E-02
                      -1.87500000E-01 -3.12500000E-01  0.00000000E+00
                      -1.25000000E-01 -3.12500000E-01  6.25000000E-02
                      -6.25000000E-02 -3.12500000E-01  1.25000000E-01
                      -2.50000000E-01 -2.50000000E-01  0.00000000E+00
                      -1.87500000E-01 -2.50000000E-01  6.25000000E-02
                      -1.25000000E-01 -2.50000000E-01  1.25000000E-01
                      -6.25000000E-02 -2.50000000E-01  1.87500000E-01
                      -6.25000000E-02  4.37500000E-01  0.00000000E+00
                      -1.25000000E-01  5.00000000E-01  0.00000000E+00
                      -6.25000000E-02  5.00000000E-01  6.25000000E-02
                      -1.87500000E-01 -4.37500000E-01  0.00000000E+00
                      -1.25000000E-01 -4.37500000E-01  6.25000000E-02
                      -6.25000000E-02 -4.37500000E-01  1.25000000E-01
                      -2.50000000E-01 -3.75000000E-01  0.00000000E+00
                      -1.87500000E-01 -3.75000000E-01  6.25000000E-02
                      -1.25000000E-01 -3.75000000E-01  1.25000000E-01
                      -6.25000000E-02 -3.75000000E-01  1.87500000E-01
                      -3.12500000E-01 -3.12500000E-01  0.00000000E+00
                      -2.50000000E-01 -3.12500000E-01  6.25000000E-02
                      -1.87500000E-01 -3.12500000E-01  1.25000000E-01
                      -1.25000000E-01 -3.12500000E-01  1.87500000E-01
                      -6.25000000E-02 -3.12500000E-01  2.50000000E-01
                      -6.25000000E-02  3.12500000E-01  0.00000000E+00
                      -1.25000000E-01  3.75000000E-01  0.00000000E+00
                      -1.87500000E-01  4.37500000E-01  0.00000000E+00
                      -2.50000000E-01  5.00000000E-01  0.00000000E+00
                      -1.87500000E-01  5.00000000E-01  6.25000000E-02
                      -1.25000000E-01  5.00000000E-01  1.25000000E-01
                      -3.12500000E-01 -4.37500000E-01  0.00000000E+00
                      -2.50000000E-01 -4.37500000E-01  6.25000000E-02
                      -1.87500000E-01 -4.37500000E-01  1.25000000E-01
                      -1.25000000E-01 -4.37500000E-01  1.87500000E-01
                      -6.25000000E-02 -4.37500000E-01  2.50000000E-01
                      -3.75000000E-01 -3.75000000E-01  0.00000000E+00
                      -3.12500000E-01 -3.75000000E-01  6.25000000E-02
                      -2.50000000E-01 -3.75000000E-01  1.25000000E-01
                      -1.87500000E-01 -3.75000000E-01  1.87500000E-01
                       outvar_i_n : Printing only first  50 k-points.
         kptrlatt        8   -8    8     -8    8    8     -8   -8    8
          kptrlen      8.15478285E+01
P           mkmem          22
            natom           2
            nband           6
            ngfft          20      20      20
             nkpt          85
             nsym          48
           ntypat           1
              occ      2.000000  2.000000  2.000000  2.000000  0.000000  0.000000
            rprim      0.0000000000E+00  7.0710678119E-01  7.0710678119E-01
                       7.0710678119E-01  0.0000000000E+00  7.0710678119E-01
                       7.0710678119E-01  7.0710678119E-01  0.0000000000E+00
          spgroup         227
           strten      6.8793468899E-05  6.8793468899E-05  6.8793468899E-05
                       0.0000000000E+00  0.0000000000E+00  0.0000000000E+00
           symrel      1  0  0   0  1  0   0  0  1      -1  0  0   0 -1  0   0  0 -1
                       0 -1  1   0 -1  0   1 -1  0       0  1 -1   0  1  0  -1  1  0
                      -1  0  0  -1  0  1  -1  1  0       1  0  0   1  0 -1   1 -1  0
                       0  1 -1   1  0 -1   0  0 -1       0 -1  1  -1  0  1   0  0  1
                      -1  0  0  -1  1  0  -1  0  1       1  0  0   1 -1  0   1  0 -1
                       0 -1  1   1 -1  0   0 -1  0       0  1 -1  -1  1  0   0  1  0
                       1  0  0   0  0  1   0  1  0      -1  0  0   0  0 -1   0 -1  0
                       0  1 -1   0  0 -1   1  0 -1       0 -1  1   0  0  1  -1  0  1
                      -1  0  1  -1  1  0  -1  0  0       1  0 -1   1 -1  0   1  0  0
                       0 -1  0   1 -1  0   0 -1  1       0  1  0  -1  1  0   0  1 -1
                       1  0 -1   0  0 -1   0  1 -1      -1  0  1   0  0  1   0 -1  1
                       0  1  0   0  0  1   1  0  0       0 -1  0   0  0 -1  -1  0  0
                       1  0 -1   0  1 -1   0  0 -1      -1  0  1   0 -1  1   0  0  1
                       0 -1  0   0 -1  1   1 -1  0       0  1  0   0  1 -1  -1  1  0
                      -1  0  1  -1  0  0  -1  1  0       1  0 -1   1  0  0   1 -1  0
                       0  1  0   1  0  0   0  0  1       0 -1  0  -1  0  0   0  0 -1
                       0  0 -1   0  1 -1   1  0 -1       0  0  1   0 -1  1  -1  0  1
                       1 -1  0   0 -1  1   0 -1  0      -1  1  0   0  1 -1   0  1  0
                       0  0  1   1  0  0   0  1  0       0  0 -1  -1  0  0   0 -1  0
                      -1  1  0  -1  0  0  -1  0  1       1 -1  0   1  0  0   1  0 -1
                       0  0  1   0  1  0   1  0  0       0  0 -1   0 -1  0  -1  0  0
                       1 -1  0   0 -1  0   0 -1  1      -1  1  0   0  1  0   0  1 -1
                       0  0 -1   1  0 -1   0  1 -1       0  0  1  -1  0  1   0 -1  1
                      -1  1  0  -1  0  1  -1  0  0       1 -1  0   1  0 -1   1  0  0
            tnons      0.0000000  0.0000000  0.0000000     0.2500000  0.2500000  0.2500000
                       0.0000000  0.0000000  0.0000000     0.2500000  0.2500000  0.2500000
                       0.0000000  0.0000000  0.0000000     0.2500000  0.2500000  0.2500000
                       0.0000000  0.0000000  0.0000000     0.2500000  0.2500000  0.2500000
                       0.0000000  0.0000000  0.0000000     0.2500000  0.2500000  0.2500000
                       0.0000000  0.0000000  0.0000000     0.2500000  0.2500000  0.2500000
                       0.0000000  0.0000000  0.0000000     0.2500000  0.2500000  0.2500000
                       0.0000000  0.0000000  0.0000000     0.2500000  0.2500000  0.2500000
                       0.0000000  0.0000000  0.0000000     0.2500000  0.2500000  0.2500000
                       0.0000000  0.0000000  0.0000000     0.2500000  0.2500000  0.2500000
                       0.0000000  0.0000000  0.0000000     0.2500000  0.2500000  0.2500000
                       0.0000000  0.0000000  0.0000000     0.2500000  0.2500000  0.2500000
                       0.0000000  0.0000000  0.0000000     0.2500000  0.2500000  0.2500000
                       0.0000000  0.0000000  0.0000000     0.2500000  0.2500000  0.2500000
                       0.0000000  0.0000000  0.0000000     0.2500000  0.2500000  0.2500000
                       0.0000000  0.0000000  0.0000000     0.2500000  0.2500000  0.2500000
                       0.0000000  0.0000000  0.0000000     0.2500000  0.2500000  0.2500000
                       0.0000000  0.0000000  0.0000000     0.2500000  0.2500000  0.2500000
                       0.0000000  0.0000000  0.0000000     0.2500000  0.2500000  0.2500000
                       0.0000000  0.0000000  0.0000000     0.2500000  0.2500000  0.2500000
                       0.0000000  0.0000000  0.0000000     0.2500000  0.2500000  0.2500000
                       0.0000000  0.0000000  0.0000000     0.2500000  0.2500000  0.2500000
                       0.0000000  0.0000000  0.0000000     0.2500000  0.2500000  0.2500000
                       0.0000000  0.0000000  0.0000000     0.2500000  0.2500000  0.2500000
           tolvrs      1.00000000E-10
            typat      1  1
              wtk        0.00293    0.01172    0.00293    0.01172    0.01172    0.01172
                         0.02344    0.00293    0.01172    0.01172    0.01172    0.01172
                         0.02344    0.01172    0.02344    0.02344    0.00293    0.01172
                         0.01172    0.01172    0.01172    0.01172    0.01172    0.01172
                         0.02344    0.02344    0.01172    0.02344    0.02344    0.02344
                         0.00293    0.01172    0.01172    0.01172    0.01172    0.01172
                         0.01172    0.01172    0.01172    0.02344    0.01172    0.01172
                         0.02344    0.02344    0.02344    0.02344    0.00293    0.01172
                         0.01172    0.01172
                       outvars : Printing only first  50 k-points.
           xangst      0.0000000000E+00  0.0000000000E+00  0.0000000000E+00
                       1.3485391323E+00  1.3485391323E+00  1.3485391323E+00
            xcart      0.0000000000E+00  0.0000000000E+00  0.0000000000E+00
                       2.5483696395E+00  2.5483696395E+00  2.5483696395E+00
             xred      0.0000000000E+00  0.0000000000E+00  0.0000000000E+00
                       2.5000000000E-01  2.5000000000E-01  2.5000000000E-01
            znucl       14.00000

================================================================================
  

================================================================================

 Suggested references for the acknowledgment of ABINIT usage.

 The users of ABINIT have little formal obligations with respect to the ABINIT group
 (those specified in the GNU General Public License, http://www.gnu.org/copyleft/gpl.txt).
 However, it is common practice in the scientific literature,
 to acknowledge the efforts of people that have made the research possible.
 In this spirit, please find below suggested citations of work written by ABINIT developers,
 corresponding to implementations inside of ABINIT that you have used in the present run.
 Note also that it will be of great value to readers of publications presenting these results,
 to read papers enabling them to understand the theoretical formalism and details
 of the ABINIT implementation.
 For information on why they are suggested, see also https://docs.abinit.org/theory/acknowledgments.
-
- [1] Specification of an extensible and portable file format for electronic structure and crystallographic data
- X. Gonze, C.-O. Almbladh, A. Cucca, D. Caliste, C. Freysoldt, M. Marques, V. Olevano, Y. Pouillon, M.J. Verstraete,
- Comput. Material Science 43, 1056 (2008).
- Comment: to be cited in case the ETSF_IO file format is used, i.e. iomode=3.
- DOI and bibtex: see https://docs.abinit.org/theory/bibliography/#gonze2008
-
- [2] Libxc: A library of exchange and correlation functionals for density functional theory.
- M.A.L. Marques, M.J.T. Oliveira, T. Burnus, Computer Physics Communications 183, 2227 (2012).
- Comment: to be cited when LibXC is used (negative value of ixc)
- Strong suggestion to cite this paper.
- DOI and bibtex: see https://docs.abinit.org/theory/bibliography/#marques2012
-
- [3] The Abinit project: Impact, environment and recent developments.
- Computer Phys. Comm. 248, 107042 (2020).
- X.Gonze, B. Amadon, G. Antonius, F.Arnardi, L.Baguet, J.-M.Beuken,
- J.Bieder, F.Bottin, J.Bouchet, E.Bousquet, N.Brouwer, F.Bruneval,
- G.Brunin, T.Cavignac, J.-B. Charraud, Wei Chen, M.Cote, S.Cottenier,
- J.Denier, G.Geneste, Ph.Ghosez, M.Giantomassi, Y.Gillet, O.Gingras,
- D.R.Hamann, G.Hautier, Xu He, N.Helbig, N.Holzwarth, Y.Jia, F.Jollet,
- W.Lafargue-Dit-Hauret, K.Lejaeghere, M.A.L.Marques, A.Martin, C.Martins,
- H.P.C. Miranda, F.Naccarato, K. Persson, G.Petretto, V.Planes, Y.Pouillon,
- S.Prokhorenko, F.Ricci, G.-M.Rignanese, A.H.Romero, M.M.Schmitt, M.Torrent,
- M.J.van Setten, B.Van Troeye, M.J.Verstraete, G.Zerah and J.W.Zwanzig
- Comment: the fifth generic paper describing the ABINIT project.
- Note that a version of this paper, that is not formatted for Computer Phys. Comm. 
- is available at https://www.abinit.org/sites/default/files/ABINIT20.pdf .
- The licence allows the authors to put it on the Web.
- DOI and bibtex: see https://docs.abinit.org/theory/bibliography/#gonze2020
-
- [4] Optimized norm-conserving Vanderbilt pseudopotentials.
- D.R. Hamann, Phys. Rev. B 88, 085117 (2013).
- Comment: Some pseudopotential generated using the ONCVPSP code were used.
- DOI and bibtex: see https://docs.abinit.org/theory/bibliography/#hamann2013
-
- [5] ABINIT: Overview, and focus on selected capabilities
- J. Chem. Phys. 152, 124102 (2020).
- A. Romero, D.C. Allan, B. Amadon, G. Antonius, T. Applencourt, L.Baguet,
- J.Bieder, F.Bottin, J.Bouchet, E.Bousquet, F.Bruneval,
- G.Brunin, D.Caliste, M.Cote,
- J.Denier, C. Dreyer, Ph.Ghosez, M.Giantomassi, Y.Gillet, O.Gingras,
- D.R.Hamann, G.Hautier, F.Jollet, G. Jomard,
- A.Martin, 
- H.P.C. Miranda, F.Naccarato, G.Petretto, N.A. Pike, V.Planes,
- S.Prokhorenko, T. Rangel, F.Ricci, G.-M.Rignanese, M.Royo, M.Stengel, M.Torrent,
- M.J.van Setten, B.Van Troeye, M.J.Verstraete, J.Wiktor, J.W.Zwanziger, and X.Gonze.
- Comment: a global overview of ABINIT, with focus on selected capabilities .
- Note that a version of this paper, that is not formatted for J. Chem. Phys 
- is available at https://www.abinit.org/sites/default/files/ABINIT20_JPC.pdf .
- The licence allows the authors to put it on the Web.
- DOI and bibtex: see https://docs.abinit.org/theory/bibliography/#romero2020
-
- [6] Recent developments in the ABINIT software package.
- Computer Phys. Comm. 205, 106 (2016).
- X.Gonze, F.Jollet, F.Abreu Araujo, D.Adams, B.Amadon, T.Applencourt,
- C.Audouze, J.-M.Beuken, J.Bieder, A.Bokhanchuk, E.Bousquet, F.Bruneval
- D.Caliste, M.Cote, F.Dahm, F.Da Pieve, M.Delaveau, M.Di Gennaro,
- B.Dorado, C.Espejo, G.Geneste, L.Genovese, A.Gerossier, M.Giantomassi,
- Y.Gillet, D.R.Hamann, L.He, G.Jomard, J.Laflamme Janssen, S.Le Roux,
- A.Levitt, A.Lherbier, F.Liu, I.Lukacevic, A.Martin, C.Martins,
- M.J.T.Oliveira, S.Ponce, Y.Pouillon, T.Rangel, G.-M.Rignanese,
- A.H.Romero, B.Rousseau, O.Rubel, A.A.Shukri, M.Stankovski, M.Torrent,
- M.J.Van Setten, B.Van Troeye, M.J.Verstraete, D.Waroquier, J.Wiktor,
- B.Xu, A.Zhou, J.W.Zwanziger.
- Comment: the fourth generic paper describing the ABINIT project.
- Note that a version of this paper, that is not formatted for Computer Phys. Comm. 
- is available at https://www.abinit.org/sites/default/files/ABINIT16.pdf .
- The licence allows the authors to put it on the Web.
- DOI and bibtex: see https://docs.abinit.org/theory/bibliography/#gonze2016
 Proc.   0 individual time (sec): cpu=         10.0  wall=          6.1

 Calculation completed.
.Delivered   0 WARNINGs and   0 COMMENTs to log file.

--- !FinalSummary
program: abinit
version: 9.5.1
start_datetime: Sat Nov 27 00:28:37 2021
end_datetime: Sat Nov 27 00:28:43 2021
overall_cpu_time:          39.4
overall_wall_time:          24.2
exit_requested_by_user: no 
timelimit: 0
pseudos: 
    Si  : 9cf3649cb539efbe8c67e8db9d375af0
usepaw: 0
mpi_procs: 4
omp_threads: 1
num_warnings: 0
num_comments: 0
...
