  ABINIT 9.9.2
  
-instrng: 52 lines of input have been read from file /home/felix/Workspace/abisuite/abisuite/unittests/test_workflows/test_files/abinit_si/nc/phonon_dispersion_noddk/phonons_runs/ph_q7/ph_q7.abi


.Version 9.9.2 of ABINIT 
.(MPI version, prepared for a x86_64_linux_gnu11.3 computer) 

.Copyright (C) 1998-2022 ABINIT group . 
 ABINIT comes with ABSOLUTELY NO WARRANTY.
 It is free software, and you are welcome to redistribute it
 under certain conditions (GNU General Public License,
 see ~abinit/COPYING or http://www.gnu.org/copyleft/gpl.txt).

 ABINIT is a project of the Universite Catholique de Louvain,
 Corning Inc. and other collaborators, see ~abinit/doc/developers/contributors.txt .
 Please read https://docs.abinit.org/theory/acknowledgments for suggested
 acknowledgments of the ABINIT effort.
 For more information, see https://www.abinit.org .

.Starting date : Fri 19 May 2023.
- ( at 15h38 )
  

 ++++++++++++++++++++++++++++++++++++++++++++++++++++++++++++++++++++++++++++++

 === Build Information === 
  Version       : 9.9.2
  Build target  : x86_64_linux_gnu11.3
  Build date    : 20230210

 === Compiler Suite === 
  C compiler       : gnu11.3
  C++ compiler     : gnu11.3
  Fortran compiler : gnu11.3
  CFLAGS           : -g -O2
  CXXFLAGS         : -g -O2 -mtune=native -march=native
  FCFLAGS          : -g -ffree-line-length-none -fallow-argument-mismatch     -I/home/fe ...
  FC_LDFLAGS       : 

 === Optimizations === 
  Debug level        : basic
  Optimization level : standard
  Architecture       : unknown_unknown

 === Multicore === 
  Parallel build : /home/felix/Softwares/openmpi/build
  Parallel I/O   : yes
  openMP support : 
  GPU support    : 

 === Connectors / Fallbacks === 
  LINALG flavor  : openblas
  FFT flavor     : goedecker
  HDF5           : yes
  NetCDF         : yes
  NetCDF Fortran : yes
  LibXC          : yes
  Wannier90      : no

 === Experimental features === 
  Exports             : 
  GW double-precision : 

 ++++++++++++++++++++++++++++++++++++++++++++++++++++++++++++++++++++++++++++++


 ++++++++++++++++++++++++++++++++++++++++++++++++++++++++++++++++++++++++++++++
 Default optimizations:
   -O2 -mtune=native -march=native


 Optimizations for 43_ptgroups:
   -O0


 ++++++++++++++++++++++++++++++++++++++++++++++++++++++++++++++++++++++++++++++


 ++++++++++++++++++++++++++++++++++++++++++++++++++++++++++++++++++++++++++++++
 CPP options activated during the build:

                    CC_GNU                   CXX_GNU                    FC_GNU
 
 HAVE_FC_ALLOCATABLE_DT...             HAVE_FC_ASYNC         HAVE_FC_BACKTRACE
 
  HAVE_FC_COMMAND_ARGUMENT      HAVE_FC_COMMAND_LINE        HAVE_FC_CONTIGUOUS
 
           HAVE_FC_CPUTIME              HAVE_FC_EXIT             HAVE_FC_FLUSH
 
             HAVE_FC_GAMMA            HAVE_FC_GETENV   HAVE_FC_IEEE_ARITHMETIC
 
   HAVE_FC_IEEE_EXCEPTIONS          HAVE_FC_INT_QUAD             HAVE_FC_IOMSG
 
     HAVE_FC_ISO_C_BINDING  HAVE_FC_ISO_FORTRAN_2008        HAVE_FC_LONG_LINES
 
        HAVE_FC_MOVE_ALLOC  HAVE_FC_ON_THE_FLY_SHAPE           HAVE_FC_PRIVATE
 
         HAVE_FC_PROTECTED           HAVE_FC_SHIFTLR         HAVE_FC_STREAM_IO
 
            HAVE_FC_SYSTEM          HAVE_FORTRAN2003                 HAVE_HDF5
 
             HAVE_HDF5_MPI        HAVE_LIBPAW_ABINIT              HAVE_LIBPSML
 
      HAVE_LIBTETRA_ABINIT                HAVE_LIBXC                  HAVE_MPI
 
                 HAVE_MPI2         HAVE_MPI2_INPLACE       HAVE_MPI_IALLGATHER
 
       HAVE_MPI_IALLREDUCE        HAVE_MPI_IALLTOALL       HAVE_MPI_IALLTOALLV
 
           HAVE_MPI_IBCAST         HAVE_MPI_IGATHERV        HAVE_MPI_INTEGER16
 
               HAVE_MPI_IO       HAVE_MPI_IO_DEFAULT HAVE_MPI_TYPE_CREATE_S...
 
               HAVE_NETCDF       HAVE_NETCDF_FORTRAN   HAVE_NETCDF_FORTRAN_MPI
 
           HAVE_NETCDF_MPI             HAVE_OS_LINUX         HAVE_TIMER_ABINIT
 
                  HAVE_XML               HAVE_XMLF90                            
 ++++++++++++++++++++++++++++++++++++++++++++++++++++++++++++++++++++++++++++++

- input  file    -> /home/felix/Workspace/abisuite/abisuite/unittests/test_workflows/test_files/abinit_si/nc/phonon_dispersion_noddk/phonons_runs/ph_q7/ph_q7.abi
- output file    -> /home/felix/Workspace/abisuite/abisuite/unittests/test_workflows/test_files/abinit_si/nc/phonon_dispersion_noddk/phonons_runs/ph_q7/ph_q7.abo
- root for input  files -> /home/felix/Workspace/abisuite/abisuite/unittests/test_workflows/test_files/abinit_si/nc/phonon_dispersion_noddk/phonons_runs/ph_q7/input_data/idat_ph_q7
- root for output files -> /home/felix/Workspace/abisuite/abisuite/unittests/test_workflows/test_files/abinit_si/nc/phonon_dispersion_noddk/phonons_runs/ph_q7/run/output_data/odat_ph_q7

 Netcdf library supports MPI-IO
-instrng: 52 lines of input have been read from file /home/felix/Workspace/abisuite/abisuite/unittests/test_workflows/test_files/abinit_si/nc/phonon_dispersion_noddk/phonons_runs/ph_q7/ph_q7.abi

 For atom type 1, psp file is //home/felix/Workspace/abisuite/abisuite/unittests/test_workflows/test_files/pseudos/Si.psp8
  read the values zionpsp=  4.0 , pspcod=   8 , lmax=   2

 inpspheads: deduce mpsang = 3, n1xccc = 2501.

======================================================= 
 invars1m : enter jdtset= 0

 symlatt: the Bravais lattice is cF (face-centered cubic)
  xred   is defined in input file
 ingeo: takes atomic coordinates from input array xred

--- !COMMENT
src_file: m_ingeo.F90
src_line: 890
message: |
    The tolerance on symmetries =   1.000E-05 is bigger than 1.0e-8.
    In order to avoid spurious effects, the atomic coordinates have been
    symmetrized before storing them in the dataset internal variable.
    So, do not be surprised by the fact that your input variables (xcart, xred, ...)
    do not correspond exactly to the ones echoed by ABINIT, the latter being used to do the calculations.
    This is not a problem per se.
    Still, in order to avoid this symmetrization (e.g. for specific debugging/development), decrease tolsym to 1.0e-8 or lower,
    or (much preferred) use input primitive vectors that are accurate to better than 1.0e-8.
    This message will only be printed once, even if there are other datasets where tolsym is bigger than 1.0e-8.
...


 symlatt: the Bravais lattice is cF (face-centered cubic)

 symlatt: the Bravais lattice is cF (face-centered cubic)
 symspgr: spgroup= 227  Fd -3 m   (=Oh^7)
 symspgr: optical characteristics = isotropic
 invars2: take the default value of fband=  1.25000000E-01
 For input ecut=  1.000000E+01 best grid ngfft=      24      24      24
       max ecut=  1.367784E+01

 ==== FFT mesh ====
  FFT mesh divisions ........................    24   24   24
  Augmented FFT divisions ...................    25   25   24
  FFT algorithm .............................   112
  FFT cache size ............................    16
 getmpw: optimal value of mpw= 405
 getmpw: optimal value of mpw= 405

 Symmetries : space group Fd -3 m (#227); Bravais cF (face-center cubic)

 getdim_nloc: deduce lmnmax  =  18, lnmax  =   6,
                      lmnmaxso=  18, lnmaxso=   6.
 memorf : analysis of memory needs
================================================================================
 Values of the parameters that define the memory need of the present run (RF).
     intxc =       0      iscf =       7    lmnmax =       6     lnmax =       6
     mgfft =      24  mpssoang =       3    mqgrid =    3001     natom =       2
  nloc_mem =       1    nspden =       1   nspinor =       1    nsppol =       1
      nsym =      48    n1xccc =    2501    ntypat =       1    occopt =       1
   xclevel =       1
-    mband =           5        mffmem =           1         mkmem =         217
-   mkqmem =         217        mk1mem =         217           mpw =         405
      nfft =       13824          nkpt =         864
================================================================================
P This job should need less than                      27.225 Mbytes of memory.
  Rough estimation (10% accuracy) of disk space for files :
_ WF disk file :     26.699 Mbytes ; DEN or POT disk file :      0.107 Mbytes.
================================================================================

 Biggest array : cg(disk), with      6.7071 MBytes.
 memana : allocated an array of      6.707 Mbytes, for testing purposes.
 memana: allocated      27.225Mbytes, for testing purposes. 
 The job will continue.
--------------------------------------------------------------------------------
------------- Echo of variables that govern the present computation ------------
--------------------------------------------------------------------------------
-
- outvars: echo of selected default values                                      
-   iomode0 =  1 , fftalg0 =112 , wfoptalg0 =  0
-
- outvars: echo of global parameters not present in the input file              
-  max_nthreads =    0
-
 -outvars: echo values of preprocessed input variables --------
 
 These variables are accessible in NetCDF format (/home/felix/Workspace/abisuite/abisuite/unittests/test_workflows/test_files/abinit_si/nc/phonon_dispersion_noddk/phonons_runs/ph_q7/run/output_data/odat_ph_q7_OUT.nc)

            acell      7.2078778121E+00  7.2078778121E+00  7.2078778121E+00 Bohr
              amu      2.80855000E+01
           diemac      1.20000000E+01
             ecut      1.00000000E+01 Hartree
-          fftalg         112
           irdwfk           1
              ixc       -1012
              kpt     -8.33333333E-02 -1.66666667E-01  0.00000000E+00
                      -1.66666667E-01 -8.33333333E-02  0.00000000E+00
                      -8.33333333E-02 -8.33333333E-02  8.33333333E-02
                      -8.33333333E-02 -3.33333333E-01  0.00000000E+00
                      -1.66666667E-01 -2.50000000E-01  0.00000000E+00
                      -8.33333333E-02 -2.50000000E-01  8.33333333E-02
                      -2.50000000E-01 -1.66666667E-01  0.00000000E+00
                      -1.66666667E-01 -1.66666667E-01  8.33333333E-02
                      -8.33333333E-02 -1.66666667E-01  1.66666667E-01
                      -3.33333333E-01 -8.33333333E-02  0.00000000E+00
                      -2.50000000E-01 -8.33333333E-02  8.33333333E-02
                      -1.66666667E-01 -8.33333333E-02  1.66666667E-01
                      -8.33333333E-02 -8.33333333E-02  2.50000000E-01
                      -8.33333333E-02  5.00000000E-01  0.00000000E+00
                      -1.66666667E-01 -4.16666667E-01  0.00000000E+00
                      -8.33333333E-02 -4.16666667E-01  8.33333333E-02
                      -2.50000000E-01 -3.33333333E-01  0.00000000E+00
                      -1.66666667E-01 -3.33333333E-01  8.33333333E-02
                      -8.33333333E-02 -3.33333333E-01  1.66666667E-01
                      -3.33333333E-01 -2.50000000E-01  0.00000000E+00
                      -2.50000000E-01 -2.50000000E-01  8.33333333E-02
                      -1.66666667E-01 -2.50000000E-01  1.66666667E-01
                      -8.33333333E-02 -2.50000000E-01  2.50000000E-01
                      -4.16666667E-01 -1.66666667E-01  0.00000000E+00
                      -3.33333333E-01 -1.66666667E-01  8.33333333E-02
                      -2.50000000E-01 -1.66666667E-01  1.66666667E-01
                      -1.66666667E-01 -1.66666667E-01  2.50000000E-01
                      -8.33333333E-02 -1.66666667E-01  3.33333333E-01
                       5.00000000E-01 -8.33333333E-02  0.00000000E+00
                      -4.16666667E-01 -8.33333333E-02  8.33333333E-02
                      -3.33333333E-01 -8.33333333E-02  1.66666667E-01
                      -2.50000000E-01 -8.33333333E-02  2.50000000E-01
                      -1.66666667E-01 -8.33333333E-02  3.33333333E-01
                      -8.33333333E-02 -8.33333333E-02  4.16666667E-01
                      -8.33333333E-02  3.33333333E-01  0.00000000E+00
                      -1.66666667E-01  4.16666667E-01  0.00000000E+00
                      -8.33333333E-02  4.16666667E-01  8.33333333E-02
                      -2.50000000E-01  5.00000000E-01  0.00000000E+00
                      -1.66666667E-01  5.00000000E-01  8.33333333E-02
                      -8.33333333E-02  5.00000000E-01  1.66666667E-01
                      -3.33333333E-01 -4.16666667E-01  0.00000000E+00
                      -2.50000000E-01 -4.16666667E-01  8.33333333E-02
                      -1.66666667E-01 -4.16666667E-01  1.66666667E-01
                      -8.33333333E-02 -4.16666667E-01  2.50000000E-01
                      -4.16666667E-01 -3.33333333E-01  0.00000000E+00
                      -3.33333333E-01 -3.33333333E-01  8.33333333E-02
                      -2.50000000E-01 -3.33333333E-01  1.66666667E-01
                      -1.66666667E-01 -3.33333333E-01  2.50000000E-01
                      -8.33333333E-02 -3.33333333E-01  3.33333333E-01
                       5.00000000E-01 -2.50000000E-01  0.00000000E+00
                       outvar_i_n : Printing only first  50 k-points.
           kptopt           3
         kptrlatt        6   -6    6     -6    6    6     -6   -6    6
          kptrlen      6.11608713E+01
P           mkmem         217
P          mkqmem         217
P          mk1mem         217
            natom           2
            nband           5
            ngfft          24      24      24
             nkpt         864
             nqpt           1
            nstep          25
             nsym          48
           ntypat           1
              occ      2.000000  2.000000  2.000000  2.000000  0.000000
        optdriver           1
           prtpot           1
              qpt      5.00000000E-01  1.66666667E-01  0.00000000E+00
           rfphon           1
            rprim      0.0000000000E+00  7.0710678119E-01  7.0710678119E-01
                       7.0710678119E-01  0.0000000000E+00  7.0710678119E-01
                       7.0710678119E-01  7.0710678119E-01  0.0000000000E+00
           shiftk      5.00000000E-01  5.00000000E-01  5.00000000E-01
          spgroup         227
           symrel      1  0  0   0  1  0   0  0  1      -1  0  0   0 -1  0   0  0 -1
                       0 -1  1   0 -1  0   1 -1  0       0  1 -1   0  1  0  -1  1  0
                      -1  0  0  -1  0  1  -1  1  0       1  0  0   1  0 -1   1 -1  0
                       0  1 -1   1  0 -1   0  0 -1       0 -1  1  -1  0  1   0  0  1
                      -1  0  0  -1  1  0  -1  0  1       1  0  0   1 -1  0   1  0 -1
                       0 -1  1   1 -1  0   0 -1  0       0  1 -1  -1  1  0   0  1  0
                       1  0  0   0  0  1   0  1  0      -1  0  0   0  0 -1   0 -1  0
                       0  1 -1   0  0 -1   1  0 -1       0 -1  1   0  0  1  -1  0  1
                      -1  0  1  -1  1  0  -1  0  0       1  0 -1   1 -1  0   1  0  0
                       0 -1  0   1 -1  0   0 -1  1       0  1  0  -1  1  0   0  1 -1
                       1  0 -1   0  0 -1   0  1 -1      -1  0  1   0  0  1   0 -1  1
                       0  1  0   0  0  1   1  0  0       0 -1  0   0  0 -1  -1  0  0
                       1  0 -1   0  1 -1   0  0 -1      -1  0  1   0 -1  1   0  0  1
                       0 -1  0   0 -1  1   1 -1  0       0  1  0   0  1 -1  -1  1  0
                      -1  0  1  -1  0  0  -1  1  0       1  0 -1   1  0  0   1 -1  0
                       0  1  0   1  0  0   0  0  1       0 -1  0  -1  0  0   0  0 -1
                       0  0 -1   0  1 -1   1  0 -1       0  0  1   0 -1  1  -1  0  1
                       1 -1  0   0 -1  1   0 -1  0      -1  1  0   0  1 -1   0  1  0
                       0  0  1   1  0  0   0  1  0       0  0 -1  -1  0  0   0 -1  0
                      -1  1  0  -1  0  0  -1  0  1       1 -1  0   1  0  0   1  0 -1
                       0  0  1   0  1  0   1  0  0       0  0 -1   0 -1  0  -1  0  0
                       1 -1  0   0 -1  0   0 -1  1      -1  1  0   0  1  0   0  1 -1
                       0  0 -1   1  0 -1   0  1 -1       0  0  1  -1  0  1   0 -1  1
                      -1  1  0  -1  0  1  -1  0  0       1 -1  0   1  0 -1   1  0  0
            tnons      0.0000000  0.0000000  0.0000000     0.2500000  0.2500000  0.2500000
                       0.0000000  0.0000000  0.0000000     0.2500000  0.2500000  0.2500000
                       0.0000000  0.0000000  0.0000000     0.2500000  0.2500000  0.2500000
                       0.0000000  0.0000000  0.0000000     0.2500000  0.2500000  0.2500000
                       0.0000000  0.0000000  0.0000000     0.2500000  0.2500000  0.2500000
                       0.0000000  0.0000000  0.0000000     0.2500000  0.2500000  0.2500000
                       0.0000000  0.0000000  0.0000000     0.2500000  0.2500000  0.2500000
                       0.0000000  0.0000000  0.0000000     0.2500000  0.2500000  0.2500000
                       0.0000000  0.0000000  0.0000000     0.2500000  0.2500000  0.2500000
                       0.0000000  0.0000000  0.0000000     0.2500000  0.2500000  0.2500000
                       0.0000000  0.0000000  0.0000000     0.2500000  0.2500000  0.2500000
                       0.0000000  0.0000000  0.0000000     0.2500000  0.2500000  0.2500000
                       0.0000000  0.0000000  0.0000000     0.2500000  0.2500000  0.2500000
                       0.0000000  0.0000000  0.0000000     0.2500000  0.2500000  0.2500000
                       0.0000000  0.0000000  0.0000000     0.2500000  0.2500000  0.2500000
                       0.0000000  0.0000000  0.0000000     0.2500000  0.2500000  0.2500000
                       0.0000000  0.0000000  0.0000000     0.2500000  0.2500000  0.2500000
                       0.0000000  0.0000000  0.0000000     0.2500000  0.2500000  0.2500000
                       0.0000000  0.0000000  0.0000000     0.2500000  0.2500000  0.2500000
                       0.0000000  0.0000000  0.0000000     0.2500000  0.2500000  0.2500000
                       0.0000000  0.0000000  0.0000000     0.2500000  0.2500000  0.2500000
                       0.0000000  0.0000000  0.0000000     0.2500000  0.2500000  0.2500000
                       0.0000000  0.0000000  0.0000000     0.2500000  0.2500000  0.2500000
                       0.0000000  0.0000000  0.0000000     0.2500000  0.2500000  0.2500000
           tolvrs      1.00000000E-08
            typat      1  1
              wtk        0.00116    0.00116    0.00116    0.00116    0.00116    0.00116
                         0.00116    0.00116    0.00116    0.00116    0.00116    0.00116
                         0.00116    0.00116    0.00116    0.00116    0.00116    0.00116
                         0.00116    0.00116    0.00116    0.00116    0.00116    0.00116
                         0.00116    0.00116    0.00116    0.00116    0.00116    0.00116
                         0.00116    0.00116    0.00116    0.00116    0.00116    0.00116
                         0.00116    0.00116    0.00116    0.00116    0.00116    0.00116
                         0.00116    0.00116    0.00116    0.00116    0.00116    0.00116
                         0.00116    0.00116
                       outvars : Printing only first  50 k-points.
           xangst      0.0000000000E+00  0.0000000000E+00  0.0000000000E+00
                       1.3485391323E+00  1.3485391323E+00  1.3485391323E+00
            xcart      0.0000000000E+00  0.0000000000E+00  0.0000000000E+00
                       2.5483696395E+00  2.5483696395E+00  2.5483696395E+00
             xred      0.0000000000E+00  0.0000000000E+00  0.0000000000E+00
                       2.5000000000E-01  2.5000000000E-01  2.5000000000E-01
            znucl       14.00000

================================================================================

 chkinp: Checking input parameters for consistency.
 DATA TYPE INFORMATION: 
 REAL:      Data type name: REAL(DP) 
            Kind value:      8
            Precision:      15
            Smallest nonnegligible quantity relative to 1: 0.22204460E-015
            Smallest positive number:                      0.22250739E-307
            Largest representable number:                  0.17976931E+309
 INTEGER:   Data type name: INTEGER(default) 
            Kind value: 4
            Bit size:   32
            Largest representable number: 2147483647
 LOGICAL:   Data type name: LOGICAL 
            Kind value: 4
 CHARACTER: Data type name: CHARACTER             Kind value: 1

  ==== OpenMP parallelism is OFF ====
 
  ==== Using MPI-2 specifications ==== 
  MPI-IO support is ON
  xmpi_tag_ub ................   2147483647
  xmpi_bsize_ch ..............            1
  xmpi_bsize_int .............            4
  xmpi_bsize_sp ..............            4
  xmpi_bsize_dp ..............            8
  xmpi_bsize_spc .............            8
  xmpi_bsize_dpc .............           16
  xmpio_bsize_frm ............            4
  xmpi_address_kind ..........            8
  xmpi_offset_kind ...........            8
  MPI_WTICK ..................    1.0000000000000001E-009

================================================================================
== DATASET  1 ==================================================================
-   mpi_nproc: 4, omp_nthreads: -1 (-1 if OMP is not activated)


--- !COMMENT
src_file: m_xgScalapack.F90
src_line: 230
message: |
    xgScalapack in auto mode
...


 getdim_nloc: deduce lmnmax  =  18, lnmax  =   6,
                      lmnmaxso=  18, lnmaxso=   6.
 Slater exchange
 P. A. M. Dirac.,  Math. Proc. Cambridge Philos. Soc. 26, 376 (1930)
 F. Bloch.,  Z. Phys. 57, 545 (1929)
 Perdew & Wang
 J. P. Perdew and Y. Wang.,  Phys. Rev. B 45, 13244 (1992)

 Unit cell volume ucvol=  2.6479346E+02 bohr^3
 Angles (23,13,12)=  6.00000000E+01  6.00000000E+01  6.00000000E+01 degrees
 setup1 : take into account q-point for computing boxcut.

 getcut: wavevector=  0.5000  0.1667  0.0000  ngfft=  24  24  24
         ecut(hartree)=     10.000   => boxcut(ratio)=   2.24229

 getcut : COMMENT -
  Note that boxcut > 2.2 ; recall that boxcut=Gcut(box)/Gcut(sphere) = 2
  is sufficient for exact treatment of convolution.
  Such a large boxcut is a waste : you could raise ecut
  e.g. ecut=   12.569679 Hartrees makes boxcut=2

- pspini: atom type   1  psp file is //home/felix/Workspace/abisuite/abisuite/unittests/test_workflows/test_files/pseudos/Si.psp8
- pspatm: opening atomic psp file    //home/felix/Workspace/abisuite/abisuite/unittests/test_workflows/test_files/pseudos/Si.psp8
- Si    ONCVPSP-3.3.0  r_core=   1.60303   1.72197   1.91712
- 14.00000   4.00000    171102                znucl, zion, pspdat
    8   -1012    2    4       600   0.00000   pspcod,pspxc,lmax,lloc,mmax,r2well
    5.99000000000000    4.00000000000000    0.00000000000000   rchrg,fchrg,qchrg
     nproj     2     2     2
     extension_switch     1
  valence charge (before rescaling) integrates to:    3.9545012856495880     
  pspatm : epsatm=    6.67004110
         --- l  ekb(1:nproj) -->
             0    5.565958    0.856966
             1    2.726111    0.629828
             2   -2.124804   -0.444604
 pspatm: atomic psp has been read  and splines computed

   1.06720658E+02                                ecore*ucvol(ha*bohr**3)
 ==== Info on pseudopotentials ====
  Norm-conserving pseudopotentials
  Number of pseudopotentials ..    1
  Number of types of atoms   ..    1
  Scalar calculation (no spin-orbit term)
  Nonlocal part applied using Legendre polynomials
  Max number of non-local projectors over l and type   2
  Highest angular momentum +1 .......   3
  Max number of (l,n)   components ..   6
  Max number of (l,m,n) components ..   6

 Pseudo-Core Charge Info: 
   Number of radial points for pseudo-core charge .. 2501
   XC core-correction treatment (optnlxccc) ........    1
   Radius for pseudo-core charge for each type ..... 

  - Atom type    1 has pseudo-core radius ..  5.9900

 Info on the Q-grid used for form factors in spline form: 
   Number of q-points for radial functions ffspl ..   3001
   Number of q-points for vlspl ...................   3001
   vloc is computed in Reciprocal Space
   model core charge treated in real-space

  XC functional for type 1 is -1012
  Pseudo valence available: yes


 respfn : eigen0 array
 symatm: atom number 1 is reached starting at atom
   1  2  1  2  1  2  1  2  1  2  1  2  1  2  1  2  1  2  1  2  1  2  1  2
   1  2  1  2  1  2  1  2  1  2  1  2  1  2  1  2  1  2  1  2  1  2  1  2
 symatm: atom number 2 is reached starting at atom
   2  1  2  1  2  1  2  1  2  1  2  1  2  1  2  1  2  1  2  1  2  1  2  1
   2  1  2  1  2  1  2  1  2  1  2  1  2  1  2  1  2  1  2  1  2  1  2  1

 getcut: wavevector=  0.0000  0.0000  0.0000  ngfft=  24  24  24
         ecut(hartree)=     10.000   => boxcut(ratio)=   2.33905

 getcut : COMMENT -
  Note that boxcut > 2.2 ; recall that boxcut=Gcut(box)/Gcut(sphere) = 2
  is sufficient for exact treatment of convolution.
  Such a large boxcut is a waste : you could raise ecut
  e.g. ecut=   13.677837 Hartrees makes boxcut=2

 mkrho: echo density (plane-wave part only)
 Total charge density [el/Bohr^3]
)     Maximum=    8.5686E-02  at reduced coord.    0.0833    0.1250    0.7083
)     Minimum=    1.4766E-03  at reduced coord.    0.0000    0.0000    0.0000
   Integrated=    8.0000E+00

 1/G**2 cut-off applied in the following step : cutoff-mode = CRYSTAL

 1/G**2 cut-off applied in the following step : cutoff-mode = CRYSTAL

 ==> Calculation of the frozen part of the second order derivatives, this can take some time...


 ==> Calculation of the frozen part of the second order derivative done


 1/G**2 cut-off applied in the following step : cutoff-mode = CRYSTAL

 ==>  initialize data related to q vector <== 

 The list of irreducible perturbations for this q vector is:
    1)    idir= 1    ipert=   1
    2)    idir= 2    ipert=   1
    3)    idir= 3    ipert=   1

================================================================================
 Real(R)+Recip(G) space primitive vectors, cartesian coordinates (Bohr,Bohr^-1):
 R(1)=  0.0000000  5.0967393  5.0967393  G(1)= -0.0981019  0.0981019  0.0981019
 R(2)=  5.0967393  0.0000000  5.0967393  G(2)=  0.0981019 -0.0981019  0.0981019
 R(3)=  5.0967393  5.0967393  0.0000000  G(3)=  0.0981019  0.0981019 -0.0981019
 Unit cell volume ucvol=  2.6479346E+02 bohr^3
 Unit cell volume ucvol=  2.6479346E+02 bohr^3
 Angles (23,13,12)=  6.00000000E+01  6.00000000E+01  6.00000000E+01 degrees
 Angles (23,13,12)=  6.00000000E+01  6.00000000E+01  6.00000000E+01 degrees

 getcut: wavevector=  0.5000  0.1667  0.0000  ngfft=  24  24  24
         ecut(hartree)=     10.000   => boxcut(ratio)=   2.24229

 getcut : COMMENT -
  Note that boxcut > 2.2 ; recall that boxcut=Gcut(box)/Gcut(sphere) = 2
  is sufficient for exact treatment of convolution.
  Such a large boxcut is a waste : you could raise ecut
  e.g. ecut=   12.569679 Hartrees makes boxcut=2


 The perturbation idir=   1  ipert=   2 is
 symmetric of a previously calculated perturbation.
 So, its SCF calculation is not needed.


 The perturbation idir=   2  ipert=   2 is
 symmetric of a previously calculated perturbation.
 So, its SCF calculation is not needed.


 The perturbation idir=   3  ipert=   2 is
 symmetric of a previously calculated perturbation.
 So, its SCF calculation is not needed.


--------------------------------------------------------------------------------
 Perturbation wavevector (in red.coord.)   0.500000  0.166667  0.000000
 Perturbation : displacement of atom   1   along direction   1
 littlegroup_pert: only one element in the set of symmetries for this perturbation:
   1   0   0   0   1   0   0   0   1
 symatm: atom number 1 is reached starting at atom
   1
 symatm: atom number 2 is reached starting at atom
   2
 symkpt : not enough symmetry to change the number of k points.
 getmpw: optimal value of mpw= 405
 Memory required for psi0_k, psi0_kq psi1_kq: 20.0 [Mb] <<< MEM
 getmpw: optimal value of mpw= 405
 Initialisation of the first-order wave-functions :
  ireadwf=   0
 Initializing rhor1 from valence densities taken from pseudopotential files

 getcut: wavevector=  0.0000  0.0000  0.0000  ngfft=  24  24  24
         ecut(hartree)=     10.000   => boxcut(ratio)=   2.33905

 getcut : COMMENT -
  Note that boxcut > 2.2 ; recall that boxcut=Gcut(box)/Gcut(sphere) = 2
  is sufficient for exact treatment of convolution.
  Such a large boxcut is a waste : you could raise ecut
  e.g. ecut=   13.677837 Hartrees makes boxcut=2


 1/G**2 cut-off applied in the following step : cutoff-mode = CRYSTAL

 ITER STEP NUMBER     1
-ETOT  1   9.0500129530823     -9.788E+01 3.653E+00 3.271E+03

 Simple mixing update:
  residual square of the potential:    406.42690150948971
 dfpt_scfcv: previous iteration took  4.77 [s]

 ITER STEP NUMBER     2
 ETOT  2   7.7786615984729     -1.271E+00 1.245E+00 4.000E+02

 Pulay update with  1 previous iterations:
 mixing of old trial potential: alpha(m:m-4)=  0.745      0.255
 dfpt_scfcv: previous iteration took  4.97 [s]

 ITER STEP NUMBER     3
 ETOT  3   7.5954149047230     -1.832E-01 5.007E+00 2.788E+00

 Pulay update with  2 previous iterations:
 mixing of old trial potential: alpha(m:m-4)=   1.01      0.132E-01 -0.186E-01
 dfpt_scfcv: previous iteration took  5.18 [s]

 ITER STEP NUMBER     4
 ETOT  4   7.5943721843388     -1.043E-03 1.193E+00 1.005E-01

 Pulay update with  3 previous iterations:
 mixing of old trial potential: alpha(m:m-4)=   1.13     -0.990E-01 -0.258E-01 -0.991E-02
 dfpt_scfcv: previous iteration took  5.00 [s]

 ITER STEP NUMBER     5
 ETOT  5   7.5943378394612     -3.434E-05 4.790E+00 8.992E-04

 Pulay update with  4 previous iterations:
 mixing of old trial potential: alpha(m:m-4)=   1.03     -0.399E-02 -0.310E-01  0.125E-02  0.980E-03
 dfpt_scfcv: previous iteration took  5.23 [s]

 ITER STEP NUMBER     6
 ETOT  6   7.5943373298689     -5.096E-07 1.180E+00 5.680E-05

 Pulay update with  5 previous iterations:
 mixing of old trial potential: alpha(m:m-4)=   1.03      0.748E-02 -0.379E-01  0.151E-02  0.845E-03
 dfpt_scfcv: previous iteration took  4.99 [s]

 ITER STEP NUMBER     7
 ETOT  7   7.5943373091605     -2.071E-08 4.645E+00 1.007E-06

 Pulay update with  6 previous iterations:
 mixing of old trial potential: alpha(m:m-4)=   1.12     -0.110     -0.130E-01  0.180E-02  0.533E-03
 dfpt_scfcv: previous iteration took  5.02 [s]

 ITER STEP NUMBER     8
 ETOT  8   7.5943373087721     -3.884E-10 2.186E+00 2.363E-08

 Pulay update with  7 previous iterations:
 mixing of old trial potential: alpha(m:m-4)=   1.02      0.235E-02 -0.268E-01  0.696E-03  0.772E-03
 dfpt_scfcv: previous iteration took  5.29 [s]

 ITER STEP NUMBER     9
 ETOT  9   7.5943373087602     -1.189E-11 4.558E+00 2.084E-09

 At SCF step    9       vres2   =  2.08E-09 < tolvrs=  1.00E-08 =>converged.

 fftdatar_write: About to write data to: /home/felix/Workspace/abisuite/abisuite/unittests/test_workflows/test_files/abinit_si/nc/phonon_dispersion_noddk/phonons_runs/ph_q7/run/output_data/odat_ph_q7_DEN1 with iomode: IO_MODE_FORTRAN
 IO operation completed. cpu:  0.00 [s] , wall:  0.01 [s] <<< TIME

 fftdatar_write: About to write data to: /home/felix/Workspace/abisuite/abisuite/unittests/test_workflows/test_files/abinit_si/nc/phonon_dispersion_noddk/phonons_runs/ph_q7/run/output_data/odat_ph_q7_POT1 with iomode: IO_MODE_FORTRAN
 IO operation completed. cpu:  0.00 [s] , wall:  0.00 [s] <<< TIME
================================================================================

 ----iterations are completed or convergence reached----

 Mean square residual over all n,k,spin=  -13.132E-03; max=  45.579E-01
  -0.0833 -0.1667  0.0000    1  4.14809E-09 kpt; spin; max resid(k); each band:
  2.22E-15 3.58E-15 6.00E-15 9.91E-15 4.15E-09
  -0.1667 -0.0833  0.0000    1  4.22686E-09 kpt; spin; max resid(k); each band:
  5.53E-16 6.38E-15 6.15E-15 9.40E-15 4.23E-09
  -0.0833 -0.0833  0.0833    1  5.35779E-10 kpt; spin; max resid(k); each band:
  3.92E-16 6.03E-15 7.53E-15 2.62E-15 5.36E-10
  -0.0833 -0.3333  0.0000    1  3.22346E-12 kpt; spin; max resid(k); each band:
  1.09E-15 2.07E-15 4.28E-15 8.91E-15 3.22E-12
  -0.1667 -0.2500  0.0000    1  3.27890E-12 kpt; spin; max resid(k); each band:
  4.88E-16 1.96E-15 1.06E-14 5.90E-15 3.28E-12
  -0.0833 -0.2500  0.0833    1  6.87927E-06 kpt; spin; max resid(k); each band:
  3.69E-16 1.44E-15 1.11E-14 7.91E-15 6.88E-06
  -0.2500 -0.1667  0.0000    1  1.85190E-12 kpt; spin; max resid(k); each band:
  4.77E-16 5.06E-15 7.84E-15 7.18E-15 1.85E-12
  -0.1667 -0.1667  0.0833    1  1.63903E-11 kpt; spin; max resid(k); each band:
  6.18E-16 5.44E-15 3.66E-15 9.15E-15 1.64E-11
  -0.0833 -0.1667  0.1667    1  9.38605E-12 kpt; spin; max resid(k); each band:
  5.65E-16 4.77E-15 8.08E-15 1.13E-14 9.39E-12
  -0.3333 -0.0833  0.0000    1  1.01164E-08 kpt; spin; max resid(k); each band:
  9.54E-16 5.74E-15 9.58E-15 8.79E-15 1.01E-08
  -0.2500 -0.0833  0.0833    1  8.20041E-06 kpt; spin; max resid(k); each band:
  5.37E-16 6.44E-15 7.56E-15 1.05E-14 8.20E-06
  -0.1667 -0.0833  0.1667    1  1.19301E-08 kpt; spin; max resid(k); each band:
  8.34E-16 6.32E-15 9.19E-15 6.79E-15 1.19E-08
  -0.0833 -0.0833  0.2500    1  8.61277E-12 kpt; spin; max resid(k); each band:
  4.87E-16 6.48E-15 1.12E-14 4.92E-15 8.61E-12
  -0.0833  0.5000  0.0000    1  6.01406E-14 kpt; spin; max resid(k); each band:
  1.01E-15 1.69E-15 8.21E-15 1.38E-14 6.01E-14
  -0.1667 -0.4167  0.0000    1  1.75039E-14 kpt; spin; max resid(k); each band:
  1.15E-15 1.44E-15 1.09E-14 4.55E-15 1.75E-14
  -0.0833 -0.4167  0.0833    1  5.98567E-14 kpt; spin; max resid(k); each band:
  1.20E-15 1.51E-15 1.05E-14 3.40E-15 5.99E-14
  -0.2500 -0.3333  0.0000    1  3.98852E-14 kpt; spin; max resid(k); each band:
  9.95E-16 2.31E-15 1.09E-14 6.33E-15 3.99E-14
  -0.1667 -0.3333  0.0833    1  2.43599E-11 kpt; spin; max resid(k); each band:
  1.31E-15 1.34E-15 1.32E-14 4.57E-15 2.44E-11
  -0.0833 -0.3333  0.1667    1  1.44417E-07 kpt; spin; max resid(k); each band:
  4.89E-16 1.02E-15 1.17E-14 9.80E-15 1.44E-07
  -0.3333 -0.2500  0.0000    1  4.14269E-13 kpt; spin; max resid(k); each band:
  7.53E-16 4.38E-15 5.84E-15 8.63E-15 4.14E-13
  -0.2500 -0.2500  0.0833    1  8.63787E-14 kpt; spin; max resid(k); each band:
  6.06E-16 4.00E-15 4.48E-15 8.44E-15 8.64E-14
  -0.1667 -0.2500  0.1667    1  6.27405E-13 kpt; spin; max resid(k); each band:
  5.10E-16 4.56E-15 6.67E-15 1.10E-14 6.27E-13
  -0.0833 -0.2500  0.2500    1  3.83061E+00 kpt; spin; max resid(k); each band:
  4.08E-16 4.12E-15 8.29E-15 1.74E-14 3.83E+00
  -0.4167 -0.1667  0.0000    1  1.33761E-07 kpt; spin; max resid(k); each band:
  1.95E-15 4.92E-15 1.15E-14 1.36E-14 1.34E-07
  -0.3333 -0.1667  0.0833    1  1.76351E-09 kpt; spin; max resid(k); each band:
  1.32E-15 3.92E-15 8.52E-15 7.93E-15 1.76E-09
  -0.2500 -0.1667  0.1667    1  9.04313E-14 kpt; spin; max resid(k); each band:
  7.80E-16 4.09E-15 5.89E-15 6.39E-15 9.04E-14
  -0.1667 -0.1667  0.2500    1  4.35589E-09 kpt; spin; max resid(k); each band:
  6.28E-16 5.07E-15 3.30E-15 9.48E-15 4.36E-09
  -0.0833 -0.1667  0.3333    1  2.48151E-14 kpt; spin; max resid(k); each band:
  4.90E-16 5.53E-15 5.14E-15 2.48E-14-2.00E+00
   0.5000 -0.0833  0.0000    1  5.20655E-07 kpt; spin; max resid(k); each band:
  3.41E-15 1.74E-15 9.42E-15 2.00E-14 5.21E-07
  -0.4167 -0.0833  0.0833    1  1.83112E-02 kpt; spin; max resid(k); each band:
  2.03E-15 2.77E-15 1.09E-14 6.99E-15 1.83E-02
  -0.3333 -0.0833  0.1667    1  2.62192E-03 kpt; spin; max resid(k); each band:
  1.38E-15 3.64E-15 6.89E-15 1.10E-14 2.62E-03
  -0.2500 -0.0833  0.2500    1  1.75758E-08 kpt; spin; max resid(k); each band:
  7.83E-16 2.76E-15 7.80E-15 7.54E-15 1.76E-08
  -0.1667 -0.0833  0.3333    1  1.04906E-02 kpt; spin; max resid(k); each band:
  6.11E-16 3.06E-15 6.52E-15 6.26E-15 1.05E-02
  -0.0833 -0.0833  0.4167    1  1.48211E-01 kpt; spin; max resid(k); each band:
  4.80E-16 3.05E-15 3.31E-15 6.83E-15 1.48E-01
  -0.0833  0.3333  0.0000    1  9.57162E-15 kpt; spin; max resid(k); each band:
  1.38E-15 2.65E-15 9.57E-15 5.02E-15-2.00E+00
  -0.1667  0.4167  0.0000    1  4.49531E-14 kpt; spin; max resid(k); each band:
  1.02E-15 1.42E-15 9.38E-15 1.37E-14 4.50E-14
  -0.0833  0.4167  0.0833    1  6.63854E-01 kpt; spin; max resid(k); each band:
  1.17E-15 1.68E-15 1.10E-14 1.88E-15 6.64E-01
  -0.2500  0.5000  0.0000    1  1.35319E-14 kpt; spin; max resid(k); each band:
  1.11E-15 1.18E-15 1.17E-14 5.21E-15 1.35E-14
  -0.1667  0.5000  0.0833    1  5.77316E-14 kpt; spin; max resid(k); each band:
  1.07E-15 1.27E-15 1.31E-14 2.49E-15 5.77E-14
  -0.0833  0.5000  0.1667    1  6.32041E-13 kpt; spin; max resid(k); each band:
  1.03E-15 1.46E-15 1.13E-14 3.63E-15 6.32E-13
  -0.3333 -0.4167  0.0000    1  2.24618E-14 kpt; spin; max resid(k); each band:
  1.28E-15 3.21E-15 1.12E-14 6.87E-15 2.25E-14
  -0.2500 -0.4167  0.0833    1  9.16382E-13 kpt; spin; max resid(k); each band:
  1.34E-15 2.05E-15 1.60E-14 3.17E-15 9.16E-13
  -0.1667 -0.4167  0.1667    1  6.02545E-06 kpt; spin; max resid(k); each band:
  1.41E-15 8.67E-16 3.27E-15 3.81E-15 6.03E-06
  -0.0833 -0.4167  0.2500    1  3.48515E-13 kpt; spin; max resid(k); each band:
  1.24E-15 1.16E-15 8.01E-15 3.28E-15 3.49E-13
  -0.4167 -0.3333  0.0000    1  5.77534E-14 kpt; spin; max resid(k); each band:
  2.04E-15 2.71E-15 8.07E-15 8.74E-15 5.78E-14
  -0.3333 -0.3333  0.0833    1  3.53538E-14 kpt; spin; max resid(k); each band:
  9.90E-16 1.65E-15 4.08E-15 5.90E-15 3.54E-14
  -0.2500 -0.3333  0.1667    1  2.83383E-13 kpt; spin; max resid(k); each band:
  1.33E-15 1.23E-15 3.90E-15 5.58E-15 2.83E-13
  -0.1667 -0.3333  0.2500    1  5.36106E-15 kpt; spin; max resid(k); each band:
  1.75E-15 1.07E-15 3.76E-15 5.36E-15-2.00E+00
  -0.0833 -0.3333  0.3333    1  2.48571E-06 kpt; spin; max resid(k); each band:
  1.64E-15 1.05E-15 3.35E-15 4.35E-15 2.49E-06
   0.5000 -0.2500  0.0000    1  1.73397E-10 kpt; spin; max resid(k); each band:
  2.48E-15 2.87E-15 7.03E-15 1.20E-14 1.73E-10
 outwf : prtvol=0 or 1, do not print more k-points.

 FILE_OPEN completed. cpu:  0.00 [s] , wall:  0.00 [s] <<< TIME
 write_frmarkers completed. cpu:  0.14 [s] , wall:  0.14 [s] <<< TIME
 MY_KPT_BANDS part of WFK written to file. completed. cpu:  0.41 [s] , wall:  0.41 [s] <<< TIME

 Thirteen components of 2nd-order total energy (hartree) are
 1,2,3: 0th-order hamiltonian combined with 1st-order wavefunctions
     kin0=   7.74850846E+01 eigvalue=  -2.41242796E+00  local=  -4.94935701E+01
 4,5,6: 1st-order hamiltonian combined with 1st and 0th-order wfs
 loc psp =  -7.97205260E+01  Hartree=   3.61322035E+01     xc=  -6.41805135E+00
 note that "loc psp" includes a xc core correction that could be resolved
 7,8,9: eventually, occupation + non-local contributions
    edocc=   2.70236764E+00     enl0=   4.13370142E+01   enl1=  -1.18944717E+02
 1-9 gives the relaxation energy (to be shifted if some occ is /=2.0)
   erelax=  -9.93326226E+01
 10,11,12 Non-relaxation  contributions : frozen-wavefunctions and Ewald
 fr.local=   5.39441845E+00 fr.nonlo=   6.73911403E+01  Ewald=   3.60451240E+01
 dfpt_prtene : non-relax=    1.088307E+02
 13,14 Frozen wf xc core corrections (1) and (2)
 frxc 1  =  -7.04808798E+00  frxc 2 =   5.14436518E+00
 Resulting in :
 2DEtotal=    0.7594337309E+01 Ha. Also 2DEtotal=    0.206652427671E+03 eV
    (2DErelax=   -9.9332622632E+01 Ha. 2DEnonrelax=    1.0692695994E+02 Ha)
    (  non-var. 2DEtotal :    7.5943383602E+00 Ha)


--------------------------------------------------------------------------------
 Perturbation wavevector (in red.coord.)   0.500000  0.166667  0.000000
 Perturbation : displacement of atom   1   along direction   2
 littlegroup_pert: only one element in the set of symmetries for this perturbation:
   1   0   0   0   1   0   0   0   1
 symatm: atom number 1 is reached starting at atom
   1
 symatm: atom number 2 is reached starting at atom
   2
 symkpt : not enough symmetry to change the number of k points.
 getmpw: optimal value of mpw= 405
 Memory required for psi0_k, psi0_kq psi1_kq: 20.0 [Mb] <<< MEM
 getmpw: optimal value of mpw= 405
 Initialisation of the first-order wave-functions :
  ireadwf=   0
 Initializing rhor1 from valence densities taken from pseudopotential files

 getcut: wavevector=  0.0000  0.0000  0.0000  ngfft=  24  24  24
         ecut(hartree)=     10.000   => boxcut(ratio)=   2.33905

 getcut : COMMENT -
  Note that boxcut > 2.2 ; recall that boxcut=Gcut(box)/Gcut(sphere) = 2
  is sufficient for exact treatment of convolution.
  Such a large boxcut is a waste : you could raise ecut
  e.g. ecut=   13.677837 Hartrees makes boxcut=2


 ITER STEP NUMBER     1
-ETOT  1   7.4667037976726     -8.214E+01 2.266E+01 6.878E+02

 Simple mixing update:
  residual square of the potential:    146.13417067551515
 dfpt_scfcv: previous iteration took  5.69 [s]

 ITER STEP NUMBER     2
DFPT_CGWF WARNING : d2edt2 is zero, skipping update
 ETOT  2   7.0191306668387     -4.476E-01 3.305E+00 1.549E+01

 Pulay update with  1 previous iterations:
 mixing of old trial potential: alpha(m:m-4)=  0.894      0.106
 dfpt_scfcv: previous iteration took  5.95 [s]

 ITER STEP NUMBER     3
 ETOT  3   7.0091981558479     -9.933E-03 6.162E+00 9.337E-01

 Pulay update with  2 previous iterations:
 mixing of old trial potential: alpha(m:m-4)=  0.904      0.102     -0.552E-02
 dfpt_scfcv: previous iteration took  5.73 [s]

 ITER STEP NUMBER     4
 ETOT  4   7.0087952795333     -4.029E-04 2.130E+01 4.790E-02

 Pulay update with  3 previous iterations:
 mixing of old trial potential: alpha(m:m-4)=  0.959      0.868E-01 -0.378E-01 -0.840E-02
 dfpt_scfcv: previous iteration took  5.90 [s]

 ITER STEP NUMBER     5
 ETOT  5   7.0087742450821     -2.103E-05 3.308E+00 6.984E-04

 Pulay update with  4 previous iterations:
 mixing of old trial potential: alpha(m:m-4)=   1.15     -0.110     -0.398E-01  0.155E-02  0.107E-02
 dfpt_scfcv: previous iteration took  5.84 [s]

 ITER STEP NUMBER     6
 ETOT  6   7.0087739950378     -2.500E-07 4.043E+00 2.775E-05

 Pulay update with  5 previous iterations:
 mixing of old trial potential: alpha(m:m-4)=   1.04     -0.206E-01 -0.237E-01 -0.708E-03  0.912E-03
 dfpt_scfcv: previous iteration took  5.82 [s]

 ITER STEP NUMBER     7
 ETOT  7   7.0087739852143     -9.823E-09 2.126E+01 3.812E-07

 Pulay update with  6 previous iterations:
 mixing of old trial potential: alpha(m:m-4)=   1.15     -0.126     -0.307E-01  0.524E-02  0.123E-02
 dfpt_scfcv: previous iteration took  5.69 [s]

 ITER STEP NUMBER     8
 ETOT  8   7.0087739850462     -1.682E-10 3.466E+00 2.234E-08

 Pulay update with  7 previous iterations:
 mixing of old trial potential: alpha(m:m-4)=  0.958      0.771E-01 -0.350E-01 -0.997E-03  0.836E-03
 dfpt_scfcv: previous iteration took  5.59 [s]

 ITER STEP NUMBER     9
 ETOT  9   7.0087739850369     -9.237E-12 2.125E+00 1.349E-09

 At SCF step    9       vres2   =  1.35E-09 < tolvrs=  1.00E-08 =>converged.

 fftdatar_write: About to write data to: /home/felix/Workspace/abisuite/abisuite/unittests/test_workflows/test_files/abinit_si/nc/phonon_dispersion_noddk/phonons_runs/ph_q7/run/output_data/odat_ph_q7_DEN2 with iomode: IO_MODE_FORTRAN
 IO operation completed. cpu:  0.00 [s] , wall:  0.00 [s] <<< TIME

 fftdatar_write: About to write data to: /home/felix/Workspace/abisuite/abisuite/unittests/test_workflows/test_files/abinit_si/nc/phonon_dispersion_noddk/phonons_runs/ph_q7/run/output_data/odat_ph_q7_POT2 with iomode: IO_MODE_FORTRAN
 IO operation completed. cpu:  0.00 [s] , wall:  0.00 [s] <<< TIME
================================================================================

 ----iterations are completed or convergence reached----

 Mean square residual over all n,k,spin=  -14.440E-03; max=  21.253E-01
  -0.0833 -0.1667  0.0000    1  1.05318E-09 kpt; spin; max resid(k); each band:
  3.74E-16 3.11E-15 5.02E-15 7.15E-15 1.05E-09
  -0.1667 -0.0833  0.0000    1  6.76770E-09 kpt; spin; max resid(k); each band:
  5.49E-16 5.68E-15 5.50E-15 7.36E-15 6.77E-09
  -0.0833 -0.0833  0.0833    1  2.57260E-10 kpt; spin; max resid(k); each band:
  3.71E-16 6.12E-15 4.23E-15 3.80E-15 2.57E-10
  -0.0833 -0.3333  0.0000    1  1.17697E-12 kpt; spin; max resid(k); each band:
  5.73E-16 1.77E-15 3.41E-15 9.14E-15 1.18E-12
  -0.1667 -0.2500  0.0000    1  1.60432E-12 kpt; spin; max resid(k); each band:
  4.29E-16 1.80E-15 7.66E-15 5.46E-15 1.60E-12
  -0.0833 -0.2500  0.0833    1  3.33830E-06 kpt; spin; max resid(k); each band:
  3.07E-16 1.54E-15 8.69E-15 4.32E-15 3.34E-06
  -0.2500 -0.1667  0.0000    1  1.26340E-12 kpt; spin; max resid(k); each band:
  4.29E-16 4.63E-15 5.11E-15 6.99E-15 1.26E-12
  -0.1667 -0.1667  0.0833    1  4.53280E-12 kpt; spin; max resid(k); each band:
  5.92E-16 4.69E-15 3.89E-15 5.16E-15 4.53E-12
  -0.0833 -0.1667  0.1667    1  3.36845E-12 kpt; spin; max resid(k); each band:
  4.07E-16 4.96E-15 4.56E-15 5.67E-15 3.37E-12
  -0.3333 -0.0833  0.0000    1  8.01405E-09 kpt; spin; max resid(k); each band:
  4.08E-16 5.26E-15 8.70E-15 8.78E-15 8.01E-09
  -0.2500 -0.0833  0.0833    1  4.20331E-06 kpt; spin; max resid(k); each band:
  4.00E-16 5.80E-15 8.26E-15 6.30E-15 4.20E-06
  -0.1667 -0.0833  0.1667    1  8.83000E-09 kpt; spin; max resid(k); each band:
  3.79E-16 4.88E-15 5.42E-15 3.43E-15 8.83E-09
  -0.0833 -0.0833  0.2500    1  7.87914E-12 kpt; spin; max resid(k); each band:
  3.24E-16 5.22E-15 5.41E-15 2.98E-15 7.88E-12
  -0.0833  0.5000  0.0000    1  2.32976E-14 kpt; spin; max resid(k); each band:
  3.47E-16 1.67E-15 8.25E-15 2.54E-15 2.33E-14
  -0.1667 -0.4167  0.0000    1  1.14351E-14 kpt; spin; max resid(k); each band:
  4.35E-16 1.23E-15 8.91E-15 3.99E-15 1.14E-14
  -0.0833 -0.4167  0.0833    1  2.14543E-14 kpt; spin; max resid(k); each band:
  4.37E-16 1.43E-15 9.11E-15 3.19E-15 2.15E-14
  -0.2500 -0.3333  0.0000    1  2.37083E-14 kpt; spin; max resid(k); each band:
  4.40E-16 2.01E-15 7.90E-15 5.76E-15 2.37E-14
  -0.1667 -0.3333  0.0833    1  1.44118E-11 kpt; spin; max resid(k); each band:
  5.05E-16 1.45E-15 1.06E-14 3.65E-15 1.44E-11
  -0.0833 -0.3333  0.1667    1  6.35043E-08 kpt; spin; max resid(k); each band:
  4.13E-16 1.90E-15 8.56E-15 5.27E-15 6.35E-08
  -0.3333 -0.2500  0.0000    1  1.88811E-13 kpt; spin; max resid(k); each band:
  5.57E-16 3.79E-15 4.72E-15 7.91E-15 1.89E-13
  -0.2500 -0.2500  0.0833    1  8.84912E-14 kpt; spin; max resid(k); each band:
  5.36E-16 3.12E-15 4.69E-15 5.02E-15 8.85E-14
  -0.1667 -0.2500  0.1667    1  1.41475E-12 kpt; spin; max resid(k); each band:
  4.24E-16 4.03E-15 4.66E-15 5.60E-15 1.41E-12
  -0.0833 -0.2500  0.2500    1  7.66505E-01 kpt; spin; max resid(k); each band:
  3.28E-16 4.27E-15 4.99E-15 7.37E-15 7.67E-01
  -0.4167 -0.1667  0.0000    1  6.84069E-09 kpt; spin; max resid(k); each band:
  1.10E-15 4.70E-15 8.96E-15 1.09E-14 6.84E-09
  -0.3333 -0.1667  0.0833    1  3.37853E-10 kpt; spin; max resid(k); each band:
  4.80E-16 3.64E-15 4.88E-15 5.41E-15 3.38E-10
  -0.2500 -0.1667  0.1667    1  2.76405E-13 kpt; spin; max resid(k); each band:
  3.98E-16 2.97E-15 4.64E-15 4.39E-15 2.76E-13
  -0.1667 -0.1667  0.2500    1  2.32149E-08 kpt; spin; max resid(k); each band:
  2.30E-16 3.62E-15 2.69E-15 5.44E-15 2.32E-08
  -0.0833 -0.1667  0.3333    1  2.77757E-01 kpt; spin; max resid(k); each band:
  2.31E-16 4.09E-15 2.83E-15 7.58E-15 2.78E-01
   0.5000 -0.0833  0.0000    1  3.16764E-07 kpt; spin; max resid(k); each band:
  2.45E-15 1.45E-15 6.98E-15 1.44E-14 3.17E-07
  -0.4167 -0.0833  0.0833    1  1.40092E-02 kpt; spin; max resid(k); each band:
  1.68E-15 2.07E-15 9.55E-15 7.32E-15 1.40E-02
  -0.3333 -0.0833  0.1667    1  1.98403E-03 kpt; spin; max resid(k); each band:
  6.62E-16 2.96E-15 4.38E-15 6.26E-15 1.98E-03
  -0.2500 -0.0833  0.2500    1  4.68568E-09 kpt; spin; max resid(k); each band:
  4.05E-16 2.02E-15 5.40E-15 5.37E-15 4.69E-09
  -0.1667 -0.0833  0.3333    1  1.04929E-02 kpt; spin; max resid(k); each band:
  2.54E-16 2.01E-15 5.09E-15 4.46E-15 1.05E-02
  -0.0833 -0.0833  0.4167    1  2.83008E-01 kpt; spin; max resid(k); each band:
  1.88E-16 1.87E-15 3.04E-15 6.62E-15 2.83E-01
  -0.0833  0.3333  0.0000    1  8.23847E-15 kpt; spin; max resid(k); each band:
  5.90E-16 2.37E-15 8.24E-15 5.31E-15-2.00E+00
  -0.1667  0.4167  0.0000    1  1.53885E-14 kpt; spin; max resid(k); each band:
  4.35E-16 1.21E-15 7.96E-15 3.00E-15 1.54E-14
  -0.0833  0.4167  0.0833    1  1.76097E+00 kpt; spin; max resid(k); each band:
  6.60E-16 1.46E-15 9.54E-15 2.53E-15 1.76E+00
  -0.2500  0.5000  0.0000    1  1.36622E-14 kpt; spin; max resid(k); each band:
  3.79E-16 1.10E-15 8.44E-15 4.87E-15 1.37E-14
  -0.1667  0.5000  0.0833    1  2.16445E-14 kpt; spin; max resid(k); each band:
  3.73E-16 1.18E-15 9.90E-15 3.11E-15 2.16E-14
  -0.0833  0.5000  0.1667    1  3.35153E-13 kpt; spin; max resid(k); each band:
  4.38E-16 1.32E-15 9.45E-15 3.39E-15 3.35E-13
  -0.3333 -0.4167  0.0000    1  1.91216E-14 kpt; spin; max resid(k); each band:
  4.39E-16 2.61E-15 6.58E-15 6.52E-15 1.91E-14
  -0.2500 -0.4167  0.0833    1  1.37379E-13 kpt; spin; max resid(k); each band:
  4.48E-16 2.04E-15 1.02E-14 4.07E-15 1.37E-13
  -0.1667 -0.4167  0.1667    1  3.57068E-06 kpt; spin; max resid(k); each band:
  8.10E-16 8.64E-16 3.44E-15 3.36E-15 3.57E-06
  -0.0833 -0.4167  0.2500    1  4.59170E-14 kpt; spin; max resid(k); each band:
  7.28E-16 1.07E-15 2.83E-15 3.56E-15 4.59E-14
  -0.4167 -0.3333  0.0000    1  2.94286E-14 kpt; spin; max resid(k); each band:
  7.95E-16 2.28E-15 5.08E-15 7.86E-15 2.94E-14
  -0.3333 -0.3333  0.0833    1  4.88390E-14 kpt; spin; max resid(k); each band:
  6.07E-16 1.44E-15 3.47E-15 4.25E-15 4.88E-14
  -0.2500 -0.3333  0.1667    1  9.46345E-14 kpt; spin; max resid(k); each band:
  6.38E-16 1.01E-15 2.48E-15 4.75E-15 9.46E-14
  -0.1667 -0.3333  0.2500    1  4.62320E-15 kpt; spin; max resid(k); each band:
  7.45E-16 7.87E-16 2.70E-15 4.62E-15-1.00E+00
  -0.0833 -0.3333  0.3333    1  1.41287E-06 kpt; spin; max resid(k); each band:
  7.28E-16 8.07E-16 3.05E-15 4.30E-15 1.41E-06
   0.5000 -0.2500  0.0000    1  7.22206E-11 kpt; spin; max resid(k); each band:
  2.26E-15 2.24E-15 5.27E-15 9.56E-15 7.22E-11
 outwf : prtvol=0 or 1, do not print more k-points.

 FILE_OPEN completed. cpu:  0.00 [s] , wall:  0.00 [s] <<< TIME
 write_frmarkers completed. cpu:  0.14 [s] , wall:  0.14 [s] <<< TIME
 MY_KPT_BANDS part of WFK written to file. completed. cpu:  0.39 [s] , wall:  0.39 [s] <<< TIME

 Thirteen components of 2nd-order total energy (hartree) are
 1,2,3: 0th-order hamiltonian combined with 1st-order wavefunctions
     kin0=   7.60033290E+01 eigvalue=  -2.10557806E+00  local=  -4.86612051E+01
 4,5,6: 1st-order hamiltonian combined with 1st and 0th-order wfs
 loc psp =  -4.58240951E+01  Hartree=   1.99190260E+01     xc=  -6.15384323E+00
 note that "loc psp" includes a xc core correction that could be resolved
 7,8,9: eventually, occupation + non-local contributions
    edocc=   2.51868740E+00     enl0=   4.10786320E+01   enl1=  -1.19374002E+02
 1-9 gives the relaxation energy (to be shifted if some occ is /=2.0)
   erelax=  -8.25990490E+01
 10,11,12 Non-relaxation  contributions : frozen-wavefunctions and Ewald
 fr.local=   5.39441845E+00 fr.nonlo=   6.73911403E+01  Ewald=   1.87259870E+01
 dfpt_prtene : non-relax=    9.151155E+01
 13,14 Frozen wf xc core corrections (1) and (2)
 frxc 1  =  -7.04808798E+00  frxc 2 =   5.14436518E+00
 Resulting in :
 2DEtotal=    0.7008773985E+01 Ha. Also 2DEtotal=    0.190718439295E+03 eV
    (2DErelax=   -8.2599048994E+01 Ha. 2DEnonrelax=    8.9607822979E+01 Ha)
    (  non-var. 2DEtotal :    7.0087744937E+00 Ha)


--------------------------------------------------------------------------------
 Perturbation wavevector (in red.coord.)   0.500000  0.166667  0.000000
 Perturbation : displacement of atom   1   along direction   3
 littlegroup_pert: only one element in the set of symmetries for this perturbation:
   1   0   0   0   1   0   0   0   1
 symatm: atom number 1 is reached starting at atom
   1
 symatm: atom number 2 is reached starting at atom
   2
 symkpt : not enough symmetry to change the number of k points.
 getmpw: optimal value of mpw= 405
 Memory required for psi0_k, psi0_kq psi1_kq: 20.0 [Mb] <<< MEM
 getmpw: optimal value of mpw= 405
 Initialisation of the first-order wave-functions :
  ireadwf=   0
 Initializing rhor1 from valence densities taken from pseudopotential files

 getcut: wavevector=  0.0000  0.0000  0.0000  ngfft=  24  24  24
         ecut(hartree)=     10.000   => boxcut(ratio)=   2.33905

 getcut : COMMENT -
  Note that boxcut > 2.2 ; recall that boxcut=Gcut(box)/Gcut(sphere) = 2
  is sufficient for exact treatment of convolution.
  Such a large boxcut is a waste : you could raise ecut
  e.g. ecut=   13.677837 Hartrees makes boxcut=2


 ITER STEP NUMBER     1
-ETOT  1   7.0329406479766     -7.991E+01 5.646E+00 3.689E+02

 Simple mixing update:
  residual square of the potential:    125.66751579777851
 dfpt_scfcv: previous iteration took  5.50 [s]

 ITER STEP NUMBER     2
DFPT_CGWF WARNING : d2edt2 is zero, skipping update
 ETOT  2   6.6628267498281     -3.701E-01 1.485E+00 3.519E+00

 Pulay update with  1 previous iterations:
 mixing of old trial potential: alpha(m:m-4)=  0.923      0.773E-01
 dfpt_scfcv: previous iteration took  5.69 [s]

 ITER STEP NUMBER     3
 ETOT  3   6.6587861504836     -4.041E-03 6.405E+00 1.083E-01

 Pulay update with  2 previous iterations:
 mixing of old trial potential: alpha(m:m-4)=   1.13     -0.108     -0.239E-01
 dfpt_scfcv: previous iteration took  5.25 [s]

 ITER STEP NUMBER     4
 ETOT  4   6.6587138858446     -7.226E-05 1.120E+00 7.061E-04

 Pulay update with  3 previous iterations:
 mixing of old trial potential: alpha(m:m-4)=   1.21     -0.222      0.123E-01  0.415E-02
 dfpt_scfcv: previous iteration took  5.53 [s]

 ITER STEP NUMBER     5
 ETOT  5   6.6587134684070     -4.174E-07 3.472E+00 2.176E-05

 Pulay update with  4 previous iterations:
 mixing of old trial potential: alpha(m:m-4)=   1.03     -0.216E-01 -0.821E-02  0.659E-03 -0.181E-04
 dfpt_scfcv: previous iteration took  4.96 [s]

 ITER STEP NUMBER     6
 ETOT  6   6.6587134518996     -1.651E-08 4.059E+00 2.826E-07

 Pulay update with  5 previous iterations:
 mixing of old trial potential: alpha(m:m-4)=   1.16     -0.145     -0.206E-01  0.512E-02 -0.265E-03
 dfpt_scfcv: previous iteration took  4.91 [s]

 ITER STEP NUMBER     7
 ETOT  7   6.6587134517522     -1.474E-10 3.664E+00 1.107E-08

 Pulay update with  6 previous iterations:
 mixing of old trial potential: alpha(m:m-4)=  0.987      0.271E-01 -0.133E-01 -0.993E-03  0.333E-03
 dfpt_scfcv: previous iteration took  4.93 [s]

 ITER STEP NUMBER     8
 ETOT  8   6.6587134517465     -5.699E-12 2.642E+00 1.251E-09

 At SCF step    8       vres2   =  1.25E-09 < tolvrs=  1.00E-08 =>converged.

 fftdatar_write: About to write data to: /home/felix/Workspace/abisuite/abisuite/unittests/test_workflows/test_files/abinit_si/nc/phonon_dispersion_noddk/phonons_runs/ph_q7/run/output_data/odat_ph_q7_DEN3 with iomode: IO_MODE_FORTRAN
 IO operation completed. cpu:  0.00 [s] , wall:  0.00 [s] <<< TIME

 fftdatar_write: About to write data to: /home/felix/Workspace/abisuite/abisuite/unittests/test_workflows/test_files/abinit_si/nc/phonon_dispersion_noddk/phonons_runs/ph_q7/run/output_data/odat_ph_q7_POT3 with iomode: IO_MODE_FORTRAN
 IO operation completed. cpu:  0.00 [s] , wall:  0.00 [s] <<< TIME
================================================================================

 ----iterations are completed or convergence reached----

 Mean square residual over all n,k,spin=  -11.003E-03; max=  26.415E-01
  -0.0833 -0.1667  0.0000    1  3.94986E-10 kpt; spin; max resid(k); each band:
  4.26E-16 2.26E-15 4.50E-15 3.16E-15 3.95E-10
  -0.1667 -0.0833  0.0000    1  3.46645E-13 kpt; spin; max resid(k); each band:
  3.30E-16 3.80E-15 6.04E-15 5.25E-15 3.47E-13
  -0.0833 -0.0833  0.0833    1  3.34923E-12 kpt; spin; max resid(k); each band:
  4.92E-16 4.18E-15 4.02E-15 2.18E-15 3.35E-12
  -0.0833 -0.3333  0.0000    1  2.24714E-14 kpt; spin; max resid(k); each band:
  5.71E-16 8.61E-16 2.09E-15 4.09E-15 2.25E-14
  -0.1667 -0.2500  0.0000    1  1.64821E-12 kpt; spin; max resid(k); each band:
  3.14E-16 1.33E-15 3.80E-15 3.90E-15 1.65E-12
  -0.0833 -0.2500  0.0833    1  3.33204E-06 kpt; spin; max resid(k); each band:
  2.14E-16 8.32E-16 3.83E-15 3.15E-15 3.33E-06
  -0.2500 -0.1667  0.0000    1  6.77472E-13 kpt; spin; max resid(k); each band:
  2.97E-16 3.14E-15 4.49E-15 4.84E-15 6.77E-13
  -0.1667 -0.1667  0.0833    1  8.84518E-13 kpt; spin; max resid(k); each band:
  3.36E-16 3.32E-15 1.62E-15 4.32E-15 8.85E-13
  -0.0833 -0.1667  0.1667    1  1.54592E-11 kpt; spin; max resid(k); each band:
  2.84E-16 3.16E-15 1.69E-15 5.52E-15 1.55E-11
  -0.3333 -0.0833  0.0000    1  2.66708E-11 kpt; spin; max resid(k); each band:
  7.41E-16 3.38E-15 7.65E-15 4.42E-15 2.67E-11
  -0.2500 -0.0833  0.0833    1  6.00273E-07 kpt; spin; max resid(k); each band:
  6.15E-16 4.37E-15 2.71E-15 6.34E-15 6.00E-07
  -0.1667 -0.0833  0.1667    1  8.50601E-08 kpt; spin; max resid(k); each band:
  3.69E-16 3.98E-15 3.46E-15 3.25E-15 8.51E-08
  -0.0833 -0.0833  0.2500    1  6.83623E-13 kpt; spin; max resid(k); each band:
  3.44E-16 3.67E-15 4.88E-15 3.11E-15 6.84E-13
  -0.0833  0.5000  0.0000    1  4.10505E-15 kpt; spin; max resid(k); each band:
  6.23E-16 8.57E-16 4.11E-15 1.51E-15 2.43E-15
  -0.1667 -0.4167  0.0000    1  5.20887E-15 kpt; spin; max resid(k); each band:
  6.73E-16 7.12E-16 4.22E-15 2.49E-15 5.21E-15
  -0.0833 -0.4167  0.0833    1  3.57912E-14 kpt; spin; max resid(k); each band:
  5.75E-16 9.08E-16 3.94E-15 2.01E-15 3.58E-14
  -0.2500 -0.3333  0.0000    1  8.75858E-15 kpt; spin; max resid(k); each band:
  4.77E-16 1.40E-15 3.88E-15 3.77E-15 8.76E-15
  -0.1667 -0.3333  0.0833    1  4.08235E-11 kpt; spin; max resid(k); each band:
  6.48E-16 1.00E-15 4.15E-15 2.46E-15 4.08E-11
  -0.0833 -0.3333  0.1667    1  3.87873E-07 kpt; spin; max resid(k); each band:
  3.25E-16 1.35E-15 4.08E-15 4.20E-15 3.88E-07
  -0.3333 -0.2500  0.0000    1  6.94791E-13 kpt; spin; max resid(k); each band:
  5.01E-16 2.35E-15 3.76E-15 5.20E-15 6.95E-13
  -0.2500 -0.2500  0.0833    1  7.49152E-14 kpt; spin; max resid(k); each band:
  2.86E-16 2.06E-15 2.22E-15 3.75E-15 7.49E-14
  -0.1667 -0.2500  0.1667    1  2.36868E-12 kpt; spin; max resid(k); each band:
  2.96E-16 2.63E-15 1.90E-15 4.24E-15 2.37E-12
  -0.0833 -0.2500  0.2500    1  2.97396E-01 kpt; spin; max resid(k); each band:
  3.12E-16 2.61E-15 1.53E-15 5.78E-15 2.97E-01
  -0.4167 -0.1667  0.0000    1  7.94116E-09 kpt; spin; max resid(k); each band:
  1.23E-15 2.59E-15 5.11E-15 7.71E-15 7.94E-09
  -0.3333 -0.1667  0.0833    1  1.02312E-09 kpt; spin; max resid(k); each band:
  5.01E-16 2.34E-15 2.47E-15 4.98E-15 1.02E-09
  -0.2500 -0.1667  0.1667    1  7.51746E-13 kpt; spin; max resid(k); each band:
  4.48E-16 2.32E-15 2.34E-15 4.20E-15 7.52E-13
  -0.1667 -0.1667  0.2500    1  5.56980E-10 kpt; spin; max resid(k); each band:
  3.30E-16 2.46E-15 1.65E-15 4.90E-15 5.57E-10
  -0.0833 -0.1667  0.3333    1  8.00745E-15 kpt; spin; max resid(k); each band:
  3.04E-16 2.60E-15 1.16E-15 8.01E-15-2.00E+00
   0.5000 -0.0833  0.0000    1  1.09146E-09 kpt; spin; max resid(k); each band:
  1.30E-15 1.04E-15 3.45E-15 1.18E-14 1.09E-09
  -0.4167 -0.0833  0.0833    1  1.38634E-02 kpt; spin; max resid(k); each band:
  1.23E-15 1.07E-15 3.19E-15 5.80E-15 1.39E-02
  -0.3333 -0.0833  0.1667    1  5.42147E-04 kpt; spin; max resid(k); each band:
  7.96E-16 1.85E-15 1.77E-15 6.22E-15 5.42E-04
  -0.2500 -0.0833  0.2500    1  9.57205E-09 kpt; spin; max resid(k); each band:
  5.22E-16 1.73E-15 2.40E-15 4.68E-15 9.57E-09
  -0.1667 -0.0833  0.3333    1  5.42343E-03 kpt; spin; max resid(k); each band:
  3.71E-16 1.84E-15 2.51E-15 4.34E-15 5.42E-03
  -0.0833 -0.0833  0.4167    1  8.50724E-01 kpt; spin; max resid(k); each band:
  3.29E-16 1.26E-15 1.72E-15 4.65E-15 8.51E-01
  -0.0833  0.3333  0.0000    1  5.60852E-08 kpt; spin; max resid(k); each band:
  5.24E-16 1.36E-15 3.68E-15 2.77E-15 5.61E-08
  -0.1667  0.4167  0.0000    1  3.96336E-15 kpt; spin; max resid(k); each band:
  5.41E-16 1.08E-15 3.96E-15 2.17E-15 3.61E-15
  -0.0833  0.4167  0.0833    1  2.31237E-01 kpt; spin; max resid(k); each band:
  5.38E-16 1.04E-15 4.60E-15 1.18E-15 2.31E-01
  -0.2500  0.5000  0.0000    1  7.48765E-15 kpt; spin; max resid(k); each band:
  6.35E-16 7.34E-16 3.92E-15 3.17E-15 7.49E-15
  -0.1667  0.5000  0.0833    1  1.00196E-14 kpt; spin; max resid(k); each band:
  3.30E-16 9.25E-16 4.39E-15 1.59E-15 1.00E-14
  -0.0833  0.5000  0.1667    1  3.14182E-13 kpt; spin; max resid(k); each band:
  3.89E-16 1.08E-15 4.01E-15 1.83E-15 3.14E-13
  -0.3333 -0.4167  0.0000    1  1.72243E-14 kpt; spin; max resid(k); each band:
  6.42E-16 1.63E-15 3.53E-15 4.29E-15 1.72E-14
  -0.2500 -0.4167  0.0833    1  3.10396E-13 kpt; spin; max resid(k); each band:
  4.03E-16 1.32E-15 4.41E-15 2.08E-15 3.10E-13
  -0.1667 -0.4167  0.1667    1  8.39903E-06 kpt; spin; max resid(k); each band:
  5.10E-16 7.02E-16 1.54E-15 1.98E-15 8.40E-06
  -0.0833 -0.4167  0.2500    1  2.62921E-13 kpt; spin; max resid(k); each band:
  7.91E-16 7.36E-16 1.49E-15 2.17E-15 2.63E-13
  -0.4167 -0.3333  0.0000    1  1.04829E-14 kpt; spin; max resid(k); each band:
  1.00E-15 1.41E-15 4.24E-15 5.25E-15 1.05E-14
  -0.3333 -0.3333  0.0833    1  1.76819E-14 kpt; spin; max resid(k); each band:
  3.24E-16 1.19E-15 2.11E-15 2.86E-15 1.77E-14
  -0.2500 -0.3333  0.1667    1  1.94640E-13 kpt; spin; max resid(k); each band:
  5.05E-16 1.02E-15 1.44E-15 2.46E-15 1.95E-13
  -0.1667 -0.3333  0.2500    1  2.36590E-15 kpt; spin; max resid(k); each band:
  6.31E-16 9.08E-16 1.12E-15 2.37E-15-2.00E+00
  -0.0833 -0.3333  0.3333    1  4.23188E-07 kpt; spin; max resid(k); each band:
  7.20E-16 8.07E-16 1.19E-15 2.40E-15 4.23E-07
   0.5000 -0.2500  0.0000    1  6.65103E-11 kpt; spin; max resid(k); each band:
  2.51E-15 1.32E-15 3.65E-15 6.91E-15 6.65E-11
 outwf : prtvol=0 or 1, do not print more k-points.

 FILE_OPEN completed. cpu:  0.00 [s] , wall:  0.00 [s] <<< TIME
 write_frmarkers completed. cpu:  0.13 [s] , wall:  0.13 [s] <<< TIME
 MY_KPT_BANDS part of WFK written to file. completed. cpu:  0.35 [s] , wall:  0.35 [s] <<< TIME

 Thirteen components of 2nd-order total energy (hartree) are
 1,2,3: 0th-order hamiltonian combined with 1st-order wavefunctions
     kin0=   7.58386695E+01 eigvalue=  -2.06449076E+00  local=  -4.83442451E+01
 4,5,6: 1st-order hamiltonian combined with 1st and 0th-order wfs
 loc psp =  -4.13485163E+01  Hartree=   1.77270937E+01     xc=  -6.20925418E+00
 note that "loc psp" includes a xc core correction that could be resolved
 7,8,9: eventually, occupation + non-local contributions
    edocc=   2.56526785E+00     enl0=   4.07761305E+01   enl1=  -1.19229827E+02
 1-9 gives the relaxation energy (to be shifted if some occ is /=2.0)
   erelax=  -8.02891717E+01
 10,11,12 Non-relaxation  contributions : frozen-wavefunctions and Ewald
 fr.local=   5.39441845E+00 fr.nonlo=   6.73911403E+01  Ewald=   1.60660491E+01
 dfpt_prtene : non-relax=    8.885161E+01
 13,14 Frozen wf xc core corrections (1) and (2)
 frxc 1  =  -7.04808798E+00  frxc 2 =   5.14436518E+00
 Resulting in :
 2DEtotal=    0.6658713452E+01 Ha. Also 2DEtotal=    0.181192807749E+03 eV
    (2DErelax=   -8.0289171656E+01 Ha. 2DEnonrelax=    8.6947885108E+01 Ha)
    (  non-var. 2DEtotal :    6.6587135345E+00 Ha)

================================================================================

 ---- first-order wavefunction calculations are completed ----


 ==> Compute Derivative Database <==
- Creating HDf5 file with MPI-IO support: /home/felix/Workspace/abisuite/abisuite/unittests/test_workflows/test_files/abinit_si/nc/phonon_dispersion_noddk/phonons_runs/ph_q7/run/output_data/odat_ph_q7_DDB.nc
 
 phonon wavelength (reduced coordinates) , norm, and energies in hartree
  0.50 0.17 0.00 1.00
  5.736039060E-04  7.763032594E-04  1.479681220E-03  1.874233827E-03  2.162825244E-03
  2.208278563E-03

 Zero Point Motion energy (sum of freqs/2)=  4.537463009E-03

== END DATASET(S) ==============================================================
================================================================================
  
 -outvars: echo values of variables after computation  --------
 
 These variables are accessible in NetCDF format (/home/felix/Workspace/abisuite/abisuite/unittests/test_workflows/test_files/abinit_si/nc/phonon_dispersion_noddk/phonons_runs/ph_q7/run/output_data/odat_ph_q7_OUT.nc)

            acell      7.2078778121E+00  7.2078778121E+00  7.2078778121E+00 Bohr
              amu      2.80855000E+01
           diemac      1.20000000E+01
             ecut      1.00000000E+01 Hartree
           etotal      6.6587134517E+00
            fcart      0.0000000000E+00  0.0000000000E+00  0.0000000000E+00
                       0.0000000000E+00  0.0000000000E+00  0.0000000000E+00
-          fftalg         112
           irdwfk           1
              ixc       -1012
              kpt     -8.33333333E-02 -1.66666667E-01  0.00000000E+00
                      -1.66666667E-01 -8.33333333E-02  0.00000000E+00
                      -8.33333333E-02 -8.33333333E-02  8.33333333E-02
                      -8.33333333E-02 -3.33333333E-01  0.00000000E+00
                      -1.66666667E-01 -2.50000000E-01  0.00000000E+00
                      -8.33333333E-02 -2.50000000E-01  8.33333333E-02
                      -2.50000000E-01 -1.66666667E-01  0.00000000E+00
                      -1.66666667E-01 -1.66666667E-01  8.33333333E-02
                      -8.33333333E-02 -1.66666667E-01  1.66666667E-01
                      -3.33333333E-01 -8.33333333E-02  0.00000000E+00
                      -2.50000000E-01 -8.33333333E-02  8.33333333E-02
                      -1.66666667E-01 -8.33333333E-02  1.66666667E-01
                      -8.33333333E-02 -8.33333333E-02  2.50000000E-01
                      -8.33333333E-02  5.00000000E-01  0.00000000E+00
                      -1.66666667E-01 -4.16666667E-01  0.00000000E+00
                      -8.33333333E-02 -4.16666667E-01  8.33333333E-02
                      -2.50000000E-01 -3.33333333E-01  0.00000000E+00
                      -1.66666667E-01 -3.33333333E-01  8.33333333E-02
                      -8.33333333E-02 -3.33333333E-01  1.66666667E-01
                      -3.33333333E-01 -2.50000000E-01  0.00000000E+00
                      -2.50000000E-01 -2.50000000E-01  8.33333333E-02
                      -1.66666667E-01 -2.50000000E-01  1.66666667E-01
                      -8.33333333E-02 -2.50000000E-01  2.50000000E-01
                      -4.16666667E-01 -1.66666667E-01  0.00000000E+00
                      -3.33333333E-01 -1.66666667E-01  8.33333333E-02
                      -2.50000000E-01 -1.66666667E-01  1.66666667E-01
                      -1.66666667E-01 -1.66666667E-01  2.50000000E-01
                      -8.33333333E-02 -1.66666667E-01  3.33333333E-01
                       5.00000000E-01 -8.33333333E-02  0.00000000E+00
                      -4.16666667E-01 -8.33333333E-02  8.33333333E-02
                      -3.33333333E-01 -8.33333333E-02  1.66666667E-01
                      -2.50000000E-01 -8.33333333E-02  2.50000000E-01
                      -1.66666667E-01 -8.33333333E-02  3.33333333E-01
                      -8.33333333E-02 -8.33333333E-02  4.16666667E-01
                      -8.33333333E-02  3.33333333E-01  0.00000000E+00
                      -1.66666667E-01  4.16666667E-01  0.00000000E+00
                      -8.33333333E-02  4.16666667E-01  8.33333333E-02
                      -2.50000000E-01  5.00000000E-01  0.00000000E+00
                      -1.66666667E-01  5.00000000E-01  8.33333333E-02
                      -8.33333333E-02  5.00000000E-01  1.66666667E-01
                      -3.33333333E-01 -4.16666667E-01  0.00000000E+00
                      -2.50000000E-01 -4.16666667E-01  8.33333333E-02
                      -1.66666667E-01 -4.16666667E-01  1.66666667E-01
                      -8.33333333E-02 -4.16666667E-01  2.50000000E-01
                      -4.16666667E-01 -3.33333333E-01  0.00000000E+00
                      -3.33333333E-01 -3.33333333E-01  8.33333333E-02
                      -2.50000000E-01 -3.33333333E-01  1.66666667E-01
                      -1.66666667E-01 -3.33333333E-01  2.50000000E-01
                      -8.33333333E-02 -3.33333333E-01  3.33333333E-01
                       5.00000000E-01 -2.50000000E-01  0.00000000E+00
                       outvar_i_n : Printing only first  50 k-points.
           kptopt           3
         kptrlatt        6   -6    6     -6    6    6     -6   -6    6
          kptrlen      6.11608713E+01
P           mkmem         217
P          mkqmem         217
P          mk1mem         217
            natom           2
            nband           5
            ngfft          24      24      24
             nkpt         864
             nqpt           1
            nstep          25
             nsym          48
           ntypat           1
              occ      2.000000  2.000000  2.000000  2.000000  0.000000
        optdriver           1
           prtpot           1
              qpt      5.00000000E-01  1.66666667E-01  0.00000000E+00
           rfphon           1
            rprim      0.0000000000E+00  7.0710678119E-01  7.0710678119E-01
                       7.0710678119E-01  0.0000000000E+00  7.0710678119E-01
                       7.0710678119E-01  7.0710678119E-01  0.0000000000E+00
           shiftk      5.00000000E-01  5.00000000E-01  5.00000000E-01
          spgroup         227
           strten      0.0000000000E+00  0.0000000000E+00  0.0000000000E+00
                       0.0000000000E+00  0.0000000000E+00  0.0000000000E+00
           symrel      1  0  0   0  1  0   0  0  1      -1  0  0   0 -1  0   0  0 -1
                       0 -1  1   0 -1  0   1 -1  0       0  1 -1   0  1  0  -1  1  0
                      -1  0  0  -1  0  1  -1  1  0       1  0  0   1  0 -1   1 -1  0
                       0  1 -1   1  0 -1   0  0 -1       0 -1  1  -1  0  1   0  0  1
                      -1  0  0  -1  1  0  -1  0  1       1  0  0   1 -1  0   1  0 -1
                       0 -1  1   1 -1  0   0 -1  0       0  1 -1  -1  1  0   0  1  0
                       1  0  0   0  0  1   0  1  0      -1  0  0   0  0 -1   0 -1  0
                       0  1 -1   0  0 -1   1  0 -1       0 -1  1   0  0  1  -1  0  1
                      -1  0  1  -1  1  0  -1  0  0       1  0 -1   1 -1  0   1  0  0
                       0 -1  0   1 -1  0   0 -1  1       0  1  0  -1  1  0   0  1 -1
                       1  0 -1   0  0 -1   0  1 -1      -1  0  1   0  0  1   0 -1  1
                       0  1  0   0  0  1   1  0  0       0 -1  0   0  0 -1  -1  0  0
                       1  0 -1   0  1 -1   0  0 -1      -1  0  1   0 -1  1   0  0  1
                       0 -1  0   0 -1  1   1 -1  0       0  1  0   0  1 -1  -1  1  0
                      -1  0  1  -1  0  0  -1  1  0       1  0 -1   1  0  0   1 -1  0
                       0  1  0   1  0  0   0  0  1       0 -1  0  -1  0  0   0  0 -1
                       0  0 -1   0  1 -1   1  0 -1       0  0  1   0 -1  1  -1  0  1
                       1 -1  0   0 -1  1   0 -1  0      -1  1  0   0  1 -1   0  1  0
                       0  0  1   1  0  0   0  1  0       0  0 -1  -1  0  0   0 -1  0
                      -1  1  0  -1  0  0  -1  0  1       1 -1  0   1  0  0   1  0 -1
                       0  0  1   0  1  0   1  0  0       0  0 -1   0 -1  0  -1  0  0
                       1 -1  0   0 -1  0   0 -1  1      -1  1  0   0  1  0   0  1 -1
                       0  0 -1   1  0 -1   0  1 -1       0  0  1  -1  0  1   0 -1  1
                      -1  1  0  -1  0  1  -1  0  0       1 -1  0   1  0 -1   1  0  0
            tnons      0.0000000  0.0000000  0.0000000     0.2500000  0.2500000  0.2500000
                       0.0000000  0.0000000  0.0000000     0.2500000  0.2500000  0.2500000
                       0.0000000  0.0000000  0.0000000     0.2500000  0.2500000  0.2500000
                       0.0000000  0.0000000  0.0000000     0.2500000  0.2500000  0.2500000
                       0.0000000  0.0000000  0.0000000     0.2500000  0.2500000  0.2500000
                       0.0000000  0.0000000  0.0000000     0.2500000  0.2500000  0.2500000
                       0.0000000  0.0000000  0.0000000     0.2500000  0.2500000  0.2500000
                       0.0000000  0.0000000  0.0000000     0.2500000  0.2500000  0.2500000
                       0.0000000  0.0000000  0.0000000     0.2500000  0.2500000  0.2500000
                       0.0000000  0.0000000  0.0000000     0.2500000  0.2500000  0.2500000
                       0.0000000  0.0000000  0.0000000     0.2500000  0.2500000  0.2500000
                       0.0000000  0.0000000  0.0000000     0.2500000  0.2500000  0.2500000
                       0.0000000  0.0000000  0.0000000     0.2500000  0.2500000  0.2500000
                       0.0000000  0.0000000  0.0000000     0.2500000  0.2500000  0.2500000
                       0.0000000  0.0000000  0.0000000     0.2500000  0.2500000  0.2500000
                       0.0000000  0.0000000  0.0000000     0.2500000  0.2500000  0.2500000
                       0.0000000  0.0000000  0.0000000     0.2500000  0.2500000  0.2500000
                       0.0000000  0.0000000  0.0000000     0.2500000  0.2500000  0.2500000
                       0.0000000  0.0000000  0.0000000     0.2500000  0.2500000  0.2500000
                       0.0000000  0.0000000  0.0000000     0.2500000  0.2500000  0.2500000
                       0.0000000  0.0000000  0.0000000     0.2500000  0.2500000  0.2500000
                       0.0000000  0.0000000  0.0000000     0.2500000  0.2500000  0.2500000
                       0.0000000  0.0000000  0.0000000     0.2500000  0.2500000  0.2500000
                       0.0000000  0.0000000  0.0000000     0.2500000  0.2500000  0.2500000
           tolvrs      1.00000000E-08
            typat      1  1
              wtk        0.00116    0.00116    0.00116    0.00116    0.00116    0.00116
                         0.00116    0.00116    0.00116    0.00116    0.00116    0.00116
                         0.00116    0.00116    0.00116    0.00116    0.00116    0.00116
                         0.00116    0.00116    0.00116    0.00116    0.00116    0.00116
                         0.00116    0.00116    0.00116    0.00116    0.00116    0.00116
                         0.00116    0.00116    0.00116    0.00116    0.00116    0.00116
                         0.00116    0.00116    0.00116    0.00116    0.00116    0.00116
                         0.00116    0.00116    0.00116    0.00116    0.00116    0.00116
                         0.00116    0.00116
                       outvars : Printing only first  50 k-points.
           xangst      0.0000000000E+00  0.0000000000E+00  0.0000000000E+00
                       1.3485391323E+00  1.3485391323E+00  1.3485391323E+00
            xcart      0.0000000000E+00  0.0000000000E+00  0.0000000000E+00
                       2.5483696395E+00  2.5483696395E+00  2.5483696395E+00
             xred      0.0000000000E+00  0.0000000000E+00  0.0000000000E+00
                       2.5000000000E-01  2.5000000000E-01  2.5000000000E-01
            znucl       14.00000

================================================================================
  
 Proc.   0 individual time (sec): cpu=        147.2  wall=        147.6

 Calculation completed.
.Delivered   2 WARNINGs and   6 COMMENTs to log file.

--- !FinalSummary
program: abinit
version: 9.9.2
start_datetime: Fri May 19 15:38:51 2023
end_datetime: Fri May 19 15:41:19 2023
overall_cpu_time:         589.4
overall_wall_time:         590.2
exit_requested_by_user: no 
timelimit: 0
pseudos: 
    Si  : 9cf3649cb539efbe8c67e8db9d375af0
usepaw: 0
mpi_procs: 4
omp_threads: 1
num_warnings: 2
num_comments: 6
...
