  ABINIT 9.5.1
  
 DeprecationWarning: 

     The files file has been deprecated in Abinit9 and will be removed in Abinit10.
     Use the syntax `abinit t01.abi` where t01.abi is an input with pseudopotentials e.g.

            pseudos = "al.psp8, as.psp8"


  Give name for formatted input file: 
/home/fgoudreault/Workspace/abisuite/abisuite/unittests/test_workflows/test_files/abinit_si/nc/bse_ngkpt_convergence/nscfnosym_run/ngkpt_6_6_6/ngkpt_6_6_6.abi
  Give name for formatted output file:
/home/fgoudreault/Workspace/abisuite/abisuite/unittests/test_workflows/test_files/abinit_si/nc/bse_ngkpt_convergence/nscfnosym_run/ngkpt_6_6_6/ngkpt_6_6_6.abo
  Give root name for generic input files:
/home/fgoudreault/Workspace/abisuite/abisuite/unittests/test_workflows/test_files/abinit_si/nc/bse_ngkpt_convergence/nscfnosym_run/ngkpt_6_6_6/input_data/idat_ngkpt_6_6_6
  Give root name for generic output files:
/home/fgoudreault/Workspace/abisuite/abisuite/unittests/test_workflows/test_files/abinit_si/nc/bse_ngkpt_convergence/nscfnosym_run/ngkpt_6_6_6/run/output_data/odat_ngkpt_6_6_6
  Give root name for generic temporary files:
/home/fgoudreault/Workspace/abisuite/abisuite/unittests/test_workflows/test_files/abinit_si/nc/bse_ngkpt_convergence/nscfnosym_run/ngkpt_6_6_6/run/output_data/tmp_ngkpt_6_6_6

.Version 9.5.1 of ABINIT 
.(MPI version, prepared for a x86_64_linux_gnu9.3 computer) 

.Copyright (C) 1998-2021 ABINIT group . 
 ABINIT comes with ABSOLUTELY NO WARRANTY.
 It is free software, and you are welcome to redistribute it
 under certain conditions (GNU General Public License,
 see ~abinit/COPYING or http://www.gnu.org/copyleft/gpl.txt).

 ABINIT is a project of the Universite Catholique de Louvain,
 Corning Inc. and other collaborators, see ~abinit/doc/developers/contributors.txt .
 Please read https://docs.abinit.org/theory/acknowledgments for suggested
 acknowledgments of the ABINIT effort.
 For more information, see https://www.abinit.org .

.Starting date : Sun 28 Nov 2021.
- ( at 21h11 )
  

 ++++++++++++++++++++++++++++++++++++++++++++++++++++++++++++++++++++++++++++++

 === Build Information === 
  Version       : 9.5.1
  Build target  : x86_64_linux_gnu9.3
  Build date    : 20210420

 === Compiler Suite === 
  C compiler       : gnu9.3
  C++ compiler     : gnu9.3
  Fortran compiler : gnu9.3
  CFLAGS           : -g -O2 -mtune=native -march=native
  CXXFLAGS         : -g -O2 -mtune=native -march=native
  FCFLAGS          : -g -ffree-line-length-none     -I/home/fgoudreault/Workspace/abinit ...
  FC_LDFLAGS       : 

 === Optimizations === 
  Debug level        : basic
  Optimization level : standard
  Architecture       : unknown_unknown

 === Multicore === 
  Parallel build : yes
  Parallel I/O   : yes
  openMP support : 
  GPU support    : 

 === Connectors / Fallbacks === 
  LINALG flavor  : netlib
  FFT flavor     : goedecker
  HDF5           : yes
  NetCDF         : yes
  NetCDF Fortran : yes
  LibXC          : yes
  Wannier90      : no

 === Experimental features === 
  Exports             : 
  GW double-precision : 

 ++++++++++++++++++++++++++++++++++++++++++++++++++++++++++++++++++++++++++++++


 ++++++++++++++++++++++++++++++++++++++++++++++++++++++++++++++++++++++++++++++
 Default optimizations:
   -O2 -mtune=native -march=native


 Optimizations for 43_ptgroups:
   -O0


 ++++++++++++++++++++++++++++++++++++++++++++++++++++++++++++++++++++++++++++++


 ++++++++++++++++++++++++++++++++++++++++++++++++++++++++++++++++++++++++++++++
 CPP options activated during the build:

                    CC_GNU                   CXX_GNU                    FC_GNU
 
 HAVE_FC_ALLOCATABLE_DT...             HAVE_FC_ASYNC         HAVE_FC_BACKTRACE
 
  HAVE_FC_COMMAND_ARGUMENT      HAVE_FC_COMMAND_LINE        HAVE_FC_CONTIGUOUS
 
           HAVE_FC_CPUTIME              HAVE_FC_EXIT             HAVE_FC_FLUSH
 
             HAVE_FC_GAMMA            HAVE_FC_GETENV   HAVE_FC_IEEE_ARITHMETIC
 
   HAVE_FC_IEEE_EXCEPTIONS          HAVE_FC_INT_QUAD             HAVE_FC_IOMSG
 
     HAVE_FC_ISO_C_BINDING  HAVE_FC_ISO_FORTRAN_2008        HAVE_FC_LONG_LINES
 
        HAVE_FC_MOVE_ALLOC  HAVE_FC_ON_THE_FLY_SHAPE           HAVE_FC_PRIVATE
 
         HAVE_FC_PROTECTED           HAVE_FC_SHIFTLR         HAVE_FC_STREAM_IO
 
            HAVE_FC_SYSTEM          HAVE_FORTRAN2003                 HAVE_HDF5
 
             HAVE_HDF5_MPI        HAVE_LIBPAW_ABINIT      HAVE_LIBTETRA_ABINIT
 
                HAVE_LIBXC         HAVE_LINALG_AXPBY        HAVE_LINALG_GEMM3M
 
                  HAVE_MPI                 HAVE_MPI2         HAVE_MPI2_INPLACE
 
       HAVE_MPI_IALLGATHER       HAVE_MPI_IALLREDUCE        HAVE_MPI_IALLTOALL
 
       HAVE_MPI_IALLTOALLV           HAVE_MPI_IBCAST         HAVE_MPI_IGATHERV
 
        HAVE_MPI_INTEGER16               HAVE_MPI_IO HAVE_MPI_TYPE_CREATE_S...
 
               HAVE_NETCDF       HAVE_NETCDF_DEFAULT       HAVE_NETCDF_FORTRAN
 
   HAVE_NETCDF_FORTRAN_MPI           HAVE_NETCDF_MPI             HAVE_OS_LINUX
 
         HAVE_TIMER_ABINIT                                                      
 ++++++++++++++++++++++++++++++++++++++++++++++++++++++++++++++++++++++++++++++

- input  file    -> /home/fgoudreault/Workspace/abisuite/abisuite/unittests/test_workflows/test_files/abinit_si/nc/bse_ngkpt_convergence/nscfnosym_run/ngkpt_6_6_6/ngkpt_6_6_6.abi
- output file    -> /home/fgoudreault/Workspace/abisuite/abisuite/unittests/test_workflows/test_files/abinit_si/nc/bse_ngkpt_convergence/nscfnosym_run/ngkpt_6_6_6/ngkpt_6_6_6.abo
- root for input  files -> /home/fgoudreault/Workspace/abisuite/abisuite/unittests/test_workflows/test_files/abinit_si/nc/bse_ngkpt_convergence/nscfnosym_run/ngkpt_6_6_6/input_data/idat_ngkpt_6_6_6
- root for output files -> /home/fgoudreault/Workspace/abisuite/abisuite/unittests/test_workflows/test_files/abinit_si/nc/bse_ngkpt_convergence/nscfnosym_run/ngkpt_6_6_6/run/output_data/odat_ngkpt_6_6_6

 Netcdf library supports MPI-IO
-instrng: 43 lines of input have been read from file /home/fgoudreault/Workspace/abisuite/abisuite/unittests/test_workflows/test_files/abinit_si/nc/bse_ngkpt_convergence/nscfnosym_run/ngkpt_6_6_6/ngkpt_6_6_6.abi


 Please give name of formatted atomic psp file (and finish with a newline character)
 For atom type 1, psp file is /home/fgoudreault/Workspace/abisuite/abisuite/unittests/test_workflows/test_files/pseudos/Si.psp8
  read the values zionpsp=  4.0 , pspcod=   8 , lmax=   2

 inpspheads: deduce mpsang = 3, n1xccc = 2501.

======================================================= 
 invars1m : enter jdtset= 0

 symlatt: the Bravais lattice is cF (face-centered cubic)
  xred   is defined in input file
 ingeo: takes atomic coordinates from input array xred

--- !COMMENT
src_file: m_ingeo.F90
src_line: 900
message: |
    The tolerance on symmetries =   1.000E-05 is bigger than 1.0e-8.
    In order to avoid spurious effects, the atomic coordinates have been
    symmetrized before storing them in the dataset internal variable.
    So, do not be surprised by the fact that your input variables (xcart, xred, ...)
    do not correspond exactly to the ones echoed by ABINIT, the latter being used to do the calculations.
    This is not a problem per se.
    Still, in order to avoid this symmetrization (e.g. for specific debugging/development), decrease tolsym to 1.0e-8 or lower,
    or (much preferred) use input primitive vectors that are accurate to better than 1.0e-8.
    This message will only be printed once, even if there are other datasets where tolsym is bigger than 1.0e-8.
...


 symlatt: the Bravais lattice is cF (face-centered cubic)

 symlatt: the Bravais lattice is cF (face-centered cubic)
 symspgr: spgroup= 227  Fd -3 m   (=Oh^7)
 symspgr: optical characteristics = isotropic
 For input ecut=  1.200000E+01 best grid ngfft=      24      24      24
       max ecut=  1.367784E+01

 ==== FFT mesh ====
  FFT mesh divisions ........................    24   24   24
  Augmented FFT divisions ...................    25   25   24
  FFT algorithm .............................   112
  FFT cache size ............................    16
 getmpw: optimal value of mpw= 535

 Symmetries : space group Fd -3 m (#227); Bravais cF (face-center cubic)

 getdim_nloc : deduce lmnmax  =  18, lnmax  =   6,
                      lmnmaxso=  18, lnmaxso=   6.
memory: analysis of memory needs
================================================================================
 Values of the parameters that define the memory need of the present run
     intxc =       0    ionmov =       0      iscf =      -2    lmnmax =       6
     lnmax =       6     mgfft =      24  mpssoang =       3    mqgrid =    3001
     natom =       2  nloc_mem =       1    nspden =       1   nspinor =       1
    nsppol =       1      nsym =      48    n1xccc =    2501    ntypat =       1
    occopt =       1   xclevel =       1
-    mband =          15        mffmem =           1         mkmem =          54
       mpw =         535          nfft =       13824          nkpt =         216
================================================================================
P This job should need less than                      10.447 Mbytes of memory.
  Rough estimation (10% accuracy) of disk space for files :
_ WF disk file :     26.452 Mbytes ; DEN or POT disk file :      0.107 Mbytes.
================================================================================

 Biggest array : cg(disk), with      6.6144 MBytes.
 memana : allocated an array of      6.614 Mbytes, for testing purposes.
 memana: allocated      10.447Mbytes, for testing purposes. 
 The job will continue.
--------------------------------------------------------------------------------
------------- Echo of variables that govern the present computation ------------
--------------------------------------------------------------------------------
-
- outvars: echo of selected default values                                      
-   iomode0 =  3 , fftalg0 =112 , wfoptalg0 =  0
-
- outvars: echo of global parameters not present in the input file              
-  max_nthreads =    0
-
 -outvars: echo values of preprocessed input variables --------
 
 These variables are accessible in NetCDF format (/home/fgoudreault/Workspace/abisuite/abisuite/unittests/test_workflows/test_files/abinit_si/nc/bse_ngkpt_convergence/nscfnosym_run/ngkpt_6_6_6/run/output_data/odat_ngkpt_6_6_6_OUT.nc)

            acell      7.2078778121E+00  7.2078778121E+00  7.2078778121E+00 Bohr
              amu      2.80855000E+01
      chksymbreak           0
           diemac      1.20000000E+01
             ecut      1.20000000E+01 Hartree
-          fftalg         112
           irdden           1
             iscf          -2
              ixc       -1012
              kpt      1.83333333E-02  3.50000000E-02  5.16666667E-02
                       1.85000000E-01  3.50000000E-02  5.16666667E-02
                       3.51666667E-01  3.50000000E-02  5.16666667E-02
                      -4.81666667E-01  3.50000000E-02  5.16666667E-02
                      -3.15000000E-01  3.50000000E-02  5.16666667E-02
                      -1.48333333E-01  3.50000000E-02  5.16666667E-02
                       1.83333333E-02  2.01666667E-01  5.16666667E-02
                       1.85000000E-01  2.01666667E-01  5.16666667E-02
                       3.51666667E-01  2.01666667E-01  5.16666667E-02
                      -4.81666667E-01  2.01666667E-01  5.16666667E-02
                      -3.15000000E-01  2.01666667E-01  5.16666667E-02
                      -1.48333333E-01  2.01666667E-01  5.16666667E-02
                       1.83333333E-02  3.68333333E-01  5.16666667E-02
                       1.85000000E-01  3.68333333E-01  5.16666667E-02
                       3.51666667E-01  3.68333333E-01  5.16666667E-02
                      -4.81666667E-01  3.68333333E-01  5.16666667E-02
                      -3.15000000E-01  3.68333333E-01  5.16666667E-02
                      -1.48333333E-01  3.68333333E-01  5.16666667E-02
                       1.83333333E-02 -4.65000000E-01  5.16666667E-02
                       1.85000000E-01 -4.65000000E-01  5.16666667E-02
                       3.51666667E-01 -4.65000000E-01  5.16666667E-02
                      -4.81666667E-01 -4.65000000E-01  5.16666667E-02
                      -3.15000000E-01 -4.65000000E-01  5.16666667E-02
                      -1.48333333E-01 -4.65000000E-01  5.16666667E-02
                       1.83333333E-02 -2.98333333E-01  5.16666667E-02
                       1.85000000E-01 -2.98333333E-01  5.16666667E-02
                       3.51666667E-01 -2.98333333E-01  5.16666667E-02
                      -4.81666667E-01 -2.98333333E-01  5.16666667E-02
                      -3.15000000E-01 -2.98333333E-01  5.16666667E-02
                      -1.48333333E-01 -2.98333333E-01  5.16666667E-02
                       1.83333333E-02 -1.31666667E-01  5.16666667E-02
                       1.85000000E-01 -1.31666667E-01  5.16666667E-02
                       3.51666667E-01 -1.31666667E-01  5.16666667E-02
                      -4.81666667E-01 -1.31666667E-01  5.16666667E-02
                      -3.15000000E-01 -1.31666667E-01  5.16666667E-02
                      -1.48333333E-01 -1.31666667E-01  5.16666667E-02
                       1.83333333E-02  3.50000000E-02  2.18333333E-01
                       1.85000000E-01  3.50000000E-02  2.18333333E-01
                       3.51666667E-01  3.50000000E-02  2.18333333E-01
                      -4.81666667E-01  3.50000000E-02  2.18333333E-01
                      -3.15000000E-01  3.50000000E-02  2.18333333E-01
                      -1.48333333E-01  3.50000000E-02  2.18333333E-01
                       1.83333333E-02  2.01666667E-01  2.18333333E-01
                       1.85000000E-01  2.01666667E-01  2.18333333E-01
                       3.51666667E-01  2.01666667E-01  2.18333333E-01
                      -4.81666667E-01  2.01666667E-01  2.18333333E-01
                      -3.15000000E-01  2.01666667E-01  2.18333333E-01
                      -1.48333333E-01  2.01666667E-01  2.18333333E-01
                       1.83333333E-02  3.68333333E-01  2.18333333E-01
                       1.85000000E-01  3.68333333E-01  2.18333333E-01
                       outvar_i_n : Printing only first  50 k-points.
         kptrlatt        6    0    0      0    6    0      0    0    6
          kptrlen      4.32472669E+01
P           mkmem          54
            natom           2
            nband          15
           nbdbuf           5
            ngfft          24      24      24
             nkpt         216
             nsym          48
           ntypat           1
            rprim      0.0000000000E+00  7.0710678119E-01  7.0710678119E-01
                       7.0710678119E-01  0.0000000000E+00  7.0710678119E-01
                       7.0710678119E-01  7.0710678119E-01  0.0000000000E+00
           shiftk      1.10000000E-01  2.10000000E-01  3.10000000E-01
          spgroup         227
           symrel      1  0  0   0  1  0   0  0  1      -1  0  0   0 -1  0   0  0 -1
                       0 -1  1   0 -1  0   1 -1  0       0  1 -1   0  1  0  -1  1  0
                      -1  0  0  -1  0  1  -1  1  0       1  0  0   1  0 -1   1 -1  0
                       0  1 -1   1  0 -1   0  0 -1       0 -1  1  -1  0  1   0  0  1
                      -1  0  0  -1  1  0  -1  0  1       1  0  0   1 -1  0   1  0 -1
                       0 -1  1   1 -1  0   0 -1  0       0  1 -1  -1  1  0   0  1  0
                       1  0  0   0  0  1   0  1  0      -1  0  0   0  0 -1   0 -1  0
                       0  1 -1   0  0 -1   1  0 -1       0 -1  1   0  0  1  -1  0  1
                      -1  0  1  -1  1  0  -1  0  0       1  0 -1   1 -1  0   1  0  0
                       0 -1  0   1 -1  0   0 -1  1       0  1  0  -1  1  0   0  1 -1
                       1  0 -1   0  0 -1   0  1 -1      -1  0  1   0  0  1   0 -1  1
                       0  1  0   0  0  1   1  0  0       0 -1  0   0  0 -1  -1  0  0
                       1  0 -1   0  1 -1   0  0 -1      -1  0  1   0 -1  1   0  0  1
                       0 -1  0   0 -1  1   1 -1  0       0  1  0   0  1 -1  -1  1  0
                      -1  0  1  -1  0  0  -1  1  0       1  0 -1   1  0  0   1 -1  0
                       0  1  0   1  0  0   0  0  1       0 -1  0  -1  0  0   0  0 -1
                       0  0 -1   0  1 -1   1  0 -1       0  0  1   0 -1  1  -1  0  1
                       1 -1  0   0 -1  1   0 -1  0      -1  1  0   0  1 -1   0  1  0
                       0  0  1   1  0  0   0  1  0       0  0 -1  -1  0  0   0 -1  0
                      -1  1  0  -1  0  0  -1  0  1       1 -1  0   1  0  0   1  0 -1
                       0  0  1   0  1  0   1  0  0       0  0 -1   0 -1  0  -1  0  0
                       1 -1  0   0 -1  0   0 -1  1      -1  1  0   0  1  0   0  1 -1
                       0  0 -1   1  0 -1   0  1 -1       0  0  1  -1  0  1   0 -1  1
                      -1  1  0  -1  0  1  -1  0  0       1 -1  0   1  0 -1   1  0  0
            tnons      0.0000000  0.0000000  0.0000000     0.2500000  0.2500000  0.2500000
                       0.0000000  0.0000000  0.0000000     0.2500000  0.2500000  0.2500000
                       0.0000000  0.0000000  0.0000000     0.2500000  0.2500000  0.2500000
                       0.0000000  0.0000000  0.0000000     0.2500000  0.2500000  0.2500000
                       0.0000000  0.0000000  0.0000000     0.2500000  0.2500000  0.2500000
                       0.0000000  0.0000000  0.0000000     0.2500000  0.2500000  0.2500000
                       0.0000000  0.0000000  0.0000000     0.2500000  0.2500000  0.2500000
                       0.0000000  0.0000000  0.0000000     0.2500000  0.2500000  0.2500000
                       0.0000000  0.0000000  0.0000000     0.2500000  0.2500000  0.2500000
                       0.0000000  0.0000000  0.0000000     0.2500000  0.2500000  0.2500000
                       0.0000000  0.0000000  0.0000000     0.2500000  0.2500000  0.2500000
                       0.0000000  0.0000000  0.0000000     0.2500000  0.2500000  0.2500000
                       0.0000000  0.0000000  0.0000000     0.2500000  0.2500000  0.2500000
                       0.0000000  0.0000000  0.0000000     0.2500000  0.2500000  0.2500000
                       0.0000000  0.0000000  0.0000000     0.2500000  0.2500000  0.2500000
                       0.0000000  0.0000000  0.0000000     0.2500000  0.2500000  0.2500000
                       0.0000000  0.0000000  0.0000000     0.2500000  0.2500000  0.2500000
                       0.0000000  0.0000000  0.0000000     0.2500000  0.2500000  0.2500000
                       0.0000000  0.0000000  0.0000000     0.2500000  0.2500000  0.2500000
                       0.0000000  0.0000000  0.0000000     0.2500000  0.2500000  0.2500000
                       0.0000000  0.0000000  0.0000000     0.2500000  0.2500000  0.2500000
                       0.0000000  0.0000000  0.0000000     0.2500000  0.2500000  0.2500000
                       0.0000000  0.0000000  0.0000000     0.2500000  0.2500000  0.2500000
                       0.0000000  0.0000000  0.0000000     0.2500000  0.2500000  0.2500000
           tolwfr      1.00000000E-08
            typat      1  1
              wtk        0.00463    0.00463    0.00463    0.00463    0.00463    0.00463
                         0.00463    0.00463    0.00463    0.00463    0.00463    0.00463
                         0.00463    0.00463    0.00463    0.00463    0.00463    0.00463
                         0.00463    0.00463    0.00463    0.00463    0.00463    0.00463
                         0.00463    0.00463    0.00463    0.00463    0.00463    0.00463
                         0.00463    0.00463    0.00463    0.00463    0.00463    0.00463
                         0.00463    0.00463    0.00463    0.00463    0.00463    0.00463
                         0.00463    0.00463    0.00463    0.00463    0.00463    0.00463
                         0.00463    0.00463
                       outvars : Printing only first  50 k-points.
           xangst      0.0000000000E+00  0.0000000000E+00  0.0000000000E+00
                       1.3485391323E+00  1.3485391323E+00  1.3485391323E+00
            xcart      0.0000000000E+00  0.0000000000E+00  0.0000000000E+00
                       2.5483696395E+00  2.5483696395E+00  2.5483696395E+00
             xred      0.0000000000E+00  0.0000000000E+00  0.0000000000E+00
                       2.5000000000E-01  2.5000000000E-01  2.5000000000E-01
            znucl       14.00000

================================================================================

 chkinp: Checking input parameters for consistency.
 DATA TYPE INFORMATION: 
 REAL:      Data type name: REAL(DP) 
            Kind value:      8
            Precision:      15
            Smallest nonnegligible quantity relative to 1: 0.22204460E-015
            Smallest positive number:                      0.22250739E-307
            Largest representable number:                  0.17976931E+309
 INTEGER:   Data type name: INTEGER(default) 
            Kind value: 4
            Bit size:   32
            Largest representable number: 2147483647
 LOGICAL:   Data type name: LOGICAL 
            Kind value: 4
 CHARACTER: Data type name: CHARACTER             Kind value: 1

  ==== OpenMP parallelism is OFF ====
 
  ==== Using MPI-2 specifications ==== 
  MPI-IO support is ON
  xmpi_tag_ub ................   2147483647
  xmpi_bsize_ch ..............            1
  xmpi_bsize_int .............            4
  xmpi_bsize_sp ..............            4
  xmpi_bsize_dp ..............            8
  xmpi_bsize_spc .............            8
  xmpi_bsize_dpc .............           16
  xmpio_bsize_frm ............            4
  xmpi_address_kind ..........            8
  xmpi_offset_kind ...........            8
  MPI_WTICK ..................    1.0000000000000001E-009

================================================================================
== DATASET  1 ==================================================================
-   mpi_nproc: 4, omp_nthreads: -1 (-1 if OMP is not activated)


--- !COMMENT
src_file: m_xgScalapack.F90
src_line: 236
message: |
    xgScalapack in auto mode
...


 getdim_nloc : deduce lmnmax  =  18, lnmax  =   6,
                      lmnmaxso=  18, lnmaxso=   6.
 Slater exchange
 P. A. M. Dirac, Math. Proc. Cambridge Philos. Soc. 26, 376 (1930)
 F. Bloch, Z. Phys. 57, 545 (1929)
 Perdew & Wang
 J. P. Perdew and Y. Wang, Phys. Rev. B 45, 13244 (1992)

 Unit cell volume ucvol=  2.6479346E+02 bohr^3
 Angles (23,13,12)=  6.00000000E+01  6.00000000E+01  6.00000000E+01 degrees

 getcut: wavevector=  0.0000  0.0000  0.0000  ngfft=  24  24  24
         ecut(hartree)=     12.000   => boxcut(ratio)=   2.13525
- pspini: atom type   1  psp file is /home/fgoudreault/Workspace/abisuite/abisuite/unittests/test_workflows/test_files/pseudos/Si.psp8
- pspatm: opening atomic psp file    /home/fgoudreault/Workspace/abisuite/abisuite/unittests/test_workflows/test_files/pseudos/Si.psp8
- Si    ONCVPSP-3.3.0  r_core=   1.60303   1.72197   1.91712
- 14.00000   4.00000    171102                znucl, zion, pspdat
    8   -1012    2    4       600   0.00000   pspcod,pspxc,lmax,lloc,mmax,r2well
    5.99000000000000    4.00000000000000    0.00000000000000   rchrg,fchrg,qchrg
     nproj     2     2     2
     extension_switch     1
  valence charge integrates to:    3.9545012856495880     
  pspatm : epsatm=    6.67004110
         --- l  ekb(1:nproj) -->
             0    5.565958    0.856966
             1    2.726111    0.629828
             2   -2.124804   -0.444604
 pspatm: atomic psp has been read  and splines computed

   1.06720658E+02                                ecore*ucvol(ha*bohr**3)
 ==== Info on pseudopotentials ====
  Norm-conserving pseudopotentials
  Number of pseudopotentials ..    1
  Number of types of atoms   ..    1
  Scalar calculation (no spin-orbit term)
  Nonlocal part applied using Legendre polynomials
  Max number of non-local projectors over l and type   2
  Highest angular momentum +1 .......   3
  Max number of (l,n)   components ..   6
  Max number of (l,m,n) components ..   6

 Pseudo-Core Charge Info: 
   Number of radial points for pseudo-core charge .. 2501
   XC core-correction treatment (optnlxccc) ........    1
   Radius for pseudo-core charge for each type ..... 

  - Atom type    1 has pseudo-core radius ..  5.9900

 Info on the Q-grid used for form factors in spline form: 
   Number of q-points for radial functions ffspl ..   3001
   Number of q-points for vlspl ...................   3001
   vloc is computed in Reciprocal Space
   model core charge treated in real-space

  XC functional for type 1 is -1012
  Pseudo valence available: yes

 symatm: atom number 1 is reached starting at atom
   1  2  1  2  1  2  1  2  1  2  1  2  1  2  1  2  1  2  1  2  1  2  1  2
   1  2  1  2  1  2  1  2  1  2  1  2  1  2  1  2  1  2  1  2  1  2  1  2
 symatm: atom number 2 is reached starting at atom
   2  1  2  1  2  1  2  1  2  1  2  1  2  1  2  1  2  1  2  1  2  1  2  1
   2  1  2  1  2  1  2  1  2  1  2  1  2  1  2  1  2  1  2  1  2  1  2  1
 wfconv:    15 bands initialized randomly with npw=   532, for ikpt=     1
 wfconv:    15 bands initialized randomly with npw=   535, for ikpt=     2
 wfconv:    15 bands initialized randomly with npw=   525, for ikpt=     3
 wfconv:    15 bands initialized randomly with npw=   531, for ikpt=     4
 wfconv:    15 bands initialized randomly with npw=   525, for ikpt=     5
 wfconv:    15 bands initialized randomly with npw=   533, for ikpt=     6
 wfconv:    15 bands initialized randomly with npw=   534, for ikpt=     7
 wfconv:    15 bands initialized randomly with npw=   531, for ikpt=     8
 wfconv:    15 bands initialized randomly with npw=   530, for ikpt=     9
 wfconv:    15 bands initialized randomly with npw=   531, for ikpt=    10
 wfconv:    15 bands initialized randomly with npw=   525, for ikpt=    11
 wfconv:    15 bands initialized randomly with npw=   532, for ikpt=    12
 wfconv:    15 bands initialized randomly with npw=   525, for ikpt=    13
 wfconv:    15 bands initialized randomly with npw=   528, for ikpt=    14
 wfconv:    15 bands initialized randomly with npw=   525, for ikpt=    15
 wfconv:    15 bands initialized randomly with npw=   520, for ikpt=    16
 wfconv:    15 bands initialized randomly with npw=   520, for ikpt=    17
 wfconv:    15 bands initialized randomly with npw=   525, for ikpt=    18
 wfconv:    15 bands initialized randomly with npw=   531, for ikpt=    19
 wfconv:    15 bands initialized randomly with npw=   532, for ikpt=    20
 wfconv:    15 bands initialized randomly with npw=   519, for ikpt=    21
 wfconv:    15 bands initialized randomly with npw=   523, for ikpt=    22
 wfconv:    15 bands initialized randomly with npw=   520, for ikpt=    23
 wfconv:    15 bands initialized randomly with npw=   529, for ikpt=    24
 wfconv:    15 bands initialized randomly with npw=   525, for ikpt=    25
 wfconv:    15 bands initialized randomly with npw=   523, for ikpt=    26
 wfconv:    15 bands initialized randomly with npw=   524, for ikpt=    27
 wfconv:    15 bands initialized randomly with npw=   519, for ikpt=    28
 wfconv:    15 bands initialized randomly with npw=   525, for ikpt=    29
 wfconv:    15 bands initialized randomly with npw=   530, for ikpt=    30
 wfconv:    15 bands initialized randomly with npw=   535, for ikpt=    31
 wfconv:    15 bands initialized randomly with npw=   531, for ikpt=    32
 wfconv:    15 bands initialized randomly with npw=   523, for ikpt=    33
 wfconv:    15 bands initialized randomly with npw=   532, for ikpt=    34
 wfconv:    15 bands initialized randomly with npw=   528, for ikpt=    35
 wfconv:    15 bands initialized randomly with npw=   531, for ikpt=    36
 wfconv:    15 bands initialized randomly with npw=   531, for ikpt=    37
 wfconv:    15 bands initialized randomly with npw=   530, for ikpt=    38
 wfconv:    15 bands initialized randomly with npw=   528, for ikpt=    39
 wfconv:    15 bands initialized randomly with npw=   526, for ikpt=    40
 wfconv:    15 bands initialized randomly with npw=   526, for ikpt=    41
 wfconv:    15 bands initialized randomly with npw=   529, for ikpt=    42
 wfconv:    15 bands initialized randomly with npw=   530, for ikpt=    43
 wfconv:    15 bands initialized randomly with npw=   531, for ikpt=    44
 wfconv:    15 bands initialized randomly with npw=   531, for ikpt=    45
 wfconv:    15 bands initialized randomly with npw=   530, for ikpt=    46
 wfconv:    15 bands initialized randomly with npw=   528, for ikpt=    47
 wfconv:    15 bands initialized randomly with npw=   528, for ikpt=    48
 wfconv:    15 bands initialized randomly with npw=   527, for ikpt=    49
 wfconv:    15 bands initialized randomly with npw=   529, for ikpt=    50
 About to read data(r) from: /home/fgoudreault/Workspace/abisuite/abisuite/unittests/test_workflows/test_files/abinit_si/nc/bse_ngkpt_convergence/nscfnosym_run/ngkpt_6_6_6/input_data/idat_ngkpt_6_6_6_DEN
- File: /home/fgoudreault/Workspace/abisuite/abisuite/unittests/test_workflows/test_files/abinit_si/nc/bse_ngkpt_convergence/nscfnosym_run/ngkpt_6_6_6/input_data/idat_ngkpt_6_6_6_DEN does not exist but found netcdf file with similar name.

================================================================================

          - hdr_check: checking restart file header for consistency -


          current calculation                           restart file
          -------------------                           ------------

  calculation expects a density             |  input file contains a density
. ABINIT  code version 9.5.1                |  ABINIT  code version 9.5.1
. date 20211128 bantot     3240 natom    2  |  date 20211128 bantot       96 natom    2
  nkpt     216 nsym 48 ngfft  24,  24,  24  |  nkpt      16 nsym 48 ngfft  24,  24,  24
  ntypat  1 ecut_eff  12.0000000            |  ntypat  1 ecut_eff  12.0000000
  usepaw  0                                 |  usepaw  0
  usewvl  0                                 |  usewvl  0
  rprimd:                                   |  rprimd:
     0.0000000   5.0967393   5.0967393      |     0.0000000   5.0967393   5.0967393
     5.0967393   0.0000000   5.0967393      |     5.0967393   0.0000000   5.0967393
     5.0967393   5.0967393   0.0000000      |     5.0967393   5.0967393   0.0000000
  symafm:                                   |  symafm:
    1  1  1  1  1  1  1  1  1  1  1  1      |    1  1  1  1  1  1  1  1  1  1  1  1
    1  1  1  1  1  1  1  1  1  1  1  1      |    1  1  1  1  1  1  1  1  1  1  1  1
    1  1  1  1  1  1  1  1  1  1  1  1      |    1  1  1  1  1  1  1  1  1  1  1  1
    1  1  1  1  1  1  1  1  1  1  1  1      |    1  1  1  1  1  1  1  1  1  1  1  1
  symrel:                                   |  symrel:
    1  0  0  0  1  0  0  0  1               |    1  0  0  0  1  0  0  0  1
   -1  0  0  0 -1  0  0  0 -1               |   -1  0  0  0 -1  0  0  0 -1
    0 -1  1  0 -1  0  1 -1  0               |    0 -1  1  0 -1  0  1 -1  0
    0  1 -1  0  1  0 -1  1  0               |    0  1 -1  0  1  0 -1  1  0
   -1  0  0 -1  0  1 -1  1  0               |   -1  0  0 -1  0  1 -1  1  0
    1  0  0  1  0 -1  1 -1  0               |    1  0  0  1  0 -1  1 -1  0
    0  1 -1  1  0 -1  0  0 -1               |    0  1 -1  1  0 -1  0  0 -1
    0 -1  1 -1  0  1  0  0  1               |    0 -1  1 -1  0  1  0  0  1
   -1  0  0 -1  1  0 -1  0  1               |   -1  0  0 -1  1  0 -1  0  1
    1  0  0  1 -1  0  1  0 -1               |    1  0  0  1 -1  0  1  0 -1
    0 -1  1  1 -1  0  0 -1  0               |    0 -1  1  1 -1  0  0 -1  0
    0  1 -1 -1  1  0  0  1  0               |    0  1 -1 -1  1  0  0  1  0
    1  0  0  0  0  1  0  1  0               |    1  0  0  0  0  1  0  1  0
   -1  0  0  0  0 -1  0 -1  0               |   -1  0  0  0  0 -1  0 -1  0
    0  1 -1  0  0 -1  1  0 -1               |    0  1 -1  0  0 -1  1  0 -1
    0 -1  1  0  0  1 -1  0  1               |    0 -1  1  0  0  1 -1  0  1
   -1  0  1 -1  1  0 -1  0  0               |   -1  0  1 -1  1  0 -1  0  0
    1  0 -1  1 -1  0  1  0  0               |    1  0 -1  1 -1  0  1  0  0
    0 -1  0  1 -1  0  0 -1  1               |    0 -1  0  1 -1  0  0 -1  1
    0  1  0 -1  1  0  0  1 -1               |    0  1  0 -1  1  0  0  1 -1
    1  0 -1  0  0 -1  0  1 -1               |    1  0 -1  0  0 -1  0  1 -1
   -1  0  1  0  0  1  0 -1  1               |   -1  0  1  0  0  1  0 -1  1
    0  1  0  0  0  1  1  0  0               |    0  1  0  0  0  1  1  0  0
    0 -1  0  0  0 -1 -1  0  0               |    0 -1  0  0  0 -1 -1  0  0
    1  0 -1  0  1 -1  0  0 -1               |    1  0 -1  0  1 -1  0  0 -1
   -1  0  1  0 -1  1  0  0  1               |   -1  0  1  0 -1  1  0  0  1
    0 -1  0  0 -1  1  1 -1  0               |    0 -1  0  0 -1  1  1 -1  0
    0  1  0  0  1 -1 -1  1  0               |    0  1  0  0  1 -1 -1  1  0
   -1  0  1 -1  0  0 -1  1  0               |   -1  0  1 -1  0  0 -1  1  0
    1  0 -1  1  0  0  1 -1  0               |    1  0 -1  1  0  0  1 -1  0
    0  1  0  1  0  0  0  0  1               |    0  1  0  1  0  0  0  0  1
    0 -1  0 -1  0  0  0  0 -1               |    0 -1  0 -1  0  0  0  0 -1
    0  0 -1  0  1 -1  1  0 -1               |    0  0 -1  0  1 -1  1  0 -1
    0  0  1  0 -1  1 -1  0  1               |    0  0  1  0 -1  1 -1  0  1
    1 -1  0  0 -1  1  0 -1  0               |    1 -1  0  0 -1  1  0 -1  0
   -1  1  0  0  1 -1  0  1  0               |   -1  1  0  0  1 -1  0  1  0
    0  0  1  1  0  0  0  1  0               |    0  0  1  1  0  0  0  1  0
    0  0 -1 -1  0  0  0 -1  0               |    0  0 -1 -1  0  0  0 -1  0
   -1  1  0 -1  0  0 -1  0  1               |   -1  1  0 -1  0  0 -1  0  1
    1 -1  0  1  0  0  1  0 -1               |    1 -1  0  1  0  0  1  0 -1
    0  0  1  0  1  0  1  0  0               |    0  0  1  0  1  0  1  0  0
    0  0 -1  0 -1  0 -1  0  0               |    0  0 -1  0 -1  0 -1  0  0
    1 -1  0  0 -1  0  0 -1  1               |    1 -1  0  0 -1  0  0 -1  1
   -1  1  0  0  1  0  0  1 -1               |   -1  1  0  0  1  0  0  1 -1
    0  0 -1  1  0 -1  0  1 -1               |    0  0 -1  1  0 -1  0  1 -1
    0  0  1 -1  0  1  0 -1  1               |    0  0  1 -1  0  1  0 -1  1
   -1  1  0 -1  0  1 -1  0  0               |   -1  1  0 -1  0  1 -1  0  0
    1 -1  0  1  0 -1  1  0  0               |    1 -1  0  1  0 -1  1  0  0
  typat:                                    |  typat:
    1  1                                    |    1  1
  so_psp  :                                 |  so_psp  :
    1                                       |    1

--- !WARNING
src_file: m_hdr.F90
src_line: 4441
message: |
    input ival=0 not equal disk file ival=4
...

  tnons:                                    |  tnons:
     0.0000000   0.0000000   0.0000000      |     0.0000000   0.0000000   0.0000000
     0.2500000   0.2500000   0.2500000      |     0.2500000   0.2500000   0.2500000
     0.0000000   0.0000000   0.0000000      |     0.0000000   0.0000000   0.0000000
     0.2500000   0.2500000   0.2500000      |     0.2500000   0.2500000   0.2500000
     0.0000000   0.0000000   0.0000000      |     0.0000000   0.0000000   0.0000000
     0.2500000   0.2500000   0.2500000      |     0.2500000   0.2500000   0.2500000
     0.0000000   0.0000000   0.0000000      |     0.0000000   0.0000000   0.0000000
     0.2500000   0.2500000   0.2500000      |     0.2500000   0.2500000   0.2500000
     0.0000000   0.0000000   0.0000000      |     0.0000000   0.0000000   0.0000000
     0.2500000   0.2500000   0.2500000      |     0.2500000   0.2500000   0.2500000
     0.0000000   0.0000000   0.0000000      |     0.0000000   0.0000000   0.0000000
     0.2500000   0.2500000   0.2500000      |     0.2500000   0.2500000   0.2500000
     0.0000000   0.0000000   0.0000000      |     0.0000000   0.0000000   0.0000000
     0.2500000   0.2500000   0.2500000      |     0.2500000   0.2500000   0.2500000
     0.0000000   0.0000000   0.0000000      |     0.0000000   0.0000000   0.0000000
     0.2500000   0.2500000   0.2500000      |     0.2500000   0.2500000   0.2500000
     0.0000000   0.0000000   0.0000000      |     0.0000000   0.0000000   0.0000000
     0.2500000   0.2500000   0.2500000      |     0.2500000   0.2500000   0.2500000
     0.0000000   0.0000000   0.0000000      |     0.0000000   0.0000000   0.0000000
     0.2500000   0.2500000   0.2500000      |     0.2500000   0.2500000   0.2500000
     0.0000000   0.0000000   0.0000000      |     0.0000000   0.0000000   0.0000000
     0.2500000   0.2500000   0.2500000      |     0.2500000   0.2500000   0.2500000
     0.0000000   0.0000000   0.0000000      |     0.0000000   0.0000000   0.0000000
     0.2500000   0.2500000   0.2500000      |     0.2500000   0.2500000   0.2500000
     0.0000000   0.0000000   0.0000000      |     0.0000000   0.0000000   0.0000000
     0.2500000   0.2500000   0.2500000      |     0.2500000   0.2500000   0.2500000
     0.0000000   0.0000000   0.0000000      |     0.0000000   0.0000000   0.0000000
     0.2500000   0.2500000   0.2500000      |     0.2500000   0.2500000   0.2500000
     0.0000000   0.0000000   0.0000000      |     0.0000000   0.0000000   0.0000000
     0.2500000   0.2500000   0.2500000      |     0.2500000   0.2500000   0.2500000
     0.0000000   0.0000000   0.0000000      |     0.0000000   0.0000000   0.0000000
     0.2500000   0.2500000   0.2500000      |     0.2500000   0.2500000   0.2500000
     0.0000000   0.0000000   0.0000000      |     0.0000000   0.0000000   0.0000000
     0.2500000   0.2500000   0.2500000      |     0.2500000   0.2500000   0.2500000
     0.0000000   0.0000000   0.0000000      |     0.0000000   0.0000000   0.0000000
     0.2500000   0.2500000   0.2500000      |     0.2500000   0.2500000   0.2500000
     0.0000000   0.0000000   0.0000000      |     0.0000000   0.0000000   0.0000000
     0.2500000   0.2500000   0.2500000      |     0.2500000   0.2500000   0.2500000
     0.0000000   0.0000000   0.0000000      |     0.0000000   0.0000000   0.0000000
     0.2500000   0.2500000   0.2500000      |     0.2500000   0.2500000   0.2500000
     0.0000000   0.0000000   0.0000000      |     0.0000000   0.0000000   0.0000000
     0.2500000   0.2500000   0.2500000      |     0.2500000   0.2500000   0.2500000
     0.0000000   0.0000000   0.0000000      |     0.0000000   0.0000000   0.0000000
     0.2500000   0.2500000   0.2500000      |     0.2500000   0.2500000   0.2500000
     0.0000000   0.0000000   0.0000000      |     0.0000000   0.0000000   0.0000000
     0.2500000   0.2500000   0.2500000      |     0.2500000   0.2500000   0.2500000
     0.0000000   0.0000000   0.0000000      |     0.0000000   0.0000000   0.0000000
     0.2500000   0.2500000   0.2500000      |     0.2500000   0.2500000   0.2500000
   znucl:                                   |   znucl:
   14.00                                    |       14.00
  pseudopotential atom type  1:             |  pseudopotential atom type  1:
  pspso   0 pspxc ***                       |  pspso   0 pspxc ***
  pspdat   171102 pspcod    8 zion   4.0    |  pspdat   171102 pspcod    8 zion   4.0
  xred:                                     |  xred:
     0.0000000   0.0000000   0.0000000      |     0.0000000   0.0000000   0.0000000
     0.2500000   0.2500000   0.2500000      |     0.2500000   0.2500000   0.2500000
 hdr_check:  Density/Potential file is OK for restart of calculation
================================================================================
 read_rhor completed. cpu:  0.02 [s] , wall:  0.02 [s] <<< TIME

================================================================================

 getcut: wavevector=  0.0000  0.0000  0.0000  ngfft=  24  24  24
         ecut(hartree)=     12.000   => boxcut(ratio)=   2.13525

 1/G**2 cut-off applied in the following step : cutoff-mode = CRYSTAL

 1/G**2 cut-off applied in the following step : cutoff-mode = CRYSTAL

 1/G**2 cut-off applied in the following step : cutoff-mode = CRYSTAL
 Max number of non-self-consistent loops: 30
 k-point: [ 1 / 216 ], spin: 1
   Max resid = 1.36489E-01  (exclude nbdbuf bands). One NSCF iteration cpu-time:  0.13 [s] , wall-time:  0.09 [s]
   Max resid = 3.04514E-03  (exclude nbdbuf bands). One NSCF iteration cpu-time:  0.34 [s] , wall-time:  0.20 [s]
   Max resid = 6.20891E-06  (exclude nbdbuf bands). One NSCF iteration cpu-time:  0.36 [s] , wall-time:  0.23 [s]
   Printing residuals every mod(20) iterations...
   NSCF loop completed after 4 iterations
 
 -------------------------------------------------------------------------------------------------
 Ekinetic   = :     0.000000E+00 Ha ,    0.000000E+00 eV
 Evext_l    = :     0.000000E+00 Ha ,    0.000000E+00 eV
 Evext_nl   = :     0.000000E+00 Ha ,    0.000000E+00 eV
 Epsp_core  = :     4.030336E-01 Ha ,    1.096710E+01 eV
 Ehartree   = :     0.000000E+00 Ha ,    0.000000E+00 eV
 Exc_ks     = :    -3.111350E+00 Ha ,   -8.466413E+01 eV
 Enn        = :    -8.455285E+00 Ha ,   -2.300800E+02 eV
 -------------------------------------------------------------------------------------------------
 Etot       = :    -1.116360E+01 Ha ,   -3.037770E+02 eV
 -------------------------------------------------------------------------------------------------

 fftdatar_write: About to write data to: /home/fgoudreault/Workspace/abisuite/abisuite/unittests/test_workflows/test_files/abinit_si/nc/bse_ngkpt_convergence/nscfnosym_run/ngkpt_6_6_6/run/output_data/odat_ngkpt_6_6_6_DEN with iomode: IO_MODE_ETSF
- Creating HDf5 file with MPI-IO support: /home/fgoudreault/Workspace/abisuite/abisuite/unittests/test_workflows/test_files/abinit_si/nc/bse_ngkpt_convergence/nscfnosym_run/ngkpt_6_6_6/run/output_data/odat_ngkpt_6_6_6_DEN.nc
- Opening HDf5 file with MPI-IO support: /home/fgoudreault/Workspace/abisuite/abisuite/unittests/test_workflows/test_files/abinit_si/nc/bse_ngkpt_convergence/nscfnosym_run/ngkpt_6_6_6/run/output_data/odat_ngkpt_6_6_6_DEN.nc
 IO operation completed. cpu:  0.07 [s] , wall:  0.16 [s] <<< TIME
- Creating HDf5 file with MPI-IO support: /home/fgoudreault/Workspace/abisuite/abisuite/unittests/test_workflows/test_files/abinit_si/nc/bse_ngkpt_convergence/nscfnosym_run/ngkpt_6_6_6/run/output_data/odat_ngkpt_6_6_6_GSR.nc
 Integrated electronic density in atomic spheres:
 ------------------------------------------------
 Atom  Sphere_radius  Integrated_density
    1        2.00000          1.80340733
    2        2.00000          1.80340733
================================================================================

 ----iterations are completed or convergence reached----


 === Gap info ===
  >>>> For spin  1
   Minimum direct gap =   2.5544 [eV], located at k-point      :   0.0183  0.0350  0.0517
   Fundamental gap    =   0.5533 [eV], Top of valence bands at :   0.0183  0.0350  0.0517
                                       Bottom of conduction at :   0.0183 -0.4650 -0.4483
 Mean square residual over all n,k,spin=   44.627E-10; max=  99.992E-10
   0.0183  0.0350  0.0517    1  1.09852E-08 kpt; spin; max resid(k); each band:
  4.45E-09 5.74E-09 4.54E-09 1.35E-09 4.80E-09 2.07E-09 1.35E-09 3.47E-09
  2.93E-09 6.25E-09 5.57E-09 7.63E-09 3.66E-09 9.23E-09 1.10E-08
   0.1850  0.0350  0.0517    1  3.90802E-06 kpt; spin; max resid(k); each band:
  3.85E-09 3.29E-09 5.28E-09 3.95E-09 5.69E-09 4.03E-09 6.42E-09 5.63E-09
  1.66E-09 2.54E-09 1.80E-09 5.16E-09 1.50E-08 5.08E-08 3.91E-06
   0.3517  0.0350  0.0517    1  2.79304E-04 kpt; spin; max resid(k); each band:
  4.44E-09 3.02E-09 3.06E-09 2.61E-09 3.63E-09 5.82E-09 9.56E-09 1.60E-09
  5.47E-09 2.13E-09 2.60E-09 5.00E-08 3.02E-06 2.39E-05 2.79E-04
  -0.4817  0.0350  0.0517    1  8.95624E-04 kpt; spin; max resid(k); each band:
  2.19E-09 5.97E-09 7.50E-09 6.30E-09 7.84E-09 2.46E-09 2.96E-09 9.60E-09
  9.13E-09 5.45E-09 1.03E-08 2.23E-08 9.18E-09 6.39E-08 8.96E-04
  -0.3150  0.0350  0.0517    1  1.65685E-04 kpt; spin; max resid(k); each band:
  2.62E-09 3.26E-09 1.66E-09 3.19E-09 3.64E-09 8.22E-09 3.30E-09 2.02E-09
  1.55E-09 3.13E-09 1.33E-08 4.92E-07 1.69E-06 1.94E-05 1.66E-04
  -0.1483  0.0350  0.0517    1  1.10528E-03 kpt; spin; max resid(k); each band:
  8.20E-09 6.28E-09 4.72E-09 8.60E-09 4.33E-09 1.54E-09 5.77E-09 3.51E-09
  8.03E-09 2.14E-09 3.30E-09 2.35E-09 2.16E-08 3.35E-08 1.11E-03
   0.0183  0.2017  0.0517    1  1.11205E-04 kpt; spin; max resid(k); each band:
  7.79E-09 3.13E-09 1.79E-09 8.49E-09 6.34E-09 4.52E-09 5.96E-09 2.25E-09
  2.29E-09 2.20E-09 2.63E-09 3.52E-09 6.35E-08 4.48E-08 1.11E-04
   0.1850  0.2017  0.0517    1  2.96894E-04 kpt; spin; max resid(k); each band:
  7.95E-09 8.87E-09 6.52E-09 2.88E-09 3.93E-09 1.63E-09 7.86E-09 3.07E-09
  3.03E-09 2.57E-09 3.47E-09 9.84E-09 9.05E-09 4.05E-08 2.97E-04
   0.3517  0.2017  0.0517    1  3.26239E-05 kpt; spin; max resid(k); each band:
  3.11E-09 1.56E-09 9.57E-09 7.49E-09 3.52E-09 6.34E-09 5.01E-09 3.78E-09
  3.02E-09 3.93E-09 2.49E-09 1.17E-07 5.43E-07 1.13E-05 3.26E-05
  -0.4817  0.2017  0.0517    1  1.15727E-03 kpt; spin; max resid(k); each band:
  2.24E-09 8.26E-09 1.91E-09 5.47E-09 2.37E-09 3.21E-09 4.31E-09 3.25E-09
  4.02E-09 2.41E-09 2.35E-08 6.94E-08 2.54E-07 6.07E-05 1.16E-03
  -0.3150  0.2017  0.0517    1  9.41720E-05 kpt; spin; max resid(k); each band:
  3.08E-09 4.86E-09 1.50E-09 4.60E-09 1.47E-09 1.84E-09 2.43E-09 6.58E-09
  8.43E-09 3.44E-09 8.92E-08 5.50E-07 1.43E-06 2.92E-06 9.42E-05
  -0.1483  0.2017  0.0517    1  1.42785E-04 kpt; spin; max resid(k); each band:
  8.33E-09 2.07E-09 3.74E-09 7.77E-09 1.86E-09 4.43E-09 4.08E-09 1.59E-09
  2.16E-09 7.93E-09 3.78E-09 2.18E-08 4.32E-07 1.17E-06 1.43E-04
   0.0183  0.3683  0.0517    1  1.12563E-04 kpt; spin; max resid(k); each band:
  3.83E-09 1.60E-09 2.52E-09 8.46E-09 6.40E-09 3.24E-09 9.38E-09 8.63E-09
  6.40E-09 7.36E-09 3.54E-09 2.88E-07 3.66E-06 6.16E-06 1.13E-04
   0.1850  0.3683  0.0517    1  1.51487E-06 kpt; spin; max resid(k); each band:
  5.29E-09 2.65E-09 2.41E-09 9.17E-09 1.64E-09 7.40E-09 2.63E-09 4.71E-09
  1.82E-09 1.61E-09 8.48E-09 3.47E-09 1.25E-08 6.31E-07 1.51E-06
   0.3517  0.3683  0.0517    1  7.15736E-06 kpt; spin; max resid(k); each band:
  7.14E-10 4.19E-09 4.51E-09 4.44E-09 2.48E-09 5.73E-09 9.20E-09 1.79E-09
  1.67E-09 5.25E-09 5.72E-09 1.50E-08 4.32E-08 1.20E-06 7.16E-06
  -0.4817  0.3683  0.0517    1  1.58493E-06 kpt; spin; max resid(k); each band:
  7.80E-09 3.04E-09 6.86E-09 1.75E-09 4.12E-09 1.45E-09 9.43E-10 3.49E-09
  1.45E-09 5.04E-09 7.73E-09 4.37E-09 2.26E-07 3.74E-07 1.58E-06
  -0.3150  0.3683  0.0517    1  2.25049E-05 kpt; spin; max resid(k); each band:
  2.32E-09 4.66E-09 8.49E-09 3.64E-09 3.77E-09 6.18E-09 9.43E-09 8.31E-09
  9.89E-10 1.97E-09 1.05E-07 2.68E-07 5.98E-07 2.25E-05 2.12E-05
  -0.1483  0.3683  0.0517    1  1.11141E-05 kpt; spin; max resid(k); each band:
  3.17E-09 2.27E-09 2.87E-09 3.31E-09 4.43E-09 2.72E-09 1.71E-09 6.63E-09
  6.72E-09 1.61E-09 9.97E-09 7.43E-08 4.85E-07 5.03E-06 1.11E-05
   0.0183 -0.4650  0.0517    1  5.24056E-04 kpt; spin; max resid(k); each band:
  1.92E-09 7.04E-09 3.35E-09 8.50E-09 3.05E-09 1.91E-09 3.53E-09 4.67E-09
  5.93E-09 8.83E-09 2.89E-09 8.58E-09 6.66E-09 5.31E-08 5.24E-04
   0.1850 -0.4650  0.0517    1  2.53061E-04 kpt; spin; max resid(k); each band:
  5.06E-09 4.83E-09 7.29E-09 2.75E-09 5.57E-09 8.77E-09 5.01E-09 1.68E-09
  7.58E-09 8.02E-09 8.81E-09 4.42E-08 8.64E-08 1.08E-06 2.53E-04
   0.3517 -0.4650  0.0517    1  2.88032E-05 kpt; spin; max resid(k); each band:
  2.97E-09 1.41E-09 3.81E-09 2.17E-09 1.51E-09 7.96E-09 4.10E-09 4.04E-09
  2.43E-09 6.29E-09 8.65E-09 2.88E-09 8.94E-09 9.55E-07 2.88E-05
  -0.4817 -0.4650  0.0517    1  1.50066E-04 kpt; spin; max resid(k); each band:
  2.95E-09 4.29E-09 2.90E-09 4.15E-09 3.43E-09 3.82E-09 6.27E-09 2.62E-09
  1.31E-09 9.40E-09 4.61E-09 5.46E-09 5.38E-09 2.68E-09 1.50E-04
  -0.3150 -0.4650  0.0517    1  1.99576E-06 kpt; spin; max resid(k); each band:
  5.35E-09 8.09E-09 3.09E-09 5.84E-09 4.86E-09 5.11E-09 8.07E-09 1.98E-09
  2.83E-09 4.61E-09 8.02E-09 3.27E-09 3.79E-08 1.27E-07 2.00E-06
  -0.1483 -0.4650  0.0517    1  4.76751E-05 kpt; spin; max resid(k); each band:
  3.45E-09 7.30E-09 9.56E-09 1.50E-09 6.94E-09 4.86E-09 3.24E-09 7.41E-09
  5.15E-09 3.37E-09 3.37E-09 2.48E-08 8.78E-08 9.83E-06 4.77E-05
   0.0183 -0.2983  0.0517    1  2.51645E-04 kpt; spin; max resid(k); each band:
  3.78E-09 2.05E-09 2.04E-09 1.80E-09 2.21E-09 9.76E-10 1.63E-09 7.58E-09
  8.63E-09 1.96E-09 1.64E-08 2.10E-06 1.64E-05 5.39E-05 2.52E-04
   0.1850 -0.2983  0.0517    1  8.50793E-04 kpt; spin; max resid(k); each band:
  6.91E-09 9.80E-09 5.54E-09 2.20E-09 3.92E-09 8.03E-09 6.21E-09 3.10E-09
  6.84E-09 3.70E-09 9.14E-08 4.20E-07 1.78E-06 5.58E-05 8.51E-04
   0.3517 -0.2983  0.0517    1  2.48256E-04 kpt; spin; max resid(k); each band:
  7.26E-09 1.85E-09 8.42E-09 6.14E-09 1.86E-09 1.82E-09 3.34E-09 9.62E-09
  2.87E-09 1.63E-09 8.04E-08 6.53E-07 3.10E-06 1.56E-04 2.48E-04
  -0.4817 -0.2983  0.0517    1  2.32263E-05 kpt; spin; max resid(k); each band:
  8.90E-09 5.98E-09 3.29E-09 2.93E-09 1.76E-09 2.44E-09 6.92E-09 6.89E-09
  5.80E-09 4.61E-09 7.24E-09 5.93E-09 1.13E-08 1.13E-07 2.32E-05
  -0.3150 -0.2983  0.0517    1  1.24501E-04 kpt; spin; max resid(k); each band:
  2.92E-09 4.94E-09 1.52E-09 2.67E-09 3.56E-09 8.92E-09 4.06E-09 3.10E-09
  7.79E-09 5.41E-09 5.54E-09 4.09E-08 3.59E-08 3.19E-06 1.25E-04
  -0.1483 -0.2983  0.0517    1  1.00664E-06 kpt; spin; max resid(k); each band:
  4.97E-09 3.23E-09 3.55E-09 3.65E-09 3.29E-09 3.39E-09 2.73E-09 6.65E-09
  4.15E-09 1.99E-09 5.00E-09 5.30E-09 7.81E-09 7.90E-07 1.01E-06
   0.0183 -0.1317  0.0517    1  6.42504E-06 kpt; spin; max resid(k); each band:
  8.47E-09 2.49E-09 1.82E-09 1.74E-09 3.20E-09 8.96E-09 6.99E-09 9.26E-10
  5.65E-09 5.65E-09 4.94E-09 6.26E-09 1.53E-08 2.78E-08 6.43E-06
   0.1850 -0.1317  0.0517    1  6.38754E-06 kpt; spin; max resid(k); each band:
  4.15E-09 2.95E-09 1.41E-09 3.88E-09 8.88E-09 2.08E-09 1.31E-09 3.55E-09
  2.77E-09 4.55E-09 1.82E-08 2.90E-09 2.00E-07 1.36E-06 6.39E-06
   0.3517 -0.1317  0.0517    1  2.58493E-04 kpt; spin; max resid(k); each band:
  2.92E-09 9.64E-10 1.41E-09 1.93E-09 8.94E-09 7.46E-09 2.25E-09 8.25E-09
  1.66E-09 4.42E-09 1.34E-08 2.25E-07 2.20E-06 1.41E-05 2.58E-04
  -0.4817 -0.1317  0.0517    1  5.94443E-04 kpt; spin; max resid(k); each band:
  4.49E-09 1.24E-09 9.37E-09 9.52E-09 3.39E-09 8.89E-09 6.34E-09 2.02E-09
  7.54E-09 1.56E-09 7.65E-09 4.41E-09 7.84E-09 4.71E-08 5.94E-04
  -0.3150 -0.1317  0.0517    1  2.35559E-05 kpt; spin; max resid(k); each band:
  3.27E-09 8.05E-09 7.99E-09 7.25E-09 3.96E-09 2.41E-09 3.24E-09 1.17E-09
  2.54E-09 4.77E-09 7.12E-09 3.30E-07 7.06E-07 1.11E-05 2.36E-05
  -0.1483 -0.1317  0.0517    1  1.14076E-04 kpt; spin; max resid(k); each band:
  6.10E-09 3.47E-09 3.75E-09 8.35E-09 2.66E-09 4.21E-09 9.92E-10 3.95E-09
  1.73E-09 4.60E-09 3.77E-09 5.50E-09 3.12E-09 1.04E-08 1.14E-04
   0.0183  0.0350  0.2183    1  5.16161E-04 kpt; spin; max resid(k); each band:
  7.55E-09 6.50E-09 4.01E-09 1.89E-09 2.89E-09 3.69E-09 4.46E-09 7.22E-09
  4.31E-09 8.26E-09 7.97E-09 7.86E-08 3.41E-07 6.37E-07 5.16E-04
   0.1850  0.0350  0.2183    1  6.30702E-04 kpt; spin; max resid(k); each band:
  6.80E-09 7.33E-09 6.63E-09 4.08E-09 7.83E-09 4.28E-09 1.49E-09 2.73E-09
  8.36E-09 2.31E-09 1.71E-09 2.52E-09 7.42E-09 6.56E-08 6.31E-04
   0.3517  0.0350  0.2183    1  1.89833E-04 kpt; spin; max resid(k); each band:
  4.57E-09 1.98E-09 3.27E-09 4.07E-09 4.52E-09 1.84E-09 3.84E-09 1.58E-09
  7.58E-09 2.46E-09 2.91E-08 7.33E-08 8.77E-07 3.68E-05 1.90E-04
  -0.4817  0.0350  0.2183    1  4.35248E-04 kpt; spin; max resid(k); each band:
  2.63E-09 8.56E-09 7.55E-09 3.03E-09 5.22E-09 1.29E-09 6.94E-09 2.95E-09
  1.88E-09 9.21E-09 9.26E-09 2.18E-08 1.31E-07 2.49E-05 4.35E-04
  -0.3150  0.0350  0.2183    1  4.94691E-05 kpt; spin; max resid(k); each band:
  2.64E-09 5.74E-09 8.83E-09 3.93E-09 9.80E-09 7.75E-09 9.21E-09 2.03E-09
  2.67E-09 5.51E-09 1.65E-08 5.03E-07 9.42E-07 9.21E-06 4.95E-05
  -0.1483  0.0350  0.2183    1  3.81419E-06 kpt; spin; max resid(k); each band:
  8.08E-09 2.80E-09 3.28E-09 8.10E-09 1.99E-09 1.96E-09 1.31E-09 5.78E-09
  6.98E-09 1.96E-09 2.09E-09 7.61E-09 1.85E-09 2.83E-08 3.81E-06
   0.0183  0.2017  0.2183    1  1.76584E-04 kpt; spin; max resid(k); each band:
  2.29E-09 2.29E-09 4.19E-09 1.53E-09 4.23E-09 1.43E-09 7.55E-09 2.40E-09
  4.91E-09 6.38E-09 2.38E-09 1.25E-08 2.58E-08 1.12E-07 1.77E-04
   0.1850  0.2017  0.2183    1  9.55288E-05 kpt; spin; max resid(k); each band:
  8.82E-09 3.84E-09 2.76E-09 4.30E-09 3.58E-09 7.48E-09 1.67E-09 3.21E-09
  7.38E-09 9.14E-09 8.78E-09 1.52E-08 7.84E-08 2.53E-07 9.55E-05
   0.3517  0.2017  0.2183    1  6.62086E-06 kpt; spin; max resid(k); each band:
  3.89E-09 8.75E-09 3.26E-09 6.55E-09 4.55E-09 1.54E-09 4.46E-09 3.48E-09
  6.37E-09 3.14E-09 2.57E-09 1.10E-08 9.83E-08 1.50E-06 6.62E-06
  -0.4817  0.2017  0.2183    1  1.71966E-04 kpt; spin; max resid(k); each band:
  5.63E-09 1.92E-09 3.78E-09 4.35E-09 5.65E-09 2.35E-09 3.83E-09 4.29E-09
  1.94E-09 4.00E-09 2.14E-08 2.70E-07 1.10E-06 4.36E-05 1.72E-04
  -0.3150  0.2017  0.2183    1  9.40480E-04 kpt; spin; max resid(k); each band:
  2.04E-09 3.27E-09 2.82E-09 4.50E-09 3.45E-09 1.45E-09 9.97E-09 3.63E-09
  9.75E-09 2.47E-09 3.26E-08 3.82E-08 6.30E-08 4.52E-05 9.40E-04
  -0.1483  0.2017  0.2183    1  5.36723E-04 kpt; spin; max resid(k); each band:
  9.72E-09 3.91E-09 2.60E-09 2.92E-09 2.86E-09 4.51E-09 6.42E-09 4.42E-09
  6.06E-09 7.33E-09 4.03E-09 2.17E-07 1.54E-06 6.14E-05 5.37E-04
   0.0183  0.3683  0.2183    1  1.41781E-04 kpt; spin; max resid(k); each band:
  3.82E-09 4.68E-09 2.85E-09 3.14E-09 2.40E-09 1.55E-09 9.67E-09 2.37E-09
  5.89E-09 3.28E-09 5.87E-09 1.22E-06 4.51E-06 1.60E-05 1.42E-04
   0.1850  0.3683  0.2183    1  4.05723E-05 kpt; spin; max resid(k); each band:
  3.92E-09 2.48E-09 4.84E-09 2.61E-09 1.70E-09 5.70E-09 4.48E-09 3.97E-09
  1.19E-09 3.30E-09 5.87E-09 5.73E-09 4.24E-07 1.17E-06 4.06E-05
 outwf : prtvol=0 or 1, do not print more k-points.

in cg_ncwrite with path: /home/fgoudreault/Workspace/abisuite/abisuite/unittests/test_workflows/test_files/abinit_si/nc/bse_ngkpt_convergence/nscfnosym_run/ngkpt_6_6_6/run/output_data/odat_ngkpt_6_6_6_WFK.nc
same layout Writing WFK file: /home/fgoudreault/Workspace/abisuite/abisuite/unittests/test_workflows/test_files/abinit_si/nc/bse_ngkpt_convergence/nscfnosym_run/ngkpt_6_6_6/run/output_data/odat_ngkpt_6_6_6_WFK.nc, with iomode: IO_MODE_ETSF, single writer: F
Using collective IO for the CGs
 collective ncwrite completed. cpu:  0.10 [s] , wall:  0.23 [s] <<< TIME
 prteigrs : about to open file /home/fgoudreault/Workspace/abisuite/abisuite/unittests/test_workflows/test_files/abinit_si/nc/bse_ngkpt_convergence/nscfnosym_run/ngkpt_6_6_6/run/output_data/odat_ngkpt_6_6_6_EIG
 Eigenvalues (hartree) for nkpt= 216  k points:
 kpt#   1, nband= 15, wtk=  0.00463, kpt=  0.0183  0.0350  0.0517 (reduced coord)
  -0.26427    0.17078    0.17544    0.17830    0.27217    0.27675    0.27762    0.31100
   0.45926    0.46565    0.46915    0.59043    0.59297    0.59934    0.74588
 kpt#   2, nband= 15, wtk=  0.00463, kpt=  0.1850  0.0350  0.0517 (reduced coord)
  -0.25247    0.09763    0.15132    0.16888    0.27237    0.28849    0.30220    0.37403
   0.42958    0.45463    0.50961    0.57185    0.64017    0.67062    0.81186
 kpt#   3, nband= 15, wtk=  0.00463, kpt=  0.3517  0.0350  0.0517 (reduced coord)
  -0.21575   -0.01287    0.13107    0.14615    0.25112    0.30427    0.31363    0.44210
   0.46181    0.49624    0.51730    0.66839    0.70941    0.74425    0.80090
 kpt#   4, nband= 15, wtk=  0.00463, kpt= -0.4817  0.0350  0.0517 (reduced coord)
  -0.17687   -0.08014    0.12650    0.13346    0.24196    0.29958    0.30450    0.46178
   0.54766    0.55899    0.59422    0.60937    0.61984    0.66668    0.89013
 kpt#   5, nband= 15, wtk=  0.00463, kpt= -0.3150  0.0350  0.0517 (reduced coord)
  -0.20979   -0.02515    0.13267    0.14049    0.24921    0.30161    0.31468    0.44350
   0.48060    0.49805    0.52593    0.67981    0.69770    0.73082    0.80065
 kpt#   6, nband= 15, wtk=  0.00463, kpt= -0.1483  0.0350  0.0517 (reduced coord)
  -0.24909    0.08306    0.15081    0.16273    0.26910    0.29063    0.30949    0.38367
   0.42955    0.45463    0.51438    0.57396    0.65603    0.68276    0.82705
 kpt#   7, nband= 15, wtk=  0.00463, kpt=  0.0183  0.2017  0.0517 (reduced coord)
  -0.24891    0.08229    0.15045    0.16290    0.26896    0.29094    0.30940    0.38440
   0.42950    0.45455    0.51449    0.57416    0.65668    0.68372    0.82688
 kpt#   8, nband= 15, wtk=  0.00463, kpt=  0.1850  0.2017  0.0517 (reduced coord)
  -0.24604    0.09558    0.13257    0.13901    0.24508    0.32651    0.33884    0.34703
   0.42851    0.48330    0.53519    0.60763    0.62882    0.66406    0.85676
 kpt#   9, nband= 15, wtk=  0.00463, kpt=  0.3517  0.2017  0.0517 (reduced coord)
  -0.21711    0.01977    0.09353    0.11941    0.25167    0.32197    0.34356    0.37534
   0.49073    0.53731    0.57029    0.64085    0.68724    0.74638    0.75877
 kpt#  10, nband= 15, wtk=  0.00463, kpt= -0.4817  0.2017  0.0517 (reduced coord)
  -0.17191   -0.06274    0.06934    0.10878    0.25718    0.32284    0.36678    0.40285
   0.52328    0.56607    0.60136    0.63326    0.65955    0.78397    0.83061
 kpt#  11, nband= 15, wtk=  0.00463, kpt= -0.3150  0.2017  0.0517 (reduced coord)
  -0.18122   -0.04846    0.05989    0.12316    0.27338    0.31294    0.35977    0.42153
   0.48344    0.51820    0.60138    0.66833    0.71717    0.74968    0.79306
 kpt#  12, nband= 15, wtk=  0.00463, kpt= -0.1483  0.2017  0.0517 (reduced coord)
  -0.22533    0.03394    0.08312    0.15027    0.29448    0.29795    0.34301    0.36530
   0.42509    0.53956    0.56791    0.60686    0.68014    0.74316    0.77619
 kpt#  13, nband= 15, wtk=  0.00463, kpt=  0.0183  0.3683  0.0517 (reduced coord)
  -0.20949   -0.02578    0.13235    0.14075    0.24901    0.30175    0.31436    0.44457
   0.47996    0.49843    0.52674    0.67972    0.69764    0.73016    0.79983
 kpt#  14, nband= 15, wtk=  0.00463, kpt=  0.1850  0.3683  0.0517 (reduced coord)
  -0.21391    0.00804    0.09410    0.12170    0.25832    0.32864    0.34050    0.36660
   0.49334    0.54632    0.55734    0.64844    0.69062    0.74656    0.76314
 kpt#  15, nband= 15, wtk=  0.00463, kpt=  0.3517  0.3683  0.0517 (reduced coord)
  -0.19294   -0.00775    0.08430    0.08923    0.20771    0.25243    0.43801    0.44526
   0.54658    0.55478    0.64325    0.67396    0.68809    0.72897    0.76619
 kpt#  16, nband= 15, wtk=  0.00463, kpt= -0.4817  0.3683  0.0517 (reduced coord)
  -0.15027   -0.06333    0.04643    0.07747    0.22067    0.26694    0.43896    0.48383
   0.55319    0.60183    0.61935    0.66790    0.72440    0.74050    0.77994
 kpt#  17, nband= 15, wtk=  0.00463, kpt= -0.3150  0.3683  0.0517 (reduced coord)
  -0.13789   -0.07569    0.01330    0.09228    0.23880    0.37825    0.41172    0.43193
   0.46139    0.49539    0.71422    0.72743    0.73439    0.78334    0.78652
 kpt#  18, nband= 15, wtk=  0.00463, kpt= -0.1483  0.3683  0.0517 (reduced coord)
  -0.18114   -0.04901    0.06070    0.12323    0.27339    0.31226    0.35892    0.42261
   0.48447    0.51800    0.60057    0.66783    0.71616    0.75009    0.79258
 kpt#  19, nband= 15, wtk=  0.00463, kpt=  0.0183 -0.4650  0.0517 (reduced coord)
  -0.17693   -0.08007    0.12662    0.13348    0.24188    0.29957    0.30450    0.46173
   0.54703    0.55964    0.59445    0.60876    0.62002    0.66685    0.91560
 kpt#  20, nband= 15, wtk=  0.00463, kpt=  0.1850 -0.4650  0.0517 (reduced coord)
  -0.16976   -0.06989    0.07437    0.11284    0.26144    0.31237    0.35559    0.42853
   0.51113    0.55731    0.60484    0.62292    0.66847    0.76219    0.84522
 kpt#  21, nband= 15, wtk=  0.00463, kpt=  0.3517 -0.4650  0.0517 (reduced coord)
  -0.14860   -0.06528    0.03902    0.08026    0.22451    0.28812    0.42411    0.47096
   0.53742    0.59147    0.62680    0.68082    0.71423    0.75327    0.79751
 kpt#  22, nband= 15, wtk=  0.00463, kpt= -0.4817 -0.4650  0.0517 (reduced coord)
  -0.11079   -0.10930    0.06689    0.07278    0.20264    0.20971    0.54262    0.54591
   0.57349    0.57608    0.65233    0.65392    0.66782    0.67486    0.86068
 kpt#  23, nband= 15, wtk=  0.00463, kpt= -0.3150 -0.4650  0.0517 (reduced coord)
  -0.15106   -0.06244    0.04670    0.07766    0.22084    0.26722    0.43792    0.48270
   0.55429    0.60219    0.61884    0.66667    0.72400    0.74002    0.78064
 kpt#  24, nband= 15, wtk=  0.00463, kpt= -0.1483 -0.4650  0.0517 (reduced coord)
  -0.17242   -0.06241    0.07017    0.10913    0.25749    0.32208    0.36588    0.40320
   0.52349    0.56595    0.60071    0.63366    0.65840    0.78313    0.82832
 kpt#  25, nband= 15, wtk=  0.00463, kpt=  0.0183 -0.2983  0.0517 (reduced coord)
  -0.21607   -0.01221    0.13147    0.14605    0.25116    0.30407    0.31391    0.44099
   0.46262    0.49574    0.51645    0.66783    0.71002    0.74454    0.80091
 kpt#  26, nband= 15, wtk=  0.00463, kpt=  0.1850 -0.2983  0.0517 (reduced coord)
  -0.18974   -0.03880    0.06875    0.12857    0.27765    0.30635    0.35116    0.41300
   0.47507    0.53209    0.60643    0.63846    0.71727    0.74817    0.79618
 kpt#  27, nband= 15, wtk=  0.00463, kpt=  0.3517 -0.2983  0.0517 (reduced coord)
  -0.14613   -0.06797    0.01429    0.09754    0.24486    0.38658    0.41440    0.42028
   0.44896    0.48402    0.70259    0.72154    0.73566    0.79221    0.79892
 kpt#  28, nband= 15, wtk=  0.00463, kpt= -0.4817 -0.2983  0.0517 (reduced coord)
  -0.14936   -0.06448    0.03935    0.08045    0.22470    0.28837    0.42309    0.46984
   0.53854    0.59242    0.62563    0.67958    0.71301    0.75360    0.79810
 kpt#  29, nband= 15, wtk=  0.00463, kpt= -0.3150 -0.2983  0.0517 (reduced coord)
  -0.19363   -0.00668    0.08465    0.08957    0.20794    0.25316    0.43691    0.44413
   0.54551    0.55366    0.64277    0.67434    0.68769    0.72846    0.76644
 kpt#  30, nband= 15, wtk=  0.00463, kpt= -0.1483 -0.2983  0.0517 (reduced coord)
  -0.21763    0.02054    0.09411    0.12007    0.25208    0.32260    0.34286    0.37435
   0.48959    0.53607    0.56954    0.64000    0.68701    0.74670    0.75910
 kpt#  31, nband= 15, wtk=  0.00463, kpt=  0.0183 -0.1317  0.0517 (reduced coord)
  -0.25265    0.09841    0.15179    0.16879    0.27236    0.28819    0.30221    0.37331
   0.42981    0.45466    0.50922    0.57179    0.63973    0.66953    0.81110
 kpt#  32, nband= 15, wtk=  0.00463, kpt=  0.1850 -0.1317  0.0517 (reduced coord)
  -0.23223    0.04858    0.09453    0.15484    0.28750    0.29954    0.33473    0.36693
   0.42442    0.51559    0.55937    0.60069    0.66356    0.75548    0.77051
 kpt#  33, nband= 15, wtk=  0.00463, kpt=  0.3517 -0.1317  0.0517 (reduced coord)
  -0.18964   -0.03940    0.06957    0.12861    0.27752    0.30582    0.35038    0.41405
   0.47609    0.53158    0.60601    0.63797    0.71714    0.74790    0.79491
 kpt#  34, nband= 15, wtk=  0.00463, kpt= -0.4817 -0.1317  0.0517 (reduced coord)
  -0.17018   -0.06968    0.07521    0.11316    0.26168    0.31168    0.35472    0.42885
   0.51141    0.55753    0.60403    0.62323    0.66708    0.76159    0.84444
 kpt#  35, nband= 15, wtk=  0.00463, kpt= -0.3150 -0.1317  0.0517 (reduced coord)
  -0.21442    0.00874    0.09472    0.12235    0.25874    0.32787    0.34118    0.36571
   0.49214    0.54502    0.55665    0.64785    0.69080    0.74711    0.76317
 kpt#  36, nband= 15, wtk=  0.00463, kpt= -0.1483 -0.1317  0.0517 (reduced coord)
  -0.24640    0.09654    0.13315    0.13966    0.24555    0.32594    0.33787    0.34735
   0.42775    0.48284    0.53409    0.60703    0.62823    0.66334    0.85467
 kpt#  37, nband= 15, wtk=  0.00463, kpt=  0.0183  0.0350  0.2183 (reduced coord)
  -0.24539    0.06694    0.15070    0.16098    0.26299    0.29752    0.30875    0.39941
   0.43177    0.45052    0.51294    0.58047    0.67602    0.69641    0.83796
 kpt#  38, nband= 15, wtk=  0.00463, kpt=  0.1850  0.0350  0.2183 (reduced coord)
  -0.24244    0.08754    0.12543    0.13343    0.23936    0.32833    0.34767    0.34904
   0.43626    0.48865    0.54641    0.61742    0.63182    0.66890    0.86713
 kpt#  39, nband= 15, wtk=  0.00463, kpt=  0.3517  0.0350  0.2183 (reduced coord)
  -0.21350    0.01739    0.09198    0.11018    0.24058    0.30695    0.36251    0.38724
   0.50761    0.53774    0.58283    0.65030    0.68471    0.73970    0.76076
 kpt#  40, nband= 15, wtk=  0.00463, kpt= -0.4817  0.0350  0.2183 (reduced coord)
  -0.16830   -0.06229    0.06034    0.10493    0.24745    0.34310    0.37587    0.38685
   0.53132    0.56983    0.61242    0.63196    0.66026    0.79832    0.83726
 kpt#  41, nband= 15, wtk=  0.00463, kpt= -0.3150  0.0350  0.2183 (reduced coord)
  -0.17797   -0.04771    0.04804    0.12237    0.26577    0.33237    0.36552    0.42521
   0.46729    0.50843    0.61160    0.68800    0.72617    0.75050    0.79030
 kpt#  42, nband= 15, wtk=  0.00463, kpt= -0.1483  0.0350  0.2183 (reduced coord)
  -0.22196    0.02537    0.07914    0.15068    0.29133    0.30561    0.33877    0.37571
   0.41816    0.55127    0.56613    0.61247    0.68803    0.73338    0.78778
 kpt#  43, nband= 15, wtk=  0.00463, kpt=  0.0183  0.2017  0.2183 (reduced coord)
  -0.23884    0.08091    0.12247    0.12451    0.23136    0.32041    0.35904    0.36027
   0.44347    0.49467    0.55780    0.63152    0.63695    0.66446    0.86100
 kpt#  44, nband= 15, wtk=  0.00463, kpt=  0.1850  0.2017  0.2183 (reduced coord)
  -0.24521    0.06617    0.15107    0.16065    0.26256    0.29786    0.30870    0.40024
   0.43224    0.44996    0.51267    0.58090    0.67736    0.69667    0.83713
 kpt#  45, nband= 15, wtk=  0.00463, kpt=  0.3517  0.2017  0.2183 (reduced coord)
  -0.22508    0.02744    0.08880    0.15464    0.28672    0.30912    0.32573    0.38917
   0.41207    0.53761    0.55432    0.61514    0.68575    0.74462    0.78106
 kpt#  46, nband= 15, wtk=  0.00463, kpt= -0.4817  0.2017  0.2183 (reduced coord)
  -0.18279   -0.03833    0.04453    0.12649    0.26513    0.34447    0.36060    0.42189
   0.44237    0.51932    0.61987    0.67821    0.71128    0.77255    0.79304
 kpt#  47, nband= 15, wtk=  0.00463, kpt= -0.3150  0.2017  0.2183 (reduced coord)
  -0.16262   -0.06826    0.05411    0.10568    0.24373    0.35344    0.37285    0.39542
   0.52679    0.55088    0.62133    0.64054    0.67110    0.80149    0.85288
 kpt#  48, nband= 15, wtk=  0.00463, kpt= -0.1483  0.2017  0.2183 (reduced coord)
  -0.20687    0.00519    0.08770    0.10485    0.23749    0.30533    0.37062    0.38972
   0.52950    0.54585    0.58367    0.66505    0.67998    0.73516    0.76441
 kpt#  49, nband= 15, wtk=  0.00463, kpt=  0.0183  0.3683  0.2183 (reduced coord)
  -0.20672    0.00469    0.08748    0.10503    0.23797    0.30615    0.36964    0.38945
   0.52903    0.54708    0.58302    0.66469    0.68031    0.73522    0.76410
 kpt#  50, nband= 15, wtk=  0.00463, kpt=  0.1850  0.3683  0.2183 (reduced coord)
  -0.22162    0.02469    0.07857    0.15067    0.29091    0.30665    0.33845    0.37662
   0.41733    0.55252    0.56633    0.61275    0.68853    0.73254    0.78892
 prteigrs : prtvol=0 or 1, do not print more k-points.

 Total charge density [el/Bohr^3]
      Maximum=    8.5762E-02  at reduced coord.    0.1250    0.1250    0.6250
 Next maximum=    8.5762E-02  at reduced coord.    0.1250    0.6250    0.1250
      Minimum=    1.1951E-03  at reduced coord.    0.0000    0.0000    0.0000
 Next minimum=    1.1951E-03  at reduced coord.    0.2500    0.2500    0.2500
   Integrated=    8.0000E+00

== END DATASET(S) ==============================================================
================================================================================
  
 -outvars: echo values of variables after computation  --------
 
 These variables are accessible in NetCDF format (/home/fgoudreault/Workspace/abisuite/abisuite/unittests/test_workflows/test_files/abinit_si/nc/bse_ngkpt_convergence/nscfnosym_run/ngkpt_6_6_6/run/output_data/odat_ngkpt_6_6_6_OUT.nc)

            acell      7.2078778121E+00  7.2078778121E+00  7.2078778121E+00 Bohr
              amu      2.80855000E+01
      chksymbreak           0
           diemac      1.20000000E+01
             ecut      1.20000000E+01 Hartree
-          fftalg         112
           irdden           1
             iscf          -2
              ixc       -1012
              kpt      1.83333333E-02  3.50000000E-02  5.16666667E-02
                       1.85000000E-01  3.50000000E-02  5.16666667E-02
                       3.51666667E-01  3.50000000E-02  5.16666667E-02
                      -4.81666667E-01  3.50000000E-02  5.16666667E-02
                      -3.15000000E-01  3.50000000E-02  5.16666667E-02
                      -1.48333333E-01  3.50000000E-02  5.16666667E-02
                       1.83333333E-02  2.01666667E-01  5.16666667E-02
                       1.85000000E-01  2.01666667E-01  5.16666667E-02
                       3.51666667E-01  2.01666667E-01  5.16666667E-02
                      -4.81666667E-01  2.01666667E-01  5.16666667E-02
                      -3.15000000E-01  2.01666667E-01  5.16666667E-02
                      -1.48333333E-01  2.01666667E-01  5.16666667E-02
                       1.83333333E-02  3.68333333E-01  5.16666667E-02
                       1.85000000E-01  3.68333333E-01  5.16666667E-02
                       3.51666667E-01  3.68333333E-01  5.16666667E-02
                      -4.81666667E-01  3.68333333E-01  5.16666667E-02
                      -3.15000000E-01  3.68333333E-01  5.16666667E-02
                      -1.48333333E-01  3.68333333E-01  5.16666667E-02
                       1.83333333E-02 -4.65000000E-01  5.16666667E-02
                       1.85000000E-01 -4.65000000E-01  5.16666667E-02
                       3.51666667E-01 -4.65000000E-01  5.16666667E-02
                      -4.81666667E-01 -4.65000000E-01  5.16666667E-02
                      -3.15000000E-01 -4.65000000E-01  5.16666667E-02
                      -1.48333333E-01 -4.65000000E-01  5.16666667E-02
                       1.83333333E-02 -2.98333333E-01  5.16666667E-02
                       1.85000000E-01 -2.98333333E-01  5.16666667E-02
                       3.51666667E-01 -2.98333333E-01  5.16666667E-02
                      -4.81666667E-01 -2.98333333E-01  5.16666667E-02
                      -3.15000000E-01 -2.98333333E-01  5.16666667E-02
                      -1.48333333E-01 -2.98333333E-01  5.16666667E-02
                       1.83333333E-02 -1.31666667E-01  5.16666667E-02
                       1.85000000E-01 -1.31666667E-01  5.16666667E-02
                       3.51666667E-01 -1.31666667E-01  5.16666667E-02
                      -4.81666667E-01 -1.31666667E-01  5.16666667E-02
                      -3.15000000E-01 -1.31666667E-01  5.16666667E-02
                      -1.48333333E-01 -1.31666667E-01  5.16666667E-02
                       1.83333333E-02  3.50000000E-02  2.18333333E-01
                       1.85000000E-01  3.50000000E-02  2.18333333E-01
                       3.51666667E-01  3.50000000E-02  2.18333333E-01
                      -4.81666667E-01  3.50000000E-02  2.18333333E-01
                      -3.15000000E-01  3.50000000E-02  2.18333333E-01
                      -1.48333333E-01  3.50000000E-02  2.18333333E-01
                       1.83333333E-02  2.01666667E-01  2.18333333E-01
                       1.85000000E-01  2.01666667E-01  2.18333333E-01
                       3.51666667E-01  2.01666667E-01  2.18333333E-01
                      -4.81666667E-01  2.01666667E-01  2.18333333E-01
                      -3.15000000E-01  2.01666667E-01  2.18333333E-01
                      -1.48333333E-01  2.01666667E-01  2.18333333E-01
                       1.83333333E-02  3.68333333E-01  2.18333333E-01
                       1.85000000E-01  3.68333333E-01  2.18333333E-01
                       outvar_i_n : Printing only first  50 k-points.
         kptrlatt        6    0    0      0    6    0      0    0    6
          kptrlen      4.32472669E+01
P           mkmem          54
            natom           2
            nband          15
           nbdbuf           5
            ngfft          24      24      24
             nkpt         216
             nsym          48
           ntypat           1
            rprim      0.0000000000E+00  7.0710678119E-01  7.0710678119E-01
                       7.0710678119E-01  0.0000000000E+00  7.0710678119E-01
                       7.0710678119E-01  7.0710678119E-01  0.0000000000E+00
           shiftk      1.10000000E-01  2.10000000E-01  3.10000000E-01
          spgroup         227
           symrel      1  0  0   0  1  0   0  0  1      -1  0  0   0 -1  0   0  0 -1
                       0 -1  1   0 -1  0   1 -1  0       0  1 -1   0  1  0  -1  1  0
                      -1  0  0  -1  0  1  -1  1  0       1  0  0   1  0 -1   1 -1  0
                       0  1 -1   1  0 -1   0  0 -1       0 -1  1  -1  0  1   0  0  1
                      -1  0  0  -1  1  0  -1  0  1       1  0  0   1 -1  0   1  0 -1
                       0 -1  1   1 -1  0   0 -1  0       0  1 -1  -1  1  0   0  1  0
                       1  0  0   0  0  1   0  1  0      -1  0  0   0  0 -1   0 -1  0
                       0  1 -1   0  0 -1   1  0 -1       0 -1  1   0  0  1  -1  0  1
                      -1  0  1  -1  1  0  -1  0  0       1  0 -1   1 -1  0   1  0  0
                       0 -1  0   1 -1  0   0 -1  1       0  1  0  -1  1  0   0  1 -1
                       1  0 -1   0  0 -1   0  1 -1      -1  0  1   0  0  1   0 -1  1
                       0  1  0   0  0  1   1  0  0       0 -1  0   0  0 -1  -1  0  0
                       1  0 -1   0  1 -1   0  0 -1      -1  0  1   0 -1  1   0  0  1
                       0 -1  0   0 -1  1   1 -1  0       0  1  0   0  1 -1  -1  1  0
                      -1  0  1  -1  0  0  -1  1  0       1  0 -1   1  0  0   1 -1  0
                       0  1  0   1  0  0   0  0  1       0 -1  0  -1  0  0   0  0 -1
                       0  0 -1   0  1 -1   1  0 -1       0  0  1   0 -1  1  -1  0  1
                       1 -1  0   0 -1  1   0 -1  0      -1  1  0   0  1 -1   0  1  0
                       0  0  1   1  0  0   0  1  0       0  0 -1  -1  0  0   0 -1  0
                      -1  1  0  -1  0  0  -1  0  1       1 -1  0   1  0  0   1  0 -1
                       0  0  1   0  1  0   1  0  0       0  0 -1   0 -1  0  -1  0  0
                       1 -1  0   0 -1  0   0 -1  1      -1  1  0   0  1  0   0  1 -1
                       0  0 -1   1  0 -1   0  1 -1       0  0  1  -1  0  1   0 -1  1
                      -1  1  0  -1  0  1  -1  0  0       1 -1  0   1  0 -1   1  0  0
            tnons      0.0000000  0.0000000  0.0000000     0.2500000  0.2500000  0.2500000
                       0.0000000  0.0000000  0.0000000     0.2500000  0.2500000  0.2500000
                       0.0000000  0.0000000  0.0000000     0.2500000  0.2500000  0.2500000
                       0.0000000  0.0000000  0.0000000     0.2500000  0.2500000  0.2500000
                       0.0000000  0.0000000  0.0000000     0.2500000  0.2500000  0.2500000
                       0.0000000  0.0000000  0.0000000     0.2500000  0.2500000  0.2500000
                       0.0000000  0.0000000  0.0000000     0.2500000  0.2500000  0.2500000
                       0.0000000  0.0000000  0.0000000     0.2500000  0.2500000  0.2500000
                       0.0000000  0.0000000  0.0000000     0.2500000  0.2500000  0.2500000
                       0.0000000  0.0000000  0.0000000     0.2500000  0.2500000  0.2500000
                       0.0000000  0.0000000  0.0000000     0.2500000  0.2500000  0.2500000
                       0.0000000  0.0000000  0.0000000     0.2500000  0.2500000  0.2500000
                       0.0000000  0.0000000  0.0000000     0.2500000  0.2500000  0.2500000
                       0.0000000  0.0000000  0.0000000     0.2500000  0.2500000  0.2500000
                       0.0000000  0.0000000  0.0000000     0.2500000  0.2500000  0.2500000
                       0.0000000  0.0000000  0.0000000     0.2500000  0.2500000  0.2500000
                       0.0000000  0.0000000  0.0000000     0.2500000  0.2500000  0.2500000
                       0.0000000  0.0000000  0.0000000     0.2500000  0.2500000  0.2500000
                       0.0000000  0.0000000  0.0000000     0.2500000  0.2500000  0.2500000
                       0.0000000  0.0000000  0.0000000     0.2500000  0.2500000  0.2500000
                       0.0000000  0.0000000  0.0000000     0.2500000  0.2500000  0.2500000
                       0.0000000  0.0000000  0.0000000     0.2500000  0.2500000  0.2500000
                       0.0000000  0.0000000  0.0000000     0.2500000  0.2500000  0.2500000
                       0.0000000  0.0000000  0.0000000     0.2500000  0.2500000  0.2500000
           tolwfr      1.00000000E-08
            typat      1  1
              wtk        0.00463    0.00463    0.00463    0.00463    0.00463    0.00463
                         0.00463    0.00463    0.00463    0.00463    0.00463    0.00463
                         0.00463    0.00463    0.00463    0.00463    0.00463    0.00463
                         0.00463    0.00463    0.00463    0.00463    0.00463    0.00463
                         0.00463    0.00463    0.00463    0.00463    0.00463    0.00463
                         0.00463    0.00463    0.00463    0.00463    0.00463    0.00463
                         0.00463    0.00463    0.00463    0.00463    0.00463    0.00463
                         0.00463    0.00463    0.00463    0.00463    0.00463    0.00463
                         0.00463    0.00463
                       outvars : Printing only first  50 k-points.
           xangst      0.0000000000E+00  0.0000000000E+00  0.0000000000E+00
                       1.3485391323E+00  1.3485391323E+00  1.3485391323E+00
            xcart      0.0000000000E+00  0.0000000000E+00  0.0000000000E+00
                       2.5483696395E+00  2.5483696395E+00  2.5483696395E+00
             xred      0.0000000000E+00  0.0000000000E+00  0.0000000000E+00
                       2.5000000000E-01  2.5000000000E-01  2.5000000000E-01
            znucl       14.00000

================================================================================
  

================================================================================

 Suggested references for the acknowledgment of ABINIT usage.

 The users of ABINIT have little formal obligations with respect to the ABINIT group
 (those specified in the GNU General Public License, http://www.gnu.org/copyleft/gpl.txt).
 However, it is common practice in the scientific literature,
 to acknowledge the efforts of people that have made the research possible.
 In this spirit, please find below suggested citations of work written by ABINIT developers,
 corresponding to implementations inside of ABINIT that you have used in the present run.
 Note also that it will be of great value to readers of publications presenting these results,
 to read papers enabling them to understand the theoretical formalism and details
 of the ABINIT implementation.
 For information on why they are suggested, see also https://docs.abinit.org/theory/acknowledgments.
-
- [1] Specification of an extensible and portable file format for electronic structure and crystallographic data
- X. Gonze, C.-O. Almbladh, A. Cucca, D. Caliste, C. Freysoldt, M. Marques, V. Olevano, Y. Pouillon, M.J. Verstraete,
- Comput. Material Science 43, 1056 (2008).
- Comment: to be cited in case the ETSF_IO file format is used, i.e. iomode=3.
- DOI and bibtex: see https://docs.abinit.org/theory/bibliography/#gonze2008
-
- [2] Libxc: A library of exchange and correlation functionals for density functional theory.
- M.A.L. Marques, M.J.T. Oliveira, T. Burnus, Computer Physics Communications 183, 2227 (2012).
- Comment: to be cited when LibXC is used (negative value of ixc)
- Strong suggestion to cite this paper.
- DOI and bibtex: see https://docs.abinit.org/theory/bibliography/#marques2012
-
- [3] The Abinit project: Impact, environment and recent developments.
- Computer Phys. Comm. 248, 107042 (2020).
- X.Gonze, B. Amadon, G. Antonius, F.Arnardi, L.Baguet, J.-M.Beuken,
- J.Bieder, F.Bottin, J.Bouchet, E.Bousquet, N.Brouwer, F.Bruneval,
- G.Brunin, T.Cavignac, J.-B. Charraud, Wei Chen, M.Cote, S.Cottenier,
- J.Denier, G.Geneste, Ph.Ghosez, M.Giantomassi, Y.Gillet, O.Gingras,
- D.R.Hamann, G.Hautier, Xu He, N.Helbig, N.Holzwarth, Y.Jia, F.Jollet,
- W.Lafargue-Dit-Hauret, K.Lejaeghere, M.A.L.Marques, A.Martin, C.Martins,
- H.P.C. Miranda, F.Naccarato, K. Persson, G.Petretto, V.Planes, Y.Pouillon,
- S.Prokhorenko, F.Ricci, G.-M.Rignanese, A.H.Romero, M.M.Schmitt, M.Torrent,
- M.J.van Setten, B.Van Troeye, M.J.Verstraete, G.Zerah and J.W.Zwanzig
- Comment: the fifth generic paper describing the ABINIT project.
- Note that a version of this paper, that is not formatted for Computer Phys. Comm. 
- is available at https://www.abinit.org/sites/default/files/ABINIT20.pdf .
- The licence allows the authors to put it on the Web.
- DOI and bibtex: see https://docs.abinit.org/theory/bibliography/#gonze2020
-
- [4] Optimized norm-conserving Vanderbilt pseudopotentials.
- D.R. Hamann, Phys. Rev. B 88, 085117 (2013).
- Comment: Some pseudopotential generated using the ONCVPSP code were used.
- DOI and bibtex: see https://docs.abinit.org/theory/bibliography/#hamann2013
-
- [5] ABINIT: Overview, and focus on selected capabilities
- J. Chem. Phys. 152, 124102 (2020).
- A. Romero, D.C. Allan, B. Amadon, G. Antonius, T. Applencourt, L.Baguet,
- J.Bieder, F.Bottin, J.Bouchet, E.Bousquet, F.Bruneval,
- G.Brunin, D.Caliste, M.Cote,
- J.Denier, C. Dreyer, Ph.Ghosez, M.Giantomassi, Y.Gillet, O.Gingras,
- D.R.Hamann, G.Hautier, F.Jollet, G. Jomard,
- A.Martin, 
- H.P.C. Miranda, F.Naccarato, G.Petretto, N.A. Pike, V.Planes,
- S.Prokhorenko, T. Rangel, F.Ricci, G.-M.Rignanese, M.Royo, M.Stengel, M.Torrent,
- M.J.van Setten, B.Van Troeye, M.J.Verstraete, J.Wiktor, J.W.Zwanziger, and X.Gonze.
- Comment: a global overview of ABINIT, with focus on selected capabilities .
- Note that a version of this paper, that is not formatted for J. Chem. Phys 
- is available at https://www.abinit.org/sites/default/files/ABINIT20_JPC.pdf .
- The licence allows the authors to put it on the Web.
- DOI and bibtex: see https://docs.abinit.org/theory/bibliography/#romero2020
-
- [6] Recent developments in the ABINIT software package.
- Computer Phys. Comm. 205, 106 (2016).
- X.Gonze, F.Jollet, F.Abreu Araujo, D.Adams, B.Amadon, T.Applencourt,
- C.Audouze, J.-M.Beuken, J.Bieder, A.Bokhanchuk, E.Bousquet, F.Bruneval
- D.Caliste, M.Cote, F.Dahm, F.Da Pieve, M.Delaveau, M.Di Gennaro,
- B.Dorado, C.Espejo, G.Geneste, L.Genovese, A.Gerossier, M.Giantomassi,
- Y.Gillet, D.R.Hamann, L.He, G.Jomard, J.Laflamme Janssen, S.Le Roux,
- A.Levitt, A.Lherbier, F.Liu, I.Lukacevic, A.Martin, C.Martins,
- M.J.T.Oliveira, S.Ponce, Y.Pouillon, T.Rangel, G.-M.Rignanese,
- A.H.Romero, B.Rousseau, O.Rubel, A.A.Shukri, M.Stankovski, M.Torrent,
- M.J.Van Setten, B.Van Troeye, M.J.Verstraete, D.Waroquier, J.Wiktor,
- B.Xu, A.Zhou, J.W.Zwanziger.
- Comment: the fourth generic paper describing the ABINIT project.
- Note that a version of this paper, that is not formatted for Computer Phys. Comm. 
- is available at https://www.abinit.org/sites/default/files/ABINIT16.pdf .
- The licence allows the authors to put it on the Web.
- DOI and bibtex: see https://docs.abinit.org/theory/bibliography/#gonze2016
 Proc.   0 individual time (sec): cpu=         80.2  wall=         45.6

 Calculation completed.
.Delivered   0 WARNINGs and   0 COMMENTs to log file.

--- !FinalSummary
program: abinit
version: 9.5.1
start_datetime: Sun Nov 28 21:11:16 2021
end_datetime: Sun Nov 28 21:12:02 2021
overall_cpu_time:         333.9
overall_wall_time:         182.4
exit_requested_by_user: no 
timelimit: 0
pseudos: 
    Si  : 9cf3649cb539efbe8c67e8db9d375af0
usepaw: 0
mpi_procs: 4
omp_threads: 1
num_warnings: 0
num_comments: 0
...
