
     Program PWSCF v.6.7GPU starts on  6May2021 at 14:37:35 

     This program is part of the open-source Quantum ESPRESSO suite
     for quantum simulation of materials; please cite
         "P. Giannozzi et al., J. Phys.:Condens. Matter 21 395502 (2009);
         "P. Giannozzi et al., J. Phys.:Condens. Matter 29 465901 (2017);
         "P. Giannozzi et al., J. Chem. Phys. 152 154105 (2020);
          URL http://www.quantum-espresso.org", 
     in publications or presentations arising from this work. More details at
     http://www.quantum-espresso.org/quote

     Parallel version (MPI), running on     4 processors

     MPI processes distributed on     1 nodes
     K-points division:     npool     =       4
     Reading input from /home/fgoudreault/Workspace/abisuite/abisuite/unittests/test_workflows/test_files/qe_Pb/phonon_smearing_convergence/scf_runs/degauss0.1/k_points8_8_8/k_points8_8_8.in

     Current dimensions of program PWSCF are:
     Max number of different atomic species (ntypx) = 10
     Max number of k-points (npk) =  40000
     Max angular momentum in pseudopotentials (lmaxx) =  3

     Subspace diagonalization in iterative solution of the eigenvalue problem:
     a serial algorithm will be used


     G-vector sticks info
     --------------------
     sticks:   dense  smooth     PW     G-vecs:    dense   smooth      PW
     Sum         241     241     85                 2421     2421     537

     Using Slab Decomposition



     bravais-lattice index     =            2
     lattice parameter (alat)  =       9.2816  a.u.
     unit-cell volume          =     199.9007 (a.u.)^3
     number of atoms/cell      =            1
     number of atomic types    =            1
     number of electrons       =        14.00
     number of Kohn-Sham states=           11
     kinetic-energy cutoff     =      20.0000  Ry
     charge density cutoff     =      80.0000  Ry
     scf convergence threshold =      1.0E-08
     mixing beta               =       0.7000
     number of iterations used =            8  plain     mixing
     Exchange-correlation= PZ
                           (   1   1   0   0   0   0   0)

     celldm(1)=   9.281641  celldm(2)=   0.000000  celldm(3)=   0.000000
     celldm(4)=   0.000000  celldm(5)=   0.000000  celldm(6)=   0.000000

     crystal axes: (cart. coord. in units of alat)
               a(1) = (  -0.500000   0.000000   0.500000 )  
               a(2) = (   0.000000   0.500000   0.500000 )  
               a(3) = (  -0.500000   0.500000   0.000000 )  

     reciprocal axes: (cart. coord. in units 2 pi/alat)
               b(1) = ( -1.000000 -1.000000  1.000000 )  
               b(2) = (  1.000000  1.000000  1.000000 )  
               b(3) = ( -1.000000  1.000000 -1.000000 )  


     PseudoPot. # 1 for Pb read from file:
     /home/fgoudreault/Workspace/abisuite/abisuite/unittests/test_workflows/test_files/pseudos/pb_s.UPF
     MD5 check sum: 7774f596943a2055f0d8d19eea6f2ae8
     Pseudo is Norm-conserving, Zval = 14.0
     Generated using "atomic" code by A. Dal Corso  (Quantum ESPRESSO distribution)
     Using radial grid of 1281 points,  2 beta functions with: 
                l(1) =   2
                l(2) =   1

     atomic species   valence    mass     pseudopotential
        Pb            14.00   207.20000     Pb( 1.00)

     48 Sym. Ops., with inversion, found



   Cartesian axes

     site n.     atom                  positions (alat units)
         1           Pb  tau(   1) = (   0.0000000   0.0000000   0.0000000  )

     number of k points=    60  Gaussian smearing, width (Ry)=  0.1000
                       cart. coord. in units 2pi/alat
        k(    1) = (  -0.0625000   0.0625000   0.0625000), wk =   0.0078125
        k(    2) = (  -0.1875000   0.1875000  -0.0625000), wk =   0.0234375
        k(    3) = (  -0.3125000   0.3125000  -0.1875000), wk =   0.0234375
        k(    4) = (  -0.4375000   0.4375000  -0.3125000), wk =   0.0234375
        k(    5) = (   0.4375000  -0.4375000   0.5625000), wk =   0.0234375
        k(    6) = (   0.3125000  -0.3125000   0.4375000), wk =   0.0234375
        k(    7) = (   0.1875000  -0.1875000   0.3125000), wk =   0.0234375
        k(    8) = (   0.0625000  -0.0625000   0.1875000), wk =   0.0234375
        k(    9) = (  -0.0625000   0.3125000   0.0625000), wk =   0.0234375
        k(   10) = (  -0.1875000   0.4375000  -0.0625000), wk =   0.0468750
        k(   11) = (  -0.3125000   0.5625000  -0.1875000), wk =   0.0468750
        k(   12) = (   0.5625000  -0.3125000   0.6875000), wk =   0.0468750
        k(   13) = (   0.4375000  -0.1875000   0.5625000), wk =   0.0468750
        k(   14) = (   0.3125000  -0.0625000   0.4375000), wk =   0.0468750
        k(   15) = (   0.1875000   0.0625000   0.3125000), wk =   0.0468750
        k(   16) = (  -0.0625000   0.5625000   0.0625000), wk =   0.0234375
        k(   17) = (  -0.1875000   0.6875000  -0.0625000), wk =   0.0468750
        k(   18) = (   0.6875000  -0.1875000   0.8125000), wk =   0.0468750
        k(   19) = (   0.5625000  -0.0625000   0.6875000), wk =   0.0468750
        k(   20) = (   0.4375000   0.0625000   0.5625000), wk =   0.0468750
        k(   21) = (   0.3125000   0.1875000   0.4375000), wk =   0.0468750
        k(   22) = (  -0.0625000   0.8125000   0.0625000), wk =   0.0234375
        k(   23) = (   0.8125000  -0.0625000   0.9375000), wk =   0.0468750
        k(   24) = (   0.6875000   0.0625000   0.8125000), wk =   0.0468750
        k(   25) = (   0.5625000   0.1875000   0.6875000), wk =   0.0468750
        k(   26) = (   0.4375000   0.3125000   0.5625000), wk =   0.0468750
        k(   27) = (  -0.0625000  -0.9375000   0.0625000), wk =   0.0234375
        k(   28) = (  -0.1875000  -0.8125000  -0.0625000), wk =   0.0468750
        k(   29) = (  -0.3125000  -0.6875000  -0.1875000), wk =   0.0468750
        k(   30) = (  -0.0625000  -0.6875000   0.0625000), wk =   0.0234375
        k(   31) = (  -0.1875000  -0.5625000  -0.0625000), wk =   0.0468750
        k(   32) = (  -0.0625000  -0.4375000   0.0625000), wk =   0.0234375
        k(   33) = (  -0.1875000   0.1875000   0.1875000), wk =   0.0078125
        k(   34) = (  -0.3125000   0.3125000   0.0625000), wk =   0.0234375
        k(   35) = (  -0.4375000   0.4375000  -0.0625000), wk =   0.0234375
        k(   36) = (   0.4375000  -0.4375000   0.8125000), wk =   0.0234375
        k(   37) = (   0.3125000  -0.3125000   0.6875000), wk =   0.0234375
        k(   38) = (   0.1875000  -0.1875000   0.5625000), wk =   0.0234375
        k(   39) = (  -0.1875000   0.4375000   0.1875000), wk =   0.0234375
        k(   40) = (  -0.3125000   0.5625000   0.0625000), wk =   0.0468750
        k(   41) = (   0.5625000  -0.3125000   0.9375000), wk =   0.0468750
        k(   42) = (   0.4375000  -0.1875000   0.8125000), wk =   0.0468750
        k(   43) = (   0.3125000  -0.0625000   0.6875000), wk =   0.0468750
        k(   44) = (  -0.1875000   0.6875000   0.1875000), wk =   0.0234375
        k(   45) = (   0.6875000  -0.1875000   1.0625000), wk =   0.0468750
        k(   46) = (   0.5625000  -0.0625000   0.9375000), wk =   0.0468750
        k(   47) = (   0.4375000   0.0625000   0.8125000), wk =   0.0468750
        k(   48) = (  -0.1875000  -1.0625000   0.1875000), wk =   0.0234375
        k(   49) = (  -0.3125000  -0.9375000   0.0625000), wk =   0.0468750
        k(   50) = (  -0.1875000  -0.8125000   0.1875000), wk =   0.0234375
        k(   51) = (  -0.3125000   0.3125000   0.3125000), wk =   0.0078125
        k(   52) = (  -0.4375000   0.4375000   0.1875000), wk =   0.0234375
        k(   53) = (   0.4375000  -0.4375000   1.0625000), wk =   0.0234375
        k(   54) = (   0.3125000  -0.3125000   0.9375000), wk =   0.0234375
        k(   55) = (  -0.3125000   0.5625000   0.3125000), wk =   0.0234375
        k(   56) = (   0.5625000  -0.3125000   1.1875000), wk =   0.0468750
        k(   57) = (   0.4375000  -0.1875000   1.0625000), wk =   0.0468750
        k(   58) = (  -0.3125000  -1.1875000   0.3125000), wk =   0.0234375
        k(   59) = (  -0.4375000   0.4375000   0.4375000), wk =   0.0078125
        k(   60) = (   0.4375000  -0.4375000   1.3125000), wk =   0.0234375

     Dense  grid:     2421 G-vectors     FFT dimensions: (  20,  20,  20)

     Estimated max dynamical RAM per process >       2.73 MB

     Estimated total dynamical RAM >       9.16 MB

     Initial potential from superposition of free atoms

     starting charge   13.99923, renormalised to   14.00000

     negative rho (up, down):  2.707E-03 0.000E+00
     Starting wfcs are    9 randomized atomic wfcs +    2 random wfcs

     total cpu time spent up to now is        0.8 secs

     Self-consistent Calculation

     iteration #  1     ecut=    20.00 Ry     beta= 0.70
     Davidson diagonalization with overlap
     ethr =  1.00E-02,  avg # of iterations =  5.6

     negative rho (up, down):  7.734E-04 0.000E+00

     total cpu time spent up to now is        4.0 secs

     total energy              =    -113.28584173 Ry
     estimated scf accuracy    <       1.11593207 Ry

     iteration #  2     ecut=    20.00 Ry     beta= 0.70
     Davidson diagonalization with overlap
     ethr =  7.97E-03,  avg # of iterations =  2.0

     negative rho (up, down):  2.529E-04 0.000E+00

     total cpu time spent up to now is        5.4 secs

     total energy              =    -113.54010197 Ry
     estimated scf accuracy    <       0.08818735 Ry

     iteration #  3     ecut=    20.00 Ry     beta= 0.70
     Davidson diagonalization with overlap
     ethr =  6.30E-04,  avg # of iterations =  2.1

     total cpu time spent up to now is        7.0 secs

     total energy              =    -113.55020828 Ry
     estimated scf accuracy    <       0.00394497 Ry

     iteration #  4     ecut=    20.00 Ry     beta= 0.70
     Davidson diagonalization with overlap
     ethr =  2.82E-05,  avg # of iterations =  2.7

     total cpu time spent up to now is        8.6 secs

     total energy              =    -113.55035321 Ry
     estimated scf accuracy    <       0.00008498 Ry

     iteration #  5     ecut=    20.00 Ry     beta= 0.70
     Davidson diagonalization with overlap
     ethr =  6.07E-07,  avg # of iterations =  2.8

     total cpu time spent up to now is       10.7 secs

     total energy              =    -113.55037149 Ry
     estimated scf accuracy    <       0.00003072 Ry

     iteration #  6     ecut=    20.00 Ry     beta= 0.70
     Davidson diagonalization with overlap
     ethr =  2.19E-07,  avg # of iterations =  2.0

     total cpu time spent up to now is       12.6 secs

     total energy              =    -113.55037816 Ry
     estimated scf accuracy    <       0.00000006 Ry

     iteration #  7     ecut=    20.00 Ry     beta= 0.70
     Davidson diagonalization with overlap
     ethr =  4.60E-10,  avg # of iterations =  2.0

     total cpu time spent up to now is       14.3 secs

     End of self-consistent calculation

          k =-0.0625 0.0625 0.0625 (   313 PWs)   bands (ev):

    -3.0012  -3.0012  -2.3577  -2.3577  -2.2423  -0.6770  17.4536  18.2038
    18.2038  22.2106  22.8948

          k =-0.1875 0.1875-0.0625 (   309 PWs)   bands (ev):

    -2.6485  -2.5853  -2.3364  -2.2073  -2.1131  -0.2759  15.0589  17.0376
    18.2393  22.0379  24.0143

          k =-0.3125 0.3125-0.1875 (   303 PWs)   bands (ev):

    -2.5395  -2.5140  -2.0405  -1.4456  -1.3285   0.7249  11.4785  16.2940
    17.6355  21.7507  23.1444

          k =-0.4375 0.4375-0.3125 (   300 PWs)   bands (ev):

    -2.2163  -2.2070  -1.8430  -1.3144  -0.8864   2.1577   8.4680  15.9451
    16.8738  21.5777  22.2366

          k = 0.4375-0.4375 0.5625 (   299 PWs)   bands (ev):

    -2.2002  -1.9927  -1.4682  -1.4475  -0.9629   2.9182   7.3579  16.0829
    16.4094  21.3377  22.3395

          k = 0.3125-0.3125 0.4375 (   302 PWs)   bands (ev):

    -2.5894  -2.1926  -2.0279  -1.3485  -1.0535   1.6544   9.3505  16.4314
    16.6417  21.3403  22.6966

          k = 0.1875-0.1875 0.3125 (   302 PWs)   bands (ev):

    -2.3837  -2.1155  -1.9860  -1.6842  -1.5281   0.3383  12.6630  16.9049
    17.4056  21.6825  23.5264

          k = 0.0625-0.0625 0.1875 (   305 PWs)   bands (ev):

    -2.4066  -2.3036  -2.1629  -2.0399  -1.8069  -0.4727  16.2889  17.6111
    17.8972  21.9375  23.6484

          k =-0.0625 0.3125 0.0625 (   303 PWs)   bands (ev):

    -2.2663  -2.2442  -2.1924  -1.8765  -1.5464  -0.0704  14.9668  16.7079
    16.9588  21.4655  22.7053

          k =-0.1875 0.4375-0.0625 (   302 PWs)   bands (ev):

    -2.5563  -2.2737  -1.6447  -1.5803  -1.5358   0.7284  12.6085  15.1003
    16.6006  21.3058  22.1501

          k =-0.3125 0.5625-0.1875 (   304 PWs)   bands (ev):

    -2.4626  -2.1679  -1.9407  -1.7493  -1.3639   2.0080   9.6564  14.3874
    15.7668  20.6711  23.7879

          k = 0.5625-0.3125 0.6875 (   303 PWs)   bands (ev):

    -2.4408  -2.1092  -1.8367  -1.6330  -1.2322   3.1142   7.8545  13.9296
    15.5192  20.6375  23.5783

          k = 0.4375-0.1875 0.5625 (   301 PWs)   bands (ev):

    -2.3907  -1.9832  -1.6948  -1.5111  -1.1590   2.4640   8.8781  13.7168
    16.1585  21.0743  23.3454

          k = 0.3125-0.0625 0.4375 (   303 PWs)   bands (ev):

    -2.5585  -2.4311  -1.9857  -1.5356  -1.2108   1.1116  11.5455  14.1492
    17.1885  21.9327  23.1121

          k = 0.1875 0.0625 0.3125 (   308 PWs)   bands (ev):

    -2.6539  -2.5896  -2.3716  -1.9813  -1.8907   0.1249  13.7931  16.0876
    17.7334  22.0097  23.1566

          k =-0.0625 0.5625 0.0625 (   307 PWs)   bands (ev):

    -2.6788  -2.6216  -2.3205  -1.6846  -1.5674   1.2863  12.1717  14.7339
    14.8730  19.7060  20.5404

          k =-0.1875 0.6875-0.0625 (   307 PWs)   bands (ev):

    -2.7128  -2.6640  -1.9277  -1.7033  -1.4684   2.3701  10.3887  13.2866
    14.1876  19.5190  21.2474

          k = 0.6875-0.1875 0.8125 (   300 PWs)   bands (ev):

    -2.4901  -1.8143  -1.6641  -1.3493  -0.9691   3.4725   8.9644  11.7610
    14.1508  19.7378  24.0436

          k = 0.5625-0.0625 0.6875 (   297 PWs)   bands (ev):

    -2.5057  -1.5324  -1.4383  -1.1647  -0.7607   3.3908   9.3111  10.9151
    14.8942  20.2448  25.6621

          k = 0.4375 0.0625 0.5625 (   305 PWs)   bands (ev):

    -2.4631  -2.2563  -2.0168  -1.7175  -1.4478   2.3141   9.9277  12.3422
    16.0975  21.0797  24.1700

          k = 0.3125 0.1875 0.4375 (   301 PWs)   bands (ev):

    -2.4584  -2.1748  -1.9897  -1.2954  -1.1539   1.2973  10.4621  15.3828
    16.9763  21.5139  23.0340

          k =-0.0625 0.8125 0.0625 (   310 PWs)   bands (ev):

    -3.0774  -2.6741  -2.1349  -1.8915  -1.3572   3.1615   9.3121  13.2623
    13.6588  18.3330  19.8851

          k = 0.8125-0.0625 0.9375 (   304 PWs)   bands (ev):

    -2.8948  -2.0499  -1.9705  -1.2281  -1.1615   3.9373   8.5776  12.1943
    13.2198  18.9400  20.8500

          k = 0.6875 0.0625 0.8125 (   297 PWs)   bands (ev):

    -2.4819  -1.5163  -1.2241  -1.1724  -0.9351   3.8859   9.1809  10.6513
    13.8842  19.5608  23.9714

          k = 0.5625 0.1875 0.6875 (   301 PWs)   bands (ev):

    -2.4657  -1.8205  -1.6021  -1.4253  -1.3144   3.3218   8.3566  12.3804
    15.0968  20.3664  24.4976

          k = 0.4375 0.3125 0.5625 (   302 PWs)   bands (ev):

    -2.3202  -2.0689  -1.7335  -1.5978  -1.2688   2.6987   7.9172  15.1632
    16.2502  21.0921  22.7971

          k =-0.0625-0.9375 0.0625 (   304 PWs)   bands (ev):

    -3.0302  -2.0110  -1.9979  -1.3197  -1.0106   3.9161   8.3337  12.9752
    13.4055  18.1650  19.7929

          k =-0.1875-0.8125-0.0625 (   305 PWs)   bands (ev):

    -2.7778  -2.4199  -1.9235  -1.5318  -1.0414   3.2742   9.3395  12.5744
    13.5208  19.1125  20.9860

          k =-0.3125-0.6875-0.1875 (   303 PWs)   bands (ev):

    -2.6045  -2.0303  -1.7617  -1.6047  -1.2613   2.7885   9.1265  13.1426
    14.7353  20.0806  24.1333

          k =-0.0625-0.6875 0.0625 (   307 PWs)   bands (ev):

    -2.9622  -2.6906  -2.0516  -1.4303  -1.3974   2.1981  10.7006  13.8598
    14.1580  18.8285  20.1431

          k =-0.1875-0.5625-0.0625 (   304 PWs)   bands (ev):

    -2.6784  -2.3348  -1.8158  -1.5740  -1.4806   1.4923  11.4848  14.1553
    15.2889  20.2763  21.6213

          k =-0.0625-0.4375 0.0625 (   303 PWs)   bands (ev):

    -2.4434  -2.3978  -1.8096  -1.6877  -1.6786   0.5194  13.5984  15.7498
    15.8266  20.8499  21.2080

          k =-0.1875 0.1875 0.1875 (   311 PWs)   bands (ev):

    -2.7714  -2.6810  -2.6810  -2.1520  -2.1520  -0.0764  13.8724  17.7083
    17.7083  21.5294  24.6862

          k =-0.3125 0.3125 0.0625 (   302 PWs)   bands (ev):

    -2.4870  -2.2938  -1.9006  -1.5693  -1.3773   0.5339  12.6074  15.1339
    17.9691  22.6247  22.9957

          k =-0.4375 0.4375-0.0625 (   305 PWs)   bands (ev):

    -2.7024  -2.4601  -2.1605  -1.7641  -1.0446   1.6472  10.6313  13.1905
    17.1177  21.3426  24.0106

          k = 0.4375-0.4375 0.8125 (   301 PWs)   bands (ev):

    -2.3653  -1.9357  -1.7316  -1.4030  -1.2725   2.9412   8.4062  13.0123
    16.0061  20.3908  24.4062

          k = 0.3125-0.3125 0.6875 (   304 PWs)   bands (ev):

    -2.5536  -2.2105  -1.8021  -1.7382  -1.2638   2.9654   8.3309  13.6425
    15.3073  19.9692  24.8409

          k = 0.1875-0.1875 0.5625 (   307 PWs)   bands (ev):

    -2.7023  -2.3777  -2.1946  -1.8526  -1.4738   1.6606  10.6116  14.7380
    15.2225  20.0673  22.8877

          k =-0.1875 0.4375 0.1875 (   302 PWs)   bands (ev):

    -2.4553  -2.2059  -1.9756  -1.5145  -1.3501   0.9216  11.5623  16.0300
    16.2449  21.1056  23.1424

          k =-0.3125 0.5625 0.0625 (   306 PWs)   bands (ev):

    -2.6463  -2.3834  -2.3131  -1.5534  -1.4249   1.8305  10.6467  13.2614
    15.7736  21.2474  23.0537

          k = 0.5625-0.3125 0.9375 (   300 PWs)   bands (ev):

    -2.5751  -2.0431  -1.5817  -1.1001  -1.0135   3.0260   9.5160  11.6426
    14.6016  21.3750  24.0422

          k = 0.4375-0.1875 0.8125 (   299 PWs)   bands (ev):

    -2.5214  -1.7294  -1.3083  -1.2644  -1.1345   3.5435   8.7716  11.7620
    13.9377  21.0068  24.2690

          k = 0.3125-0.0625 0.6875 (   302 PWs)   bands (ev):

    -2.5354  -2.2395  -1.4945  -1.4595  -1.2402   2.6717   9.9237  12.4961
    14.3087  20.7845  22.8231

          k =-0.1875 0.6875 0.1875 (   307 PWs)   bands (ev):

    -2.6434  -2.4581  -2.1903  -1.8937  -1.2868   2.5252   9.8233  13.2253
    14.5680  19.3717  22.5508

          k = 0.6875-0.1875 1.0625 (   302 PWs)   bands (ev):

    -2.5206  -2.2346  -1.5763  -1.5429  -0.9640   3.4611   9.3804  11.8214
    13.2257  20.4964  22.5952

          k = 0.5625-0.0625 0.9375 (   298 PWs)   bands (ev):

    -2.2241  -1.7258  -1.4932  -1.1445  -0.9715   3.9994   9.6718  10.5761
    12.3858  21.9657  24.2878

          k = 0.4375 0.0625 0.8125 (   300 PWs)   bands (ev):

    -2.5184  -1.8351  -1.4822  -1.2193  -1.1428   3.6333   9.4407  11.0702
    13.2155  21.7549  24.1394

          k =-0.1875-1.0625 0.1875 (   298 PWs)   bands (ev):

    -2.5723  -1.6709  -1.3977  -1.0509  -0.8620   3.9263   8.7983  11.3241
    13.8782  18.7789  22.2807

          k =-0.3125-0.9375 0.0625 (   299 PWs)   bands (ev):

    -2.3584  -2.1269  -1.3295  -1.1244  -0.9206   3.9805   9.0460  11.3578
    12.7256  20.3634  22.4843

          k =-0.1875-0.8125 0.1875 (   301 PWs)   bands (ev):

    -2.6575  -2.0636  -1.5882  -1.3352  -0.9303   3.3578   9.2076  11.9903
    14.1140  18.9535  22.3580

          k =-0.3125 0.3125 0.3125 (   302 PWs)   bands (ev):

    -2.3935  -2.2602  -2.2602  -1.2628  -1.2628   1.1129  10.3223  17.0775
    17.0775  21.2994  23.1168

          k =-0.4375 0.4375 0.1875 (   300 PWs)   bands (ev):

    -2.3914  -2.1613  -1.7949  -1.4074  -0.8603   1.8343   9.5375  14.5392
    17.0357  21.4802  22.9653

          k = 0.4375-0.4375 1.0625 (   299 PWs)   bands (ev):

    -2.3155  -1.6929  -1.6706  -1.2141  -1.1893   2.8790   9.4550  11.5473
    15.9143  20.2127  25.6794

          k = 0.3125-0.3125 0.9375 (   296 PWs)   bands (ev):

    -2.3455  -1.4249  -1.2040  -1.0451  -1.0159   3.6855   9.2748  10.4686
    14.7668  19.3850  25.7296

          k =-0.3125 0.5625 0.3125 (   304 PWs)   bands (ev):

    -2.3355  -2.0818  -2.0479  -1.6691  -1.5086   2.3242   8.6586  15.3149
    15.8187  20.6081  23.6708

          k = 0.5625-0.3125 1.1875 (   300 PWs)   bands (ev):

    -2.5736  -1.8660  -1.5890  -1.2864  -1.0596   3.0774   8.5867  12.8464
    14.8867  21.0014  23.6358

          k = 0.4375-0.1875 1.0625 (   299 PWs)   bands (ev):

    -2.4800  -1.7251  -1.3408  -1.2708  -1.0741   3.7844   9.4667  10.5215
    13.5151  20.9897  25.2331

          k =-0.3125-1.1875 0.3125 (   300 PWs)   bands (ev):

    -2.4167  -1.6805  -1.6348  -1.5290  -1.0425   3.4487   8.5248  11.9710
    14.9478  19.5612  25.7228

          k =-0.4375 0.4375 0.4375 (   296 PWs)   bands (ev):

    -1.9935  -1.8221  -1.8221  -0.7427  -0.7427   2.5588   7.6822  16.6542
    16.6542  21.4856  22.0600

          k = 0.4375-0.4375 1.3125 (   300 PWs)   bands (ev):

    -2.1321  -2.0562  -1.6117  -1.4499  -1.1239   3.0063   7.6145  14.6647
    16.1815  20.7739  23.2924

     the Fermi energy is    11.4170 ev

!    total energy              =    -113.55037817 Ry
     estimated scf accuracy    <          4.8E-09 Ry
     smearing contrib. (-TS)   =      -0.03589690 Ry
     internal energy E=F+TS    =    -113.51448126 Ry

     The total energy is F=E-TS. E is the sum of the following terms:
     one-electron contribution =     -24.05092315 Ry
     hartree contribution      =      21.53085297 Ry
     xc contribution           =     -14.17608539 Ry
     ewald contribution        =     -96.81832570 Ry

     convergence has been achieved in   7 iterations

     Writing output data file /home/fgoudreault/Workspace/abisuite/abisuite/unittests/test_workflows/test_files/qe_Pb/phonon_smearing_convergence/scf_runs/degauss0.1/k_points8_8_8/run/output_data/k_points8_8_8.save/

     init_run     :      0.43s CPU      0.69s WALL (       1 calls)
     electrons    :     10.47s CPU     13.57s WALL (       1 calls)

     Called by init_run:
     wfcinit      :      0.34s CPU      0.59s WALL (       1 calls)
     potinit      :      0.01s CPU      0.01s WALL (       1 calls)
     hinit0       :      0.08s CPU      0.08s WALL (       1 calls)

     Called by electrons:
     c_bands      :      9.81s CPU     12.92s WALL (       7 calls)
     sum_band     :      0.48s CPU      0.44s WALL (       7 calls)
     v_of_rho     :      0.01s CPU      0.01s WALL (       8 calls)
     mix_rho      :      0.00s CPU      0.00s WALL (       7 calls)

     Called by c_bands:
     init_us_2    :      0.03s CPU      0.03s WALL (     225 calls)
     cegterg      :      5.79s CPU      7.91s WALL (     105 calls)

     Called by *egterg:
     cdiaghg      :      0.72s CPU      1.10s WALL (     408 calls)
     h_psi        :      2.71s CPU      2.87s WALL (     423 calls)
     g_psi        :      0.01s CPU      0.01s WALL (     303 calls)

     Called by h_psi:
     h_psi:calbec :      0.02s CPU      0.02s WALL (     423 calls)
     vloc_psi     :      2.64s CPU      2.79s WALL (     423 calls)
     add_vuspsi   :      0.03s CPU      0.04s WALL (     423 calls)

     General routines
     calbec       :      0.02s CPU      0.01s WALL (     423 calls)
     fft          :      0.00s CPU      0.00s WALL (      23 calls)
     ffts         :      0.00s CPU      0.00s WALL (       7 calls)
     fftw         :      2.63s CPU      2.79s WALL (    7511 calls)

     Parallel routines

     PWSCF        :     10.99s CPU     14.35s WALL


   This run was terminated on:  14:37:49   6May2021            

=------------------------------------------------------------------------------=
   JOB DONE.
=------------------------------------------------------------------------------=
